0;0
0.011023;0
0.028546;0
0.047652;0
0.071225;0
0.088922;0
0.109104;0
0.12892;0
0.145264;0
0.166453;0
0.189224;0
0.212381;0
0.22495;0
0.249685;0
0.274977;0
0.298826;2398900
0.317571;2599800
0.340736;3584400
0.360059;4637800
0.384803;5084400
0.395198;5638000
0.421171;5859000
0.446049;5959000
0.471557;6200000
0.489894;7600000
0.502144;8000000
0.528061;8200000
0.549474;8300000
0.569215;9800000
0.59214;9900000
0.608166;9900000
0.633847;9900000
0.656839;10000000
0.673223;10000000
0.695241;10000000
0.714656;10100000
0.739057;10100000
0.760897;10100000
0.782819;10100000
0.80484;10100000
0.82628;10100000
0.839136;10100000
0.862212;10100000
0.888909;10100000
0.910158;10100000
0.935612;10100000
0.956178;10100000
0.970672;10100000
0.998413;10100000
1.026215;10100000
1.052817;10100000
1.068924;10100000
1.088234;10100000
1.111749;10100000
1.135993;10100000
1.163644;10100000
1.180096;10100000
1.204418;10100000
1.224447;10100000
1.246902;10100000
1.268809;10100000
1.288301;10100000
1.310738;10100000
1.333399;10100000
1.354559;10100000
1.373182;10100000
1.388015;10100000
1.410589;10100000
1.434518;10100000
1.45791;10100000
1.473917;10100000
1.488567;10100000
1.513036;10100000
1.537306;10100000
1.552454;10100000
1.578016;10100000
1.596174;10100000
1.618729;10100000
1.634572;10100000
1.657009;10100000
1.680636;10100000
1.703774;10100000
1.726111;10100000
1.739138;10100000
1.759006;10100000
1.785407;10100000
1.813025;10100000
1.839858;10100000
1.856584;10100000
1.877328;10100000
1.896491;10100000
1.920952;10100000
1.944561;10100000
1.968127;10100000
1.985849;10100000
2.007048;10100000
2.027646;10100000
2.04687;10100000
2.062672;10100000
2.088606;10100000
2.112056;10200000
2.133415;10300000
2.151799;10300000
2.17049;10300000
2.191691;10300000
2.214156;10300000
2.227231;10300000
2.250129;10300000
2.273319;10300000
2.293715;10300000
2.312124;10300000
2.330628;10300000
2.350023;10300000
2.37534;10300000
2.393759;10300000
2.411153;10400000
2.429489;10400000
2.453817;10400000
2.473046;10400000
2.492015;10400000
2.512732;10400000
2.527086;10400000
2.550003;10400000
2.568194;10500000
2.592267;10500000
2.615017;10500000
2.62993;10500000
2.643463;10600000
2.666414;10600000
2.689215;10600000
2.712281;10600000
2.732473;10600000
2.746828;10600000
2.768024;10600000
2.79093;10600000
2.811287;10600000
2.833112;10600000
2.851009;10600000
2.874123;10600000
2.900879;10700000
2.914023;10700000
2.932862;10700000
2.958257;10700000
2.982033;10700000
3.004827;10700000
3.022651;10700000
3.038591;10700000
3.062598;10700000
3.087197;10700000
3.108665;10700000
3.130601;10700000
3.145793;10700000
3.167454;10700000
3.194058;10700000
3.210625;10700000
3.231618;10700000
3.25639;10700000
3.281712;10700000
3.309581;10700000
3.325199;10700000
3.349831;10700000
3.367415;10700000
3.388346;10700000
3.412106;10700000
3.432158;10700000
3.450924;10700000
3.471689;10700000
3.497455;10700000
3.514866;10700000
3.536572;10700000
3.561885;10700000
3.588445;10700000
3.615459;10700000
3.63256;10700000
3.651436;10700000
3.674172;10700000
3.695711;10700000
3.723449;10700000
3.739488;10700000
3.760514;10700000
3.784206;10700000
3.808369;10700000
3.831519;10700000
3.85103;10700000
3.876017;10700000
3.89817;10700000
3.923802;10700000
3.947407;10700000
3.965853;10700000
3.983833;10700000
4.002291;10700000
4.026144;10700000
4.0496;10700000
4.0687;10700000
4.086791;10700000
4.105943;10700000
4.133074;10700000
4.148848;10700000
4.165431;10700000
4.185248;10700000
4.209111;10700000
4.231458;10700000
4.249163;10700000
4.269334;10700000
4.28812;10700000
4.312253;10700000
4.327422;10700000
4.346536;10700000
4.373038;10700000
4.398352;10700000
4.416064;10700000
4.436793;10700000
4.457762;10700000
4.483265;10700000
4.508514;10700000
4.52471;10700000
4.548784;10700000
4.573644;10700000
4.598251;10700000
4.624732;10700000
4.643123;10700000
4.664244;10700000
4.684273;10700000
4.712664;10700000
4.735957;10700000
4.75303;10700000
4.7749;10700000
4.79781;10700000
4.822229;10700000
4.84439;10700000
4.862888;10700000
4.879776;10700000
4.904309;10700000
4.929536;10700000
4.945189;10700000
4.96996;10700000
4.99111;10700000
5.015809;10700000
5.039441;10700000
5.048241;10700000
5.069788;10700000
5.09206;10700000
5.115091;10700000
5.134788;10700000
5.148298;10700000
5.16981;10700000
5.19412;10700000
5.214859;10700000
5.234718;10600000
5.248371;10600000
5.271363;10500000
5.292491;10500000
5.315965;10500000
5.333532;10500000
5.360169;10500000
5.385589;10500000
5.403798;10500000
5.422815;10500000
5.441701;10500000
5.466667;10500000
5.489691;10500000
5.506343;10500000
5.528985;10500000
5.550701;10500000
5.580626;10500000
5.602021;10400000
5.621734;10400000
5.639174;10400000
5.664911;10400000
5.688463;10400000
5.704771;10400000
5.728247;10400000
5.745555;10200000
5.765708;10200000
5.786674;10200000
5.803464;10200000
5.822862;10200000
5.844911;10200000
5.866161;10200000
5.879782;10200000
5.903653;10200000
5.925354;10200000
5.945635;10200000
5.967326;10200000
5.986083;10100000
6.0074;10100000
6.031924;10100000
6.053242;10100000
6.069269;10100000
6.088059;10100000
6.112637;10100000
6.138381;10100000
6.165224;10100000
6.18154;10100000
6.200968;10000000
6.218516;10000000
6.245543;10000000
6.267988;10000000
6.287988;10000000
6.307285;10000000
6.325029;10000000
6.350406;10000000
6.369551;10000000
6.388505;10000000
6.412124;10000000
6.427817;10000000
6.447676;10000000
6.471;10000000
6.492411;10000000
6.515315;10000000
6.52298;10000000
6.54594;10000000
6.568668;10000000
6.591478;10000000
6.616848;10000000
6.628343;10000000
6.652935;10000000
6.671558;10000000
6.695;10000000
6.721598;10000000
6.730019;10000000
6.749673;10000000
6.774749;10000000
6.799245;10000000
6.819829;10000000
6.840247;10000000
6.862723;10000000
6.8889;10000000
6.904136;10000000
6.921934;10000000
6.943638;10000000
6.965343;10000000
6.986869;10000000
7.008215;10000000
7.030406;10000000
7.05187;10000000
7.070609;10000000
7.090447;10000000
7.110446;10000000
7.138136;10000000
7.162386;10000000
7.179848;10000000
7.201507;10000000
7.226426;10000000
7.252551;10000000
7.266253;10000000
7.287088;10000000
7.310799;10000000
7.338943;10000000
7.364622;10000000
7.378001;10000000
7.401107;10000000
7.423571;10000000
7.448629;10100000
7.47292;10100000
7.483767;10100000
7.506476;10100000
7.530583;10100000
7.553185;10100000
7.575055;10100000
7.594014;10100000
7.61735;10100000
7.643006;10100000
7.669171;10100000
7.687987;10100000
7.708316;10100000
7.730913;10100000
7.756621;10100000
7.77635;10100000
7.799721;10100000
7.817339;10100000
7.840349;10100000
7.864115;10100000
7.87999;10100000
7.898225;10100000
7.92377;10100000
7.949566;10100000
7.976575;10100000
7.99461;10000000
8.014628;10000000
8.036684;10000000
8.064043;10000000
8.087276;10000000
8.107961;10000000
8.131457;10000000
8.154107;10000000
8.172989;10000000
8.19101;10000000
8.213774;10000000
8.235977;10000000
8.259068;10000000
8.269114;10000000
8.292056;10000000
8.315907;10000000
8.340804;10000000
8.36413;10000000
8.377637;10000000
8.401457;10000000
8.425257;10000000
8.446419;10000000
8.459346;10000000
8.482426;10000000
8.50711;10000000
8.521936;10000000
8.545736;10000000
8.563369;10000000
8.586205;10000000
8.609072;10000000
8.62361;10000000
8.641344;10000000
8.664267;10000000
8.690244;10000000
8.714916;10000000
8.735335;10000000
8.75388;10000000
8.773289;10000000
8.797598;10000000
8.815948;10000000
8.836751;10000000
8.859499;10000000
8.876858;10000000
8.895291;10000000
8.917377;10000000
8.938982;10000000
8.960426;10000000
8.980797;10000000
8.99581;10000000
9.018649;10000000
9.039736;10000000
9.0669;10000000
9.093472;10000000
9.109028;10000000
9.13125;10000000
9.1479;10000000
9.174599;10000000
9.193808;10000000
9.216795;10000000
9.24048;10000000
9.256971;10000000
9.280954;10000000
9.294967;10000000
9.318249;10000000
9.341494;10000000
9.360663;10000000
9.381313;10000000
9.394263;10000000
9.418696;10000000
9.437141;10000000
9.460487;10000000
9.477131;10000000
9.49663;10000000
9.516824;10000000
9.538712;10000000
9.558264;10000000
9.573429;10000000
9.600859;10000000
9.62209;10000000
9.640467;10000000
9.660328;10000000
9.685736;10000000
9.712521;10000000
9.72485;10000000
9.745146;10000000
9.768874;10000000
9.797363;10000000
9.823544;10000000
9.840027;10000000
9.858588;10000000
9.876033;10000000
9.898457;10000000
9.917529;10000000
9.937672;10100000
9.95407;10100000
9.976395;10100000
9.991489;10100000
10.015116;10100000
10.032335;10100000
10.054527;10100000
10.081979;10100000
10.09886;10100000
10.12109;10100000
10.142293;10100000
10.16753;10100000
10.191646;10100000
10.204458;10100000
10.227035;10100000
10.25288;10100000
10.283318;10100000
10.306664;10100000
10.316727;10100000
10.339695;10100000
10.36387;10100000
10.390254;10100000
10.409308;10100000
10.428422;10100000
10.451351;10100000
10.479202;10100000
10.504809;10100000
10.521218;10100000
10.542387;10100000
10.564451;10100000
10.594286;10100000
10.619386;10100000
10.635754;10100000
10.651271;10100000
10.675689;10100000
10.704218;10100000
10.721908;10100000
10.74498;10100000
10.764226;10100000
10.792046;10100000
10.818579;10100000
10.834327;10100000
10.857481;10100000
10.881251;10100000
10.902555;10100000
10.93138;10100000
10.949163;10100000
10.968843;10100000
10.99194;10100000
11.02053;10100000
11.048127;10100000
11.066266;10100000
11.089856;10100000
11.109549;10100000
11.138711;10100000
11.165317;10100000
11.181341;10100000
11.20299;10100000
11.223767;10200000
11.252116;10200000
11.277188;10200000
11.291356;10200000
11.312721;10200000
11.339536;10300000
11.363772;10400000
11.3919;10400000
11.406961;10400000
11.430806;10400000
11.452405;10600000
11.479597;10600000
11.503364;10600000
11.522862;10600000
11.54354;10600000
11.559731;10600000
11.58644;10600000
11.602635;10600000
11.624486;10600000
11.646468;10600000
11.670139;10600000
11.697058;10600000
11.711123;10600000
11.735731;10600000
11.758576;10700000
11.782593;10700000
11.807188;10700000
11.817335;10700000
11.83915;10800000
11.862686;10800000
11.886633;10800000
11.910056;10900000
11.923819;10900000
11.949873;10900000
11.974672;10900000
11.996831;10900000
12.016093;10900000
12.038474;10900000
12.062794;10900000
12.09101;10900000
12.113725;10900000
12.13342;11000000
12.151977;11000000
12.177239;11000000
12.204289;11000000
12.229782;11000000
12.247755;11000000
12.269118;11000000
12.292803;11000000
12.323011;11000000
12.348479;11000000
12.367116;11000000
12.385462;11000000
12.410967;11000000
12.4299;11000000
12.451439;11000000
12.473731;11000000
12.494946;11000000
12.515253;11000000
12.53974;11000000
12.558433;11000000
12.576595;11000000
12.596069;11000000
12.619192;11000000
12.637154;11000000
12.661129;11000000
12.676005;11000000
12.693315;11000000
12.717523;11000000
12.734632;11000000
12.758522;11000000
12.777432;11000000
12.796387;11000000
12.815764;11000000
12.83829;11000000
12.854494;11000000
12.877216;11000000
12.896217;11000000
12.913956;11000000
12.933679;11000000
12.957199;11000000
12.977638;11000000
12.99304;11000000
13.016368;11000000
13.039423;11000000
13.05934;11000000
13.084314;11000000
13.102166;11000000
13.121267;11000000
13.143739;11000000
13.163086;11000000
13.181769;11000000
13.203781;11000000
13.230724;11000000
13.258604;11000000
13.284876;11000000
13.30135;11000000
13.321089;11000000
13.344847;11000000
13.367102;11000000
13.388735;11000000
13.408542;11000000
13.425441;11000000
13.444923;11000000
13.461974;11000000
13.484743;11000000
13.505824;11000000
13.524723;11000000
13.545656;11000000
13.561004;11000000
13.582626;11000000
13.601328;11000000
13.623567;11000000
13.642537;11000000
13.665943;11000000
13.68834;11000000
13.704713;11000000
13.722275;11000000
13.745962;11000000
13.76459;10900000
13.790378;10900000
13.814831;10900000
13.828734;10900000
13.848369;10900000
13.873179;10900000
13.898682;10900000
13.921371;10900000
13.936754;10900000
13.962939;10900000
13.982846;10900000
14.009963;10900000
14.027839;10900000
14.051645;10900000
14.074225;10900000
14.094965;10800000
14.121387;10800000
14.133832;10800000
14.156554;10800000
14.177485;10800000
14.200508;10800000
14.227396;10800000
14.245172;10800000
14.268532;10800000
14.288669;10800000
14.315183;10800000
14.341748;10800000
14.356445;10800000
14.377201;10600000
14.402623;10600000
14.422116;10600000
14.447194;10600000
14.45528;10600000
14.479266;10600000
14.502444;10600000
14.523933;10400000
14.548144;10400000
14.555021;10400000
14.579909;10300000
14.604949;10300000
14.623807;10300000
14.646791;10300000
14.667816;10300000
14.693146;10300000
14.715516;10300000
14.733352;10300000
14.755232;10300000
14.774996;10300000
14.801081;10300000
14.826299;10300000
14.844272;10300000
14.868676;10300000
14.890439;10300000
14.913191;10300000
14.926969;10300000
14.946096;10300000
14.972695;10300000
14.992923;10300000
15.014126;10300000
15.025242;10300000
15.048854;10200000
15.072045;10200000
15.091425;10200000
15.114221;10200000
15.130279;10200000
15.152178;10100000
15.16479;10100000
15.187941;10100000
15.211447;10100000
15.232505;10100000
15.257338;10100000
15.266077;10100000
15.285298;10100000
15.309023;10000000
15.333536;10000000
15.358332;9800000
15.372992;9800000
15.395001;9800000
15.41349;9800000
15.438168;9800000
15.462036;9800000
15.4747;9900000
15.499212;9900000
15.516272;9900000
15.541913;9900000
15.562304;9900000
15.57545;9900000
15.594879;9900000
15.618429;9900000
15.642378;9900000
15.657693;9900000
15.675574;9900000
15.693235;9900000
15.717001;9900000
15.737869;9900000
15.754435;9900000
15.773409;9900000
15.797039;9900000
15.814188;9900000
15.837203;9900000
15.857088;9900000
15.87531;9900000
15.891348;9900000
15.91461;9900000
15.930056;9900000
15.954182;9900000
15.975696;9900000
15.996368;9900000
16.01635;9900000
16.033216;9900000
16.053309;9900000
16.07627;9900000
16.095397;9900000
16.116901;9900000
16.136637;9900000
16.156185;9900000
16.174991;9900000
16.198815;9900000
16.221131;9900000
16.246567;9900000
16.264244;9900000
16.279874;9900000
16.301477;9900000
16.325785;9900000
16.349912;9900000
16.367108;9900000
16.384734;9900000
16.405106;9900000
16.421591;9900000
16.444775;9900000
16.466871;9900000
16.492564;9900000
16.515016;9900000
16.534567;9900000
16.558059;9900000
16.579583;9900000
16.604877;9900000
16.624798;9900000
16.646232;9900000
16.666178;9900000
16.690518;9900000
16.71465;9900000
16.732277;9900000
16.750012;9900000
16.772014;9900000
16.796114;9900000
16.812563;9900000
16.835822;9900000
16.85486;9900000
16.87918;9900000
16.896492;9900000
16.913191;9900000
16.93049;9900000
16.953069;9900000
16.97441;9900000
16.997742;9900000
17.012425;9900000
17.033293;9900000
17.055479;9900000
17.079184;9900000
17.09157;9900000
17.114778;9900000
17.13775;9900000
17.161935;9900000
17.185566;9900000
17.19852;9900000
17.221502;9900000
17.244726;9900000
17.275252;9900000
17.292108;9900000
17.313097;9900000
17.333354;9900000
17.358887;9900000
17.377036;9900000
17.399658;9900000
17.422652;9900000
17.445957;9900000
17.467099;9900000
17.480562;9900000
17.506784;9900000
17.530535;9900000
17.55735;9900000
17.58353;9900000
17.599816;9900000
17.621651;9900000
17.644705;9900000
17.670822;9900000
17.69512;9900000
17.710655;9900000
17.728731;9900000
17.755118;9900000
17.776725;9900000
17.799771;9900000
17.822611;9900000
17.838401;9900000
17.862846;9900000
17.885391;9900000
17.904735;9900000
17.926309;9900000
17.9467;9900000
17.974167;9900000
18.000506;9900000
18.015542;9900000
18.034229;9900000
18.063989;9900000
18.087581;9900000
18.112641;9900000
18.128451;9900000
18.153588;9900000
18.176254;9900000
18.201141;9900000
18.215869;9900000
18.236311;9900000
18.259854;9900000
18.285398;9900000
18.308316;9900000
18.321393;9900000
18.343277;9900000
18.365988;9900000
18.388917;9900000
18.413294;9900000
18.427756;9900000
18.447128;9900000
18.470416;9900000
18.4952;9900000
18.513409;9900000
18.533357;9900000
18.556142;9900000
18.576721;9900000
18.596757;9900000
18.620685;9900000
18.638581;9900000
18.660934;9900000
18.683959;9900000
18.702982;9900000
18.721329;9900000
18.7399;9900000
18.760444;9900000
18.784137;9900000
18.806779;9900000
18.829603;9900000
18.849813;9900000
18.876024;9900000
18.894334;9900000
18.914674;9900000
18.938311;9900000
18.961515;9900000
18.985128;9900000
19.004851;9900000
19.025035;9900000
19.044307;9900000
19.067014;9900000
19.081601;9900000
19.102874;9900000
19.124441;9900000
19.145656;9900000
19.162539;9900000
19.184527;9900000
19.208166;10000000
19.226224;10000000
19.248327;10000000
19.262299;10000000
19.286528;10000000
19.310992;10000000
19.334056;10000000
19.357359;10000000
19.3689;10000000
19.391867;10000000
19.414231;10000000
19.439911;10000000
19.456255;10000000
19.472692;10000000
19.493299;9900000
19.518199;9900000
19.539888;9900000
19.562803;9900000
19.577948;9900000
19.600698;9900000
19.623534;9900000
19.641154;9900000
19.663385;9900000
19.684387;9900000
19.706847;9900000
19.725748;9900000
19.749583;9900000
19.768714;9900000
19.788054;9900000
19.804945;9900000
19.825363;9900000
19.844532;9900000
19.866322;9900000
19.88987;9900000
19.904475;9900000
19.920793;9900000
19.942144;9900000
19.96771;9900000
19.986566;9900000
20.009333;9900000
20.028443;9900000
20.048247;9900000
20.066073;9900000
20.087787;9900000
20.110432;9900000
20.134763;9900000
20.155757;9900000
20.172415;9900000
20.194518;9900000
20.216972;9900000
20.240273;9900000
20.268228;9900000
20.283174;9900000
20.30911;9900000
20.332055;9900000
20.352231;9900000
20.370768;9900000
20.391741;9900000
20.414663;9900000
20.439682;9900000
20.463386;9900000
20.481325;9900000
20.507265;9900000
20.529003;9900000
20.556795;9900000
20.58293;9900000
20.599592;9900000
20.618134;9900000
20.640441;9900000
20.664765;9900000
20.687832;9900000
20.707943;9900000
20.729517;9900000
20.752024;9900000
20.773511;10000000
20.791335;10000000
20.811537;10000000
20.833821;10000000
20.860732;10000000
20.883996;10000000
20.901185;10000000
20.92352;10000000
20.945302;10000000
20.970254;10000000
20.985887;10000000
21.008234;10000000
21.031261;10000000
21.055399;10000000
21.075687;10000000
21.092645;10000000
21.108277;10000000
21.133802;10000000
21.159105;10000000
21.182492;10000000
21.201746;10000000
21.215783;10000000
21.245844;10000000
21.269794;10000000
21.287817;10000000
21.310586;10000000
21.33464;10000000
21.355442;10000000
21.371841;10000000
21.389033;10000000
21.413375;10000000
21.434846;10000000
21.458229;10000000
21.474741;10000000
21.491458;10000000
21.512792;10000000
21.53608;10100000
21.559353;10100000
21.578749;10100000
21.596224;10100000
21.619221;10100000
21.634212;10100000
21.657806;10100000
21.681124;10100000
21.702569;10200000
21.719288;10200000
21.74215;10200000
21.756256;10200000
21.780109;10200000
21.802519;10200000
21.819711;10300000
21.838431;10300000
21.859579;10400000
21.881916;10400000
21.905645;10400000
21.923577;10500000
21.940648;10500000
21.96378;10500000
21.984904;10500000
22.000041;10500000
22.023408;10500000
22.044948;10600000
22.071199;10600000
22.09565;10600000
22.107361;10700000
22.129648;10700000
22.153149;10700000
22.175303;10700000
22.19804;10700000
22.21657;10700000
22.237826;10700000
22.261694;10700000
22.276622;10700000
22.296583;10700000
22.318205;10700000
22.342526;10700000
22.365935;10700000
22.382266;10700000
22.403936;10700000
22.427068;10700000
22.451432;10700000
22.472651;10700000
22.492529;10700000
22.514578;10700000
22.535962;10700000
22.552619;10700000
22.56751;10700000
22.590882;10700000
22.614387;10700000
22.637251;10700000
22.653554;10700000
22.665846;10700000
22.689229;10700000
22.712941;10700000
22.737597;10700000
22.757495;10700000
22.772347;10700000
22.800439;10700000
22.82426;10700000
22.839533;10800000
22.861977;10800000
22.885908;10800000
22.910298;10800000
22.936578;10800000
22.952289;10800000
22.976688;10800000
22.995992;10800000
23.021864;10800000
23.045957;10800000
23.060022;10800000
23.08047;10800000
23.105215;10800000
23.127979;10800000
23.149572;10800000
23.164285;10800000
23.185647;10800000
23.207031;10800000
23.230158;10800000
23.249981;10800000
23.266076;10800000
23.28556;10800000
23.306334;10800000
23.325792;10800000
23.34613;10800000
23.366987;10800000
23.388493;10800000
23.410799;10800000
23.428302;10800000
23.447983;10800000
23.465617;10800000
23.493042;10800000
23.508249;10800000
23.531313;10800000
23.554931;10800000
23.578068;10800000
23.601837;10800000
23.610937;10800000
23.633867;10800000
23.660585;10800000
23.687297;10800000
23.705846;10800000
23.714645;10800000
23.737755;10800000
23.762471;10800000
23.780665;10800000
23.802861;10800000
23.814902;10800000
23.837399;10800000
23.861263;10800000
23.881642;10800000
23.904837;10800000
23.92626;10800000
23.94265;10800000
23.956664;10800000
23.981868;10800000
24.002398;10800000
24.026278;10800000
24.043215;10800000
24.055137;10800000
24.078481;10800000
24.102534;10800000
24.125534;10800000
24.145948;10800000
24.156625;10800000
24.18132;10800000
24.198586;10800000
24.222668;10800000
24.245668;10800000
24.270437;10800000
24.291855;10800000
24.310624;10800000
24.330829;10800000
24.3536;10800000
24.37932;10800000
24.404687;10800000
24.423225;10800000
24.447592;10800000
24.469173;10800000
24.494763;10800000
24.522018;10800000
24.537691;10800000
24.564665;10800000
24.58879;10800000
24.616977;10800000
24.644878;10800000
24.660465;10800000
24.682321;10800000
24.705438;10800000
24.729447;10800000
24.751884;10800000
24.770828;10800000
24.781474;10800000
24.804265;10800000
24.828151;10800000
24.850658;10800000
24.870673;10800000
24.881043;10800000
24.901745;10800000
24.924896;10800000
24.948999;10800000
24.971191;10800000
24.979888;10800000
24.998551;10800000
25.022518;10800000
25.04577;10800000
25.067164;10800000
25.076811;10800000
25.096991;10800000
25.118415;10800000
25.142086;10800000
25.166131;10800000
25.172293;10800000
25.195629;10800000
25.217604;10800000
25.2397;10800000
25.260584;10800000
25.269214;10800000
25.292082;10800000
25.316659;10800000
25.339414;10800000
25.35847;10800000
25.374859;10800000
25.395624;10800000
25.418258;10800000
25.440235;10800000
25.463236;10800000
25.482928;10600000
25.504435;10600000
25.528392;10300000
25.54233;10300000
25.564748;10300000
25.581294;10300000
25.60541;10300000
25.628969;10300000
25.641889;10300000
25.67058;10300000
25.691994;10100000
25.71077;10100000
25.735971;10100000
25.752529;10200000
25.774627;10000000
25.800605;10000000
25.81638;10000000
25.836487;10000000
25.861481;9900000
25.888039;9900000
25.911737;9900000
25.930489;9900000
25.950644;9900000
25.97546;9900000
26.001306;9900000
26.027851;9900000
26.045815;9900000
26.064152;9900000
26.086305;9900000
26.110588;9900000
26.133028;9900000
26.154647;9900000
26.170162;9900000
26.192382;9900000
26.21431;9900000
26.235042;9900000
26.251;9900000
26.268385;9900000
26.292964;9900000
26.316675;9900000
26.338356;9900000
26.35316;9900000
26.371874;9900000
26.395446;9900000
26.419778;9900000
26.439457;9900000
26.45991;9900000
26.470832;9900000
26.492379;9900000
26.51478;9900000
26.538005;9900000
26.561602;9900000
26.572792;9900000
26.588306;9900000
26.612909;9900000
26.634429;9900000
26.659893;9900000
26.674682;9900000
26.697279;9900000
26.718773;9900000
26.747698;9900000
26.768546;9900000
26.781222;9900000
26.804484;10000000
26.826491;10000000
26.850477;10000000
26.870439;10000000
26.888261;10000000
26.908741;10000000
26.9369;10000000
26.96423;10100000
26.980654;10100000
27.001227;10100000
27.027186;10100000
27.053879;10100000
27.07901;10100000
27.090971;10100000
27.113116;10100000
27.13746;10100000
27.165087;10100000
27.19192;10100000
27.209103;10100000
27.234497;10100000
27.256672;10100000
27.281743;10100000
27.307649;10100000
27.321793;10100000
27.345801;10100000
27.366036;10100000
27.390944;10100000
27.41655;10100000
27.436701;10100000
27.457306;10100000
27.476348;10100000
27.500511;10100000
27.516719;10100000
27.535648;10100000
27.555687;10100000
27.57902;10100000
27.602619;10100000
27.625515;10100000
27.641258;10100000
27.659927;10100000
27.67961;10100000
27.702898;10100000
27.723166;10100000
27.744904;10100000
27.762781;10100000
27.780684;10100000
27.79923;10100000
27.821449;10100000
27.844931;10100000
27.865128;10100000
27.886068;10100000
27.901105;10100000
27.926048;10100000
27.939813;10100000
27.963783;10100000
27.984382;10100000
28.005497;10100000
28.025248;10100000
28.043122;10100000
28.063023;10100000
28.083566;10100000
28.109733;10100000
28.139903;10100000
28.156737;10100000
28.180391;10100000
28.203917;10100000
28.227319;10100000
28.252286;10100000
28.2714;10100000
28.291148;10100000
28.314856;10100000
28.336193;10100000
28.359257;10100000
28.377795;10100000
28.399715;10100000
28.421558;10000000
28.444824;10000000
28.459499;10000000
28.481745;10000000
28.502416;10000000
28.525961;10000000
28.549446;10000000
28.561198;10000000
28.584708;10000000
28.607821;10000000
28.631375;10000000
28.6548;10000000
28.669929;10000000
28.69079;10000000
28.714483;10000000
28.73242;10000000
28.753728;10000000
28.775583;10000000
28.79864;10000000
28.818831;10000000
28.836099;10000000
28.852308;10000000
28.875683;10000000
28.901209;10000000
28.927044;10000000
28.94425;10000000
28.965918;10000000
28.995674;10000000
29.020282;10000000
29.049379;10000000
29.065632;10000000
29.088066;10000000
29.112021;10000000
29.13772;10000000
29.163368;10000000
29.181679;10000000
29.198334;10000000
29.221957;10000000
29.24857;10000000
29.264863;10000000
29.288454;10000000
29.307316;10000000
29.334674;10000000
29.363967;10000000
29.380059;10000000
29.401097;10000000
29.423494;10000000
29.450347;10000000
29.476405;10000000
29.492591;10000000
29.514861;10000000
29.540217;10000000
29.559297;10000000
29.578792;10000000
29.601534;10000000
29.623109;10000000
29.646048;10000000
29.657617;10000000
29.680671;10000000
29.699522;10000000
29.720817;10000000
29.741422;10000000
29.755886;10000000
29.775438;10000000
29.799111;10000000
29.818529;10000000
29.842476;10000000
29.857526;10000000
29.87885;10000000
29.895695;10000000
29.922367;10000000
29.938965;10000000
29.958819;10000000
29.981553;10000000
30.000152;10000000
30.025175;10000000
30.038306;10000000
30.059872;10000000
30.081729;10000000
30.104384;10000000
30.125093;10000000
30.139162;10000000
30.16116;10000000
30.187572;10000000
30.209254;10000000
30.225934;10000000
30.246437;10000000
30.269422;10000000
30.290882;10000000
30.310537;10000000
30.333554;10000000
30.354867;10000000
30.372453;10000000
30.391207;10000000
30.414024;10000000
30.436432;10000000
30.459563;10000000
30.472331;10000000
30.492981;10000000
30.513206;10000000
30.535201;10000000
30.557111;10000000
30.56966;10000000
30.592702;10000000
30.615925;10000000
30.640932;10000000
30.664959;10000000
30.676554;10000000
30.696392;10000000
30.721748;10000000
30.745578;10000000
30.761926;10000000
30.782921;10000000
30.799213;10000000
30.822963;10000000
30.84373;10000000
30.864422;10000000
30.887175;10000000
30.909701;10000000
30.929526;10000000
30.952377;10000000
30.970049;10000000
30.994665;10000000
31.020828;10000000
31.03606;10000000
31.05319;10000000
31.081336;10000000
31.110341;10000000
31.132775;10000000
31.151291;10000000
31.175219;10000000
31.195772;10000000
31.219994;10000000
31.246495;10000000
31.262379;10000000
31.279454;10000000
31.30475;10000000
31.330415;10000000
31.353669;10000000
31.371252;10000000
31.391996;10000000
31.418136;10000000
31.445309;10000000
31.47008;10000000
31.488832;10000000
31.510078;10000000
31.531447;10000000
31.553302;10000000
31.573853;10000000
31.596836;10000000
31.614524;10000000
31.638388;10000000
31.66184;10000000
31.677587;10000000
31.697749;10000000
31.721534;10000000
31.743848;10000000
31.767797;10000000
31.781859;10000000
31.80823;10000000
31.828741;10000000
31.85595;10000000
31.884955;10000000
31.899499;10000000
31.92262;10000000
31.944834;10000000
31.970184;10000000
31.992926;10000000
32.008211;10100000
32.033355;10100000
32.055985;10100000
32.082204;10100000
32.103942;10300000
32.126797;10500000
32.144108;10500000
32.165799;10500000
32.194205;10500000
32.213051;10500000
32.235745;10500000
32.258463;10500000
32.281835;10500000
32.304252;10500000
32.319294;10600000
32.3426;10600000
32.365294;10600000
32.388573;10600000
32.413292;10700000
32.42933;10700000
32.450578;10700000
32.477169;10700000
32.498627;10700000
32.52877;10700000
32.545382;10700000
32.564986;10700000
32.593929;10700000
32.618778;10700000
32.648983;10700000
32.660709;10700000
32.685043;10700000
32.707251;10700000
32.726306;10700000
32.74915;10700000
32.760649;10700000
32.784577;10700000
32.807159;10700000
32.830724;10700000
32.853248;10700000
32.867871;10700000
32.893683;10700000
32.915048;10700000
32.94022;10700000
32.962585;10700000
32.985998;10700000
33.006027;10700000
33.031139;10700000
33.055392;10700000
33.075985;10700000
33.092998;10700000
33.112272;10700000
33.134946;10700000
33.154956;10700000
33.177212;10700000
33.200279;10700000
33.223379;10700000
33.243474;10700000
33.263348;10700000
33.277055;10700000
33.301897;10700000
33.326509;10700000
33.344458;10700000
33.36541;10700000
33.37897;10700000
33.405311;10700000
33.430799;10700000
33.447042;10700000
33.468785;10700000
33.492876;10700000
33.520738;10700000
33.547246;10700000
33.561803;10700000
33.578451;10700000
33.602622;10700000
33.629555;10700000
33.643706;10700000
33.667883;10700000
33.687848;10700000
33.714566;10700000
33.741556;10700000
33.755049;10700000
33.77322;10700000
33.802268;10700000
33.825597;10700000
33.846475;10700000
33.861812;10700000
33.885732;10700000
33.909971;10700000
33.932487;10700000
33.95243;10700000
33.967259;10700000
33.988889;10700000
34.006364;10700000
34.025121;10700000
34.047753;10700000
34.069475;10700000
34.093955;10700000
34.112135;10700000
34.130572;10700000
34.147904;10700000
34.172507;10700000
34.197491;10700000
34.21823;10700000
34.239498;10700000
34.257633;10700000
34.283163;10700000
34.304625;10700000
34.324299;10700000
34.342586;10700000
34.366439;10700000
34.390024;10700000
34.411928;10700000
34.43136;10700000
34.445516;10700000
34.470402;10700000
34.495794;10700000
34.517356;10700000
34.540404;10700000
34.556039;10700000
34.578466;10700000
34.605308;10700000
34.62136;10700000
34.642407;10700000
34.665909;10700000
34.690372;10700000
34.707641;10700000
34.730338;10700000
34.753174;10700000
34.776508;10700000
34.79324;10700000
34.814376;10700000
34.83243;10700000
34.856163;10700000
34.881136;10700000
34.909815;10700000
34.926994;10700000
34.952099;10700000
34.967211;10700000
34.99163;10700000
35.016121;10700000
35.039384;10700000
35.057728;10700000
35.073374;10700000
35.091049;10700000
35.114124;10700000
35.133505;10700000
35.15933;10700000
35.182351;10700000
35.195728;10700000
35.21285;10700000
35.239818;10700000
35.266215;10700000
35.291045;10700000
35.308531;10500000
35.325096;10500000
35.346443;10500000
35.372024;10500000
35.3903;10500000
35.413946;10500000
35.436864;10500000
35.456985;10500000
35.473793;10500000
35.492921;10500000
35.519719;10500000
35.543684;10500000
35.566659;10500000
35.586105;10500000
35.601334;10500000
35.624462;10500000
35.648705;10500000
35.670695;10500000
35.689265;10500000
35.707946;10500000
35.733383;10500000
35.75795;10500000
35.766812;10400000
35.787085;10400000
35.812635;10400000
35.833022;10400000
35.854686;10400000
35.873143;10400000
35.897077;10400000
35.921175;10400000
35.936544;10400000
35.953258;10400000
35.979074;10400000
36.004646;10400000
36.027515;10400000
36.045562;10400000
36.068868;10400000
36.090776;10400000
36.111334;10400000
36.126473;10400000
36.150407;10400000
36.174469;10400000
36.203514;10300000
36.226777;10100000
36.246502;10100000
36.267576;10100000
36.287733;10100000
36.309968;10100000
36.333997;10100000
36.35174;10000000
36.372914;10000000
36.396783;10000000
36.418175;10000000
36.447985;10000000
36.463692;10000000
36.484471;10000000
36.506785;10000000
36.534083;10000000
36.560363;10000000
36.572913;10000000
36.598822;10000000
36.619332;10000000
36.644191;10000000
36.668863;10000000
36.686731;10000000
36.707567;10000000
36.731898;10000000
36.75911;10000000
36.783822;10000000
36.799076;10000000
36.821995;10000000
36.84734;10000000
36.872963;10000000
36.899956;10000000
36.916644;10000000
36.940093;10000000
36.962437;10000000
36.986762;10000000
37.012209;10000000
37.022281;10000000
37.043912;10000000
37.07048;10000000
37.094698;10000000
37.112733;10000000
37.130616;10100000
37.149713;10100000
37.175154;10100000
37.193582;10100000
37.216967;10200000
37.231538;10200000
37.255651;10200000
37.276227;10200000
37.299447;10200000
37.317958;10200000
37.342107;10200000
37.356681;10200000
37.379935;10200000
37.401721;10200000
37.426981;10200000
37.455464;10200000
37.47073;10200000
37.489372;10200000
37.513675;10200000
37.537486;10200000
37.560688;10200000
37.579983;10200000
37.594697;10200000
37.621707;10200000
37.645896;10200000
37.664859;10200000
37.685914;10200000
37.707635;10200000
37.735062;10200000
37.761174;10200000
37.780654;10200000
37.803696;10200000
37.825988;10200000
37.851616;10200000
37.876809;10200000
37.895139;10200000
37.912762;10200000
37.935279;10200000
37.96102;10200000
37.983255;10200000
38.002;10200000
38.01682;10200000
38.0446;10200000
38.07059;10200000
38.08393;10200000
38.10757;10200000
38.128686;10200000
38.148539;10200000
38.174805;10200000
38.183614;10200000
38.206034;10200000
38.228696;10200000
38.253257;10200000
38.275352;10200000
38.290192;10200000
38.313566;10200000
38.344965;10200000
38.36889;10200000
38.386873;10200000
38.406057;10200000
38.423483;10200000
38.448112;10200000
38.469693;10200000
38.490554;10200000
38.51014;10200000
38.527123;10200000
38.546327;10200000
38.57003;10200000
38.589812;10200000
38.610335;10200000
38.630947;10200000
38.647993;10200000
38.664665;10200000
38.685598;10200000
38.708742;10200000
38.732819;10100000
38.747719;10100000
38.762766;10100000
38.786117;10100000
38.811098;10100000
38.825474;10100000
38.849095;10100000
38.870371;10100000
38.89396;10100000
38.914521;10100000
38.929395;10100000
38.95029;10100000
38.970244;10100000
38.991786;10100000
39.013254;10100000
39.034083;10100000
39.052589;10100000
39.079517;10100000
39.098115;10100000
39.122142;10100000
39.142534;10100000
39.163731;10100000
39.185485;10100000
39.203334;10100000
39.221884;10100000
39.240719;10100000
39.265659;10100000
39.29013;10100000
39.310054;10100000
39.327568;10100000
39.347728;10100000
39.370073;10100000
39.391577;10100000
39.407551;10100000
39.433454;10100000
39.458464;10100000
39.474819;10100000
39.492777;10100000
39.513616;10100000
39.539609;10100000
39.563664;10100000
39.582363;10100000
39.603157;10100000
39.625314;10100000
39.653908;10100000
39.680864;10100000
39.696981;10100000
39.719128;10100000
39.73964;10100000
39.764982;10100000
39.787889;10100000
39.80776;10000000
39.825376;10000000
39.842169;10000000
39.866381;10000000
39.89061;10000000
39.910269;10000000
39.92986;10000000
39.946745;10000000
39.96855;10000000
39.989994;10000000
40.010471;10000000
40.033589;10000000
40.050724;10000000
40.070701;10000000
40.091211;10000000
40.112788;10000000
40.134319;10000000
40.153607;10000000
40.172457;10000000
40.194736;10000000
40.21435;10000000
40.238512;10000000
40.254871;10000000
40.274535;10000000
40.297059;10000000
40.316577;10000000
40.335225;10000000
40.356758;10000000
40.372158;10000000
40.392255;10000000
40.415813;10000000
40.433956;10000000
40.451331;10000000
40.467841;10000000
40.491503;10000000
40.514367;10000000
40.537415;10000000
40.55365;10000000
40.571954;10000000
40.593011;10000000
40.612343;10000000
40.633289;10000000
40.655615;10000000
40.669912;10000000
40.694123;10000000
40.715484;10000000
40.734765;10000000
40.758933;10000000
40.773081;10000000
40.793455;10000000
40.815821;10000000
40.840201;10000000
40.854093;10000000
40.879589;10000000
40.901492;10000000
40.925381;10000000
40.949923;10000000
40.965455;10000000
40.984834;10000000
41.009641;10000000
41.034069;10000000
41.058206;10000000
41.080334;10000000
41.093874;10000000
41.120527;10000000
41.149165;10000000
41.166488;10000000
41.187522;10000000
41.207961;10000000
41.230582;10000000
41.258945;10000000
41.274785;10000000
41.293855;10000000
41.315956;10000000
41.341445;10000000
41.358819;10000000
41.379311;10000000
41.403179;10000000
41.427815;10000000
41.446758;10000000
41.469709;10000000
41.493588;10000000
41.514821;10000000
41.53722;10000000
41.553927;10000000
41.572141;10000000
41.594515;10000000
41.617213;10000000
41.642114;10000000
41.663243;10000000
41.684976;10000000
41.70701;10000000
41.72499;10000000
41.740875;10000000
41.761759;10000000
41.785084;10000000
41.807792;10000000
41.832364;10000000
41.846408;10000000
41.860426;10000000
41.883464;10000000
41.90975;10000000
41.928321;10000000
41.950604;10000000
41.968712;10000000
41.994224;10000000
42.010926;10000000
42.034514;10000000
42.056327;10000000
42.081224;10000000
42.105645;10000000
42.120554;10000000
42.140366;10000000
42.165572;10000000
42.188181;10000000
42.214296;10000000
42.234967;10000000
42.254992;10000000
42.277131;10000000
42.298324;10000000
42.312316;10000000
42.335356;10000000
42.356041;10000000
42.37835;10000000
42.402086;10000000
42.420603;10000000
42.441003;10400000
42.459497;10400000
42.4823;10400000
42.498531;10400000
42.521715;10400000
42.545476;10400000
42.567801;10500000
42.592418;10500000
42.609714;10500000
42.633789;10500000
42.656792;10500000
42.680448;10500000
42.697612;10500000
42.71677;10500000
42.741004;10500000
42.766997;10500000
42.789763;10500000
42.809202;10500000
42.83031;10500000
42.853601;10500000
42.876375;10500000
42.898272;10500000
42.918151;10500000
42.937044;10500000
42.960559;10500000
42.987103;10500000
43.000246;10500000
43.021637;10500000
43.042383;10500000
43.065612;10500000
43.089895;10500000
43.104309;10500000
43.125617;10500000
43.149159;10500000
43.170776;10500000
43.191689;10500000
43.211115;10500000
43.227599;10600000
43.253159;10600000
43.279388;10600000
43.302518;10600000
43.319632;10600000
43.337291;10600000
43.358984;10600000
43.384526;10600000
43.399808;10600000
43.422652;10600000
43.441032;10600000
43.465312;10600000
43.489229;10600000
43.506708;10600000
43.529292;10600000
43.552578;10600000
43.578259;10600000
43.606323;10600000
43.61857;10600000
43.642756;10600000
43.66692;10600000
43.688064;10600000
43.713365;10600000
43.729065;10600000
43.750406;10600000
43.770476;10600000
43.796227;10600000
43.822125;10600000
43.836081;10600000
43.862362;10600000
43.881356;10600000
43.907183;10600000
43.933713;10600000
43.94772;10600000
43.970156;10600000
43.991391;10600000
44.017671;10600000
44.04171;10600000
44.054188;10600000
44.071522;10600000
44.100902;10600000
44.125953;10600000
44.144096;10600000
44.163499;10600000
44.184991;10600000
44.21215;10600000
44.238981;10600000
44.253712;10600000
44.276316;10600000
44.294513;10600000
44.317902;10600000
44.340926;10600000
44.358137;10600000
44.383294;10600000
44.40618;10600000
44.421267;10600000
44.4357;10600000
44.462422;10600000
44.486343;10600000
44.502698;10600000
44.525172;10600000
44.546895;10600000
44.569698;10600000
44.596627;10600000
44.615567;10600000
44.638338;10600000
44.659162;10600000
44.683963;10600000
44.710384;10600000
44.729544;10600000
44.749516;10600000
44.771699;10600000
44.794833;10600000
44.81643;10600000
44.840573;10600000
44.860985;10600000
44.877081;10600000
44.899845;10600000
44.917359;10600000
44.940193;10600000
44.96183;10600000
44.988069;10600000
45.005528;10600000
45.031087;10600000
45.050099;10600000
45.071332;10600000
45.09317;10600000
45.111127;10600000
45.135566;10600000
45.155949;10600000
45.17882;10600000
45.192529;10600000
45.215272;10600000
45.238614;10600000
45.261452;10600000
45.281184;10600000
45.292532;10600000
45.316091;10600000
45.336113;10600000
45.35939;10600000
45.382039;10600000
45.394332;10600000
45.412408;10600000
45.438844;10600000
45.464597;10600000
45.481614;10600000
45.503425;10600000
45.527645;10600000
45.553738;10600000
45.58018;10600000
45.599514;10600000
45.615632;10600000
45.639318;10600000
45.662406;10600000
45.685368;10600000
45.707008;10600000
45.730839;10600000
45.751303;10600000
45.771532;10600000
45.787288;10600000
45.809336;10600000
45.830731;10600000
45.855669;10600000
45.879459;10600000
45.898522;10600000
45.916533;10600000
45.934907;10500000
45.957476;10500000
45.980276;10500000
46.001591;10500000
46.023066;10500000
46.041528;10500000
46.066407;10500000
46.082471;10500000
46.104562;10500000
46.129221;10500000
46.152286;10500000
46.176172;10500000
46.197075;10500000
46.21147;10400000
46.239171;10400000
46.263108;10400000
46.287083;10400000
46.306294;10400000
46.317213;10400000
46.339992;10400000
46.363862;10400000
46.388597;10400000
46.405036;10400000
46.420286;10400000
46.440997;10400000
46.464164;10400000
46.485402;10400000
46.506585;10400000
46.525483;10300000
46.547773;10300000
46.563814;10300000
46.585262;10300000
46.60604;10300000
46.629297;10300000
46.651499;10300000
46.666618;10300000
46.688211;10200000
46.702407;10100000
46.727627;10100000
46.748916;10100000
46.766399;10000000
46.786768;10000000
46.806734;10000000
46.833775;10000000
46.843416;10000000
46.867673;10000000
46.89091;10000000
46.91702;10000000
46.93392;10000000
46.947307;10000000
46.971628;10000000
46.995471;10000000
47.015825;10000000
47.038135;10000000
47.055912;10000000
47.076957;10000000
47.095404;10000000
47.112129;10000000
47.131131;10000000
47.155576;10000000
47.178668;10000000
47.197635;10000000
47.217368;10000000
47.240035;10000000
47.266833;10000000
47.296481;10000000
47.311069;10000000
47.330895;10000000
47.357147;10000000
47.381041;10000000
47.404162;10000000
47.423424;10000000
47.441339;10100000
47.463083;10100000
47.487905;10100000
47.507968;10100000
47.524777;10100000
47.551339;10100000
47.578326;10100000
47.604479;10100000
47.617283;10100000
47.640274;10100000
47.662194;10100000
47.687897;10100000
47.712645;10100000
47.729114;10100000
47.749741;10100000
47.77415;10100000
47.799596;10100000
47.825468;10100000
47.844426;10100000
47.865614;10100000
47.891034;10100000
47.918038;10100000
47.941569;10100000
47.960437;10100000
47.981375;10100000
48.004226;10100000
48.032888;10100000
48.06034;10100000
48.076757;10100000
48.100058;10100000
48.121013;10100000
48.147966;10100000
48.171207;10100000
48.187363;10100000
48.210627;10100000
48.23407;10100000
48.259606;10100000
48.285126;10100000
48.302238;10100000
48.32511;10100000
48.35125;10100000
48.372539;10100000
48.388214;10100000
48.412342;10100000
48.437415;10100000
48.463639;10100000
48.488685;10100000
48.5041;10100000
48.527469;10100000
48.541763;10100000
48.565769;10100000
48.587891;10100000
48.609135;10100000
48.627967;10100000
48.645555;10100000
48.669459;10100000
48.683765;10100000
48.709041;10100000
48.731738;10100000
48.759401;10100000
48.783482;10100000
48.79777;10100000
48.817031;10100000
48.840865;10100000
48.866054;10100000
48.889682;10100000
48.904023;10100000
48.922718;10100000
48.944627;10100000
48.967146;10100000
48.982949;10100000
49.007915;10100000
49.02915;10100000
49.055865;10100000
49.081392;10100000
49.099146;10100000
49.115353;10100000
49.13593;10100000
49.161947;10100000
49.182891;10100000
49.202987;10100000
49.217411;10100000
49.241353;10100000
49.258077;10100000
49.281824;10100000
49.302649;10100000
49.325563;10100000
49.350814;10100000
49.36684;10100000
49.389354;10100000
49.410521;10100000
49.431564;10100000
49.446125;10100000
49.469781;10100000
49.493783;10100000
49.514929;10100000
49.528437;10100000
49.551454;10100000
49.572904;10100000
49.595804;10100000
49.619007;10100000
49.630084;10100000
49.652118;10100000
49.677376;10100000
49.699436;10100000
49.720742;10100000
49.737914;10100000
49.762128;10100000
49.783637;10100000
49.798616;10100000
49.820993;10100000
49.839528;10100000
49.864015;10100000
49.887253;10100000
49.905278;10100000
49.928405;10100000
49.945637;10100000
49.97011;10000000
49.990507;10000000
50.008103;10000000
50.031941;10000000
50.055672;10000000
50.082208;10000000
50.099944;10000000
50.114478;10000000
50.135307;10000000
50.159665;10000000
50.179148;10000000
50.2038;10000000
50.22609;10000000
50.249538;10000000
50.274899;10000000
50.286133;10000000
50.310503;10000000
50.332373;10000000
50.357074;10000000
50.381416;10000000
50.392231;10000000
50.415991;10000000
50.441038;10000000
50.471456;10000000
50.487819;10000000
50.509221;10000000
50.530437;10000000
50.553753;10000000
50.577715;10000000
50.595389;10000000
50.614796;10000000
50.634828;10000000
50.661935;10000000
50.682108;10000000
50.704975;10000000
50.724359;10000000
50.746334;10000000
50.771346;10000000
50.788067;10000000
50.803938;10000000
50.8254;10000000
50.851521;10000000
50.869321;10000000
50.892447;10000000
50.911891;10000000
50.932886;10000000
50.961423;10000000
50.974863;10000000
50.9968;10000000
51.016528;10000000
51.036882;10000000
51.056291;10000000
51.079;10000000
51.099636;10000000
51.113458;10000000
51.130027;10000000
51.150555;10000000
51.171616;10000000
51.192901;10000000
51.20518;10000000
51.223131;10000000
51.243294;10000000
51.266665;10000000
51.290169;10000000
51.300412;10000000
51.324121;10000000
51.345415;10000000
51.365739;10000000
51.384839;10000000
51.397973;10000000
51.41833;10000000
51.441793;10000000
51.465653;10000000
51.481806;10000000
51.493381;10000000
51.517543;10000000
51.5402;10000000
51.559483;10000000
51.582175;10000000
51.591564;10000000
51.616246;10000000
51.632531;10000000
51.656116;10000000
51.677232;10000000
51.693407;10000000
