0.1;0.934033615122;0.0659663848776;0.570274753673;
0.2;0.924719619252;0.0752803807482;0.580872894225;
0.3;0.911141173732;0.0888588262679;0.596605935459;
0.4;0.906373964133;0.0936260358667;0.602206776531;
0.5;0.911950546825;0.0880494531755;0.595658952357;
0.6;0.90806668344;0.0919333165597;0.600213553869;
0.7;0.907786635221;0.0922133647786;0.600542977524;
0.8;0.909723473368;0.0902765266316;0.598267430021;
0.9;0.907310107142;0.0926898928575;0.60110383335;
1.0;0.902084225521;0.097915774479;0.607279988337;
1.1;0.891625501046;0.108374498954;0.619777548196;
1.2;0.858641085754;0.141358914246;0.660286662826;
1.3;0.776599694173;0.223400305827;0.765679451772;
1.4;0.665820091098;0.334179908902;0.900912904594;
1.5;0.57534317894;0.42465682106;0.977797754146;
1.6;0.552921577577;0.447078422423;0.988921338245;
1.7;0.556043641492;0.443956358508;0.987592325543;
1.8;0.556786295018;0.443213704982;0.987265525383;
1.9;0.56383707313;0.43616292687;0.983960762969;
2.0;0.546861379305;0.453138620695;0.991292530542;
2.1;0.514409681185;0.485590318815;0.999170133603;
2.2;0.524474281667;0.475525718333;0.997609765059;
2.3;0.502789091658;0.497210908342;0.999968884839;
2.4;0.490715581384;0.509284418616;0.999655317131;
2.5;0.511267809954;0.488732190046;0.99949240362;
2.6;0.511560822119;0.488439177881;0.999465675223;
2.7;0.454941328497;0.545058671503;0.991944286034;
2.8;0.51902344025;0.48097655975;0.9985545273;
2.9;0.472913811747;0.527086188253;0.997073940573;
3.0;0.435782445277;0.564217554723;0.983772111059;
4.0;0.422878309507;0.577121690493;0.976761838989;
5.0;0.385799813671;0.614200186329;0.950419711315;
6.0;0.37817355862;0.62182644138;0.943960173801;
7.0;0.395508298204;0.604491701796;0.958153541871;
8.0;0.34965212567;0.65034787433;0.917079561419;
9.0;0.35901270009;0.64098729991;0.92634649157;
10.0;0.383694371383;0.616305628617;0.948669399011;
15.0;0.317790099627;0.682209900373;0.882766965757;
20.0;0.321754575847;0.678245424153;0.887243958366;
25.0;0.255034924162;0.744965075838;0.806431092144;
30.0;0.314401413351;0.685598586649;0.878898862341;
35.0;0.210585317933;0.789414682067;0.749039301227;
40.0;0.234535887169;0.765464112831;0.780101312517;
45.0;0.170460385764;0.829539614236;0.697162686891;
50.0;0.161091848515;0.838908151485;0.685196696476;

