0;0;1;1;2;2;3;3;4;4;5;5;
0;0;0;0;0;0;0;0;59.8;0;0;0;
0.2;0;0.2;0;0.2;0;0.2;0;60.0;1;0.2;0;
0.4;0;0.4;0;0.4;0;0.4;0;60.2;0;0.4;0;
0.6;0;0.6;0;0.6;0;0.6;0;60.4;0;0.6;0;
0.8;0;0.8;0;0.8;0;0.8;0;60.6;0;0.8;0;
1.0;0;1.0;0;1.0;0;1.0;0;60.8;0;1.0;0;
1.2;0;1.2;0;1.2;0;1.2;0;61.0;0;1.2;0;
1.4;0;1.4;0;1.4;0;1.4;0;61.2;0;1.4;0;
1.6;0;1.6;0;1.6;0;1.6;0;61.4;0;1.6;0;
1.8;0;1.8;0;1.8;0;1.8;0;61.6;0;1.8;0;
2.0;0;2.0;0;2.0;0;2.0;0;61.8;0;2.0;0;
2.2;0;2.2;0;2.2;0;2.2;0;62.0;0;2.2;0;
2.4;0;2.4;0;2.4;0;2.4;0;62.2;0;2.4;0;
2.6;0;2.6;0;2.6;0;2.6;0;62.4;0;2.6;0;
2.8;0;2.8;0;2.8;0;2.8;0;62.6;0;2.8;0;
3.0;0;3.0;0;3.0;0;3.0;0;62.8;0;3.0;0;
3.2;0;3.2;0;3.2;0;3.2;0;63.0;0;3.2;0;
3.4;0;3.4;0;3.4;0;3.4;0;63.2;0;3.4;0;
3.6;0;3.6;0;3.6;0;3.6;0;63.4;0;3.6;0;
3.8;0;3.8;0;3.8;0;3.8;0;63.6;0;3.8;0;
4.0;0;4.0;0;4.0;0;4.0;0;63.8;0;4.0;0;
4.2;0;4.2;0;4.2;0;4.2;0;64.0;0;4.2;0;
4.4;0;4.4;0;4.4;0;4.4;0;64.2;0;4.4;0;
4.6;0;4.6;0;4.6;0;4.6;0;64.4;0;4.6;0;
4.8;0;4.8;0;4.8;0;4.8;0;64.6;0;4.8;0;
5.0;0;5.0;0;5.0;0;5.0;0;64.8;0;5.0;0;
5.2;0;5.2;0;5.2;0;5.2;0;65.0;0;5.2;0;
5.4;0;5.4;0;5.4;0;5.4;0;65.2;0;5.4;0;
5.6;0;5.6;0;5.6;0;5.6;0;65.4;0;5.6;0;
5.8;0;5.8;0;5.8;0;5.8;0;65.6;0;5.8;0;
6.0;0;6.0;0;6.0;0;6.0;0;65.8;0;6.0;0;
6.2;0;6.2;0;6.2;0;6.2;0;66.0;0;6.2;0;
6.4;0;6.4;0;6.4;0;6.4;0;66.2;0;6.4;0;
6.6;0;6.6;0;6.6;0;6.6;0;66.4;0;6.6;0;
6.8;0;6.8;0;6.8;0;6.8;0;66.6;0;6.8;0;
7.0;0;7.0;0;7.0;0;7.0;0;66.8;0;7.0;0;
7.2;0;7.2;0;7.2;0;7.2;0;67.0;0;7.2;0;
7.4;0;7.4;0;7.4;0;7.4;0;67.2;0;7.4;0;
7.6;0;7.6;0;7.6;0;7.6;0;67.4;0;7.6;0;
7.8;0;7.8;0;7.8;0;7.8;0;67.6;0;7.8;0;
8.0;0;8.0;0;8.0;0;8.0;0;67.8;0;8.0;0;
8.2;0;8.2;0;8.2;0;8.2;0;68.0;0;8.2;0;
8.4;0;8.4;0;8.4;0;8.4;0;68.2;0;8.4;0;
8.6;0;8.6;0;8.6;0;8.6;0;68.4;0;8.6;0;
8.8;0;8.8;0;8.8;0;8.8;0;68.6;0;8.8;0;
9.0;0;9.0;0;9.0;0;9.0;0;68.8;0;9.0;0;
9.2;0;9.2;0;9.2;0;9.2;0;69.0;0;9.2;0;
9.4;0;9.4;0;9.4;0;9.4;0;69.2;0;9.4;0;
9.6;0;9.6;0;9.6;0;9.6;0;69.4;0;9.6;0;
9.8;0;9.8;0;9.8;0;9.8;0;69.6;0;9.8;0;
10.0;0;10.0;0;10.0;0;10.0;0;69.8;0;10.0;0;
10.2;0;10.2;0;10.2;0;10.2;0;70.0;0;10.2;0;
10.4;0;10.4;0;10.4;0;10.4;0;70.2;0;10.4;0;
10.6;0;10.6;0;10.6;0;10.6;0;70.4;0;10.6;0;
10.8;0;10.8;0;10.8;0;10.8;0;70.6;0;10.8;0;
11.0;0;11.0;0;11.0;0;11.0;0;70.8;0;11.0;0;
11.2;0;11.2;0;11.2;0;11.2;0;71.0;0;11.2;0;
11.4;0;11.4;0;11.4;0;11.4;0;71.2;0;11.4;0;
11.6;0;11.6;0;11.6;0;11.6;0;71.4;0;11.6;0;
11.8;0;11.8;0;11.8;0;11.8;0;71.6;0;11.8;0;
12.0;0;12.0;0;12.0;0;12.0;0;71.8;0;12.0;0;
12.2;0;12.2;0;12.2;0;12.2;0;72.0;0;12.2;0;
12.4;0;12.4;0;12.4;0;12.4;0;72.2;0;12.4;0;
12.6;0;12.6;0;12.6;0;12.6;0;72.4;0;12.6;0;
12.8;0;12.8;0;12.8;0;12.8;0;72.6;0;12.8;0;
13.0;0;13.0;0;13.0;0;13.0;0;72.8;0;13.0;0;
13.2;0;13.2;0;13.2;0;13.2;0;73.0;0;13.2;0;
13.4;0;13.4;0;13.4;0;13.4;0;73.2;0;13.4;0;
13.6;0;13.6;0;13.6;0;13.6;0;73.4;0;13.6;0;
13.8;0;13.8;0;13.8;0;13.8;0;73.6;0;13.8;0;
14.0;0;14.0;0;14.0;0;14.0;0;73.8;0;14.0;0;
14.2;0;14.2;0;14.2;0;14.2;0;74.0;0;14.2;0;
14.4;0;14.4;0;14.4;0;14.4;0;74.2;0;14.4;0;
14.6;0;14.6;0;14.6;0;14.6;0;74.4;0;14.6;0;
14.8;0;14.8;0;14.8;0;14.8;0;74.6;0;14.8;0;
15.0;0;15.0;0;15.0;0;15.0;0;74.8;0;15.0;0;
15.2;0;15.2;0;15.2;0;15.2;0;75.0;0;15.2;0;
15.4;0;15.4;0;15.4;0;15.4;0;75.2;0;15.4;0;
15.6;0;15.6;0;15.6;0;15.6;0;75.4;0;15.6;0;
15.8;0;15.8;0;15.8;0;15.8;0;75.6;0;15.8;0;
16.0;0;16.0;0;16.0;0;16.0;0;75.8;0;16.0;0;
16.2;0;16.2;0;16.2;0;16.2;0;76.0;0;16.2;0;
16.4;0;16.4;0;16.4;0;16.4;0;76.2;0;16.4;0;
16.6;0;16.6;0;16.6;0;16.6;0;76.4;0;16.6;0;
16.8;0;16.8;0;16.8;0;16.8;0;76.6;0;16.8;0;
17.0;0;17.0;0;17.0;0;17.0;0;76.8;0;17.0;0;
17.2;0;17.2;0;17.2;0;17.2;0;77.0;0;17.2;0;
17.4;0;17.4;0;17.4;0;17.4;0;77.2;0;17.4;0;
17.6;0;17.6;0;17.6;0;17.6;0;77.4;0;17.6;0;
17.8;0;17.8;0;17.8;0;17.8;0;77.6;0;17.8;0;
18.0;0;18.0;0;18.0;0;18.0;0;77.8;0;18.0;0;
18.2;0;18.2;0;18.2;0;18.2;0;78.0;0;18.2;0;
18.4;0;18.4;0;18.4;0;18.4;0;78.2;0;18.4;0;
18.6;0;18.6;0;18.6;0;18.6;0;78.4;0;18.6;0;
18.8;0;18.8;0;18.8;0;18.8;0;78.6;0;18.8;0;
19.0;0;19.0;0;19.0;0;19.0;0;78.8;0;19.0;0;
19.2;0;19.2;0;19.2;0;19.2;0;79.0;0;19.2;0;
19.4;0;19.4;0;19.4;0;19.4;0;79.2;0;19.4;0;
19.6;0;19.6;0;19.6;0;19.6;0;79.4;0;19.6;0;
19.8;0;19.8;0;19.8;0;19.8;0;79.6;0;19.8;0;
20.0;0;20.0;0;20.0;0;20.0;0;79.8;0;20.0;0;
20.2;0;20.2;0;20.2;0;20.2;0;80.0;0;20.2;0;
20.4;0;20.4;0;20.4;0;20.4;0;80.2;0;20.4;0;
20.6;0;20.6;0;20.6;0;20.6;0;80.4;0;20.6;0;
20.8;0;20.8;0;20.8;0;20.8;0;80.6;0;20.8;0;
21.0;0;21.0;0;21.0;0;21.0;0;80.8;0;21.0;0;
21.2;0;21.2;0;21.2;0;21.2;0;81.0;0;21.2;0;
21.4;0;21.4;0;21.4;0;21.4;0;81.2;0;21.4;0;
21.6;0;21.6;0;21.6;0;21.6;0;81.4;0;21.6;0;
21.8;0;21.8;0;21.8;0;21.8;0;81.6;0;21.8;0;
22.0;0;22.0;0;22.0;0;22.0;0;81.8;0;22.0;0;
22.2;0;22.2;0;22.2;0;22.2;0;82.0;0;22.2;0;
22.4;0;22.4;0;22.4;0;22.4;0;82.2;0;22.4;0;
22.6;0;22.6;0;22.6;0;22.6;0;82.4;0;22.6;0;
22.8;0;22.8;0;22.8;0;22.8;0;82.6;0;22.8;0;
23.0;0;23.0;0;23.0;0;23.0;0;82.8;0;23.0;0;
23.2;0;23.2;0;23.2;0;23.2;0;83.0;0;23.2;0;
23.4;0;23.4;0;23.4;0;23.4;0;83.2;0;23.4;0;
23.6;0;23.6;0;23.6;0;23.6;0;83.4;0;23.6;0;
23.8;0;23.8;0;23.8;0;23.8;0;83.6;0;23.8;0;
24.0;0;24.0;0;24.0;0;24.0;0;83.8;0;24.0;0;
24.2;0;24.2;0;24.2;0;24.2;0;84.0;0;24.2;0;
24.4;0;24.4;0;24.4;0;24.4;0;84.2;0;24.4;0;
24.6;0;24.6;0;24.6;0;24.6;0;84.4;0;24.6;0;
24.8;0;24.8;0;24.8;0;24.8;0;84.6;0;24.8;0;
25.0;0;25.0;0;25.0;0;25.0;0;84.8;0;25.0;0;
25.2;0;25.2;0;25.2;0;25.2;0;85.0;0;25.2;0;
25.4;0;25.4;0;25.4;0;25.4;0;85.2;0;25.4;0;
25.6;0;25.6;0;25.6;0;25.6;0;85.4;0;25.6;0;
25.8;0;25.8;0;25.8;0;25.8;0;85.6;0;25.8;0;
26.0;0;26.0;0;26.0;0;26.0;0;85.8;0;26.0;0;
26.2;0;26.2;0;26.2;0;26.2;0;86.0;0;26.2;0;
26.4;0;26.4;0;26.4;0;26.4;0;86.2;0;26.4;0;
26.6;0;26.6;0;26.6;0;26.6;0;86.4;0;26.6;0;
26.8;0;26.8;0;26.8;0;26.8;0;86.6;0;26.8;0;
27.0;0;27.0;0;27.0;0;27.0;0;86.8;0;27.0;0;
27.2;0;27.2;0;27.2;0;27.2;0;87.0;0;27.2;0;
27.4;0;27.4;0;27.4;0;27.4;0;87.2;0;27.4;0;
27.6;0;27.6;0;27.6;0;27.6;0;87.4;0;27.6;0;
27.8;0;27.8;0;27.8;0;27.8;0;87.6;0;27.8;0;
28.0;0;28.0;0;28.0;0;28.0;0;87.8;0;28.0;0;
28.2;0;28.2;0;28.2;0;28.2;0;88.0;0;28.2;0;
28.4;0;28.4;0;28.4;0;28.4;0;88.2;0;28.4;0;
28.6;0;28.6;0;28.6;0;28.6;0;88.4;0;28.6;0;
28.8;0;28.8;0;28.8;0;28.8;0;88.6;0;28.8;0;
29.0;0;29.0;0;29.0;0;29.0;0;88.8;0;29.0;0;
29.2;0;29.2;0;29.2;0;29.2;0;89.0;0;29.2;0;
29.4;0;29.4;0;29.4;0;29.4;0;89.2;0;29.4;0;
29.6;0;29.6;0;29.6;0;29.6;0;89.4;0;29.6;0;
29.8;0;29.8;0;29.8;0;29.8;0;89.6;0;29.8;0;
30.0;0;30.0;0;30.0;0;30.0;0;89.8;0;30.0;0;
30.2;0;30.2;0;30.2;0;30.2;0;90.0;0;30.2;0;
30.4;0;30.4;0;30.4;0;30.4;0;90.2;0;30.4;0;
30.6;0;30.6;0;30.6;0;30.6;0;90.4;0;30.6;0;
30.8;0;30.8;0;30.8;0;30.8;0;90.6;0;30.8;0;
31.0;0;31.0;0;31.0;0;31.0;0;90.8;0;31.0;0;
31.2;0;31.2;0;31.2;0;31.2;0;91.0;0;31.2;0;
31.4;0;31.4;0;31.4;0;31.4;0;91.2;0;31.4;0;
31.6;0;31.6;0;31.6;0;31.6;0;91.4;0;31.6;0;
31.8;0;31.8;0;31.8;0;31.8;0;91.6;0;31.8;0;
32.0;0;32.0;0;32.0;0;32.0;0;91.8;0;32.0;0;
32.2;0;32.2;0;32.2;0;32.2;0;92.0;0;32.2;0;
32.4;0;32.4;0;32.4;0;32.4;0;92.2;0;32.4;0;
32.6;0;32.6;0;32.6;0;32.6;0;92.4;0;32.6;0;
32.8;0;32.8;0;32.8;0;32.8;0;92.6;0;32.8;0;
33.0;0;33.0;0;33.0;0;33.0;0;92.8;0;33.0;0;
33.2;0;33.2;0;33.2;0;33.2;0;93.0;0;33.2;0;
33.4;0;33.4;0;33.4;0;33.4;0;93.2;0;33.4;0;
33.6;0;33.6;0;33.6;0;33.6;0;93.4;0;33.6;0;
33.8;0;33.8;0;33.8;0;33.8;0;93.6;0;33.8;0;
34.0;0;34.0;0;34.0;0;34.0;0;93.8;0;34.0;0;
34.2;0;34.2;0;34.2;0;34.2;0;94.0;0;34.2;0;
34.4;0;34.4;0;34.4;0;34.4;0;94.2;0;34.4;0;
34.6;0;34.6;0;34.6;0;34.6;0;94.4;0;34.6;0;
34.8;0;34.8;0;34.8;0;34.8;0;94.6;0;34.8;0;
35.0;0;35.0;0;35.0;0;35.0;0;94.8;0;35.0;0;
35.2;0;35.2;0;35.2;0;35.2;0;95.0;0;35.2;0;
35.4;0;35.4;0;35.4;0;35.4;0;95.2;0;35.4;0;
35.6;0;35.6;0;35.6;0;35.6;0;95.4;0;35.6;0;
35.8;0;35.8;0;35.8;0;35.8;0;95.6;0;35.8;0;
36.0;0;36.0;0;36.0;0;36.0;0;95.8;0;36.0;0;
36.2;0;36.2;0;36.2;0;36.2;0;96.0;0;36.2;0;
36.4;0;36.4;0;36.4;0;36.4;0;96.2;0;36.4;0;
36.6;0;36.6;0;36.6;0;36.6;0;96.4;0;36.6;0;
36.8;0;36.8;0;36.8;0;36.8;0;96.6;0;36.8;0;
37.0;0;37.0;0;37.0;0;37.0;0;96.8;0;37.0;0;
37.2;0;37.2;0;37.2;0;37.2;0;97.0;0;37.2;0;
37.4;0;37.4;0;37.4;0;37.4;0;97.2;0;37.4;0;
37.6;0;37.6;0;37.6;0;37.6;0;97.4;0;37.6;0;
37.8;0;37.8;0;37.8;0;37.8;0;97.6;0;37.8;0;
38.0;0;38.0;0;38.0;0;38.0;0;97.8;0;38.0;0;
38.2;0;38.2;0;38.2;0;38.2;0;98.0;0;38.2;0;
38.4;0;38.4;0;38.4;0;38.4;0;98.2;0;38.4;0;
38.6;0;38.6;0;38.6;0;38.6;0;98.4;0;38.6;0;
38.8;0;38.8;0;38.8;0;38.8;0;98.6;0;38.8;0;
39.0;0;39.0;0;39.0;0;39.0;0;98.8;0;39.0;0;
39.2;0;39.2;0;39.2;0;39.2;0;99.0;0;39.2;0;
39.4;0;39.4;0;39.4;0;39.4;0;99.2;0;39.4;0;
39.6;0;39.6;0;39.6;0;39.6;0;99.4;0;39.6;0;
39.8;0;39.8;0;39.8;0;39.8;0;99.6;0;39.8;0;
40.0;0;40.0;0;40.0;0;40.0;0;99.8;0;40.0;0;
40.2;0;40.2;0;40.2;0;40.2;0;100.0;0;40.2;0;
40.4;0;40.4;0;40.4;0;40.4;0;100.2;0;40.4;0;
40.6;0;40.6;0;40.6;0;40.6;0;100.4;0;40.6;0;
40.8;0;40.8;0;40.8;0;40.8;0;100.6;0;40.8;0;
41.0;0;41.0;0;41.0;0;41.0;0;100.8;0;41.0;0;
41.2;0;41.2;0;41.2;0;41.2;0;101.0;0;41.2;0;
41.4;0;41.4;0;41.4;0;41.4;0;101.2;0;41.4;0;
41.6;0;41.6;0;41.6;0;41.6;0;101.4;0;41.6;0;
41.8;0;41.8;0;41.8;0;41.8;0;101.6;0;41.8;0;
42.0;0;42.0;0;42.0;0;42.0;0;101.8;0;42.0;0;
42.2;0;42.2;0;42.2;0;42.2;0;102.0;0;42.2;0;
42.4;0;42.4;0;42.4;0;42.4;0;102.2;0;42.4;0;
42.6;0;42.6;0;42.6;0;42.6;0;102.4;0;42.6;0;
42.8;0;42.8;0;42.8;0;42.8;0;102.6;0;42.8;0;
43.0;0;43.0;0;43.0;0;43.0;0;102.8;0;43.0;0;
43.2;0;43.2;0;43.2;0;43.2;0;103.0;0;43.2;0;
43.4;0;43.4;0;43.4;0;43.4;0;103.2;0;43.4;0;
43.6;0;43.6;0;43.6;0;43.6;0;103.4;0;43.6;0;
43.8;0;43.8;0;43.8;0;43.8;0;103.6;0;43.8;0;
44.0;0;44.0;0;44.0;0;44.0;0;103.8;0;44.0;0;
44.2;0;44.2;0;44.2;0;44.2;0;104.0;0;44.2;0;
44.4;0;44.4;0;44.4;0;44.4;0;104.2;0;44.4;0;
44.6;0;44.6;0;44.6;0;44.6;0;104.4;0;44.6;0;
44.8;0;44.8;0;44.8;0;44.8;0;104.6;0;44.8;0;
45.0;0;45.0;0;45.0;0;45.0;0;104.8;0;45.0;0;
45.2;0;45.2;0;45.2;0;45.2;0;105.0;0;45.2;0;
45.4;0;45.4;0;45.4;0;45.4;0;105.2;0;45.4;0;
45.6;0;45.6;0;45.6;0;45.6;0;105.4;0;45.6;0;
45.8;0;45.8;0;45.8;0;45.8;0;105.6;0;45.8;0;
46.0;0;46.0;0;46.0;0;46.0;0;105.8;0;46.0;0;
46.2;0;46.2;0;46.2;0;46.2;0;106.0;0;46.2;0;
46.4;0;46.4;0;46.4;0;46.4;0;106.2;0;46.4;0;
46.6;0;46.6;0;46.6;0;46.6;0;106.4;0;46.6;0;
46.8;0;46.8;0;46.8;0;46.8;0;106.6;0;46.8;0;
47.0;0;47.0;0;47.0;0;47.0;0;106.8;0;47.0;0;
47.2;0;47.2;0;47.2;0;47.2;0;107.0;0;47.2;0;
47.4;0;47.4;0;47.4;0;47.4;0;107.2;0;47.4;0;
47.6;0;47.6;0;47.6;0;47.6;0;107.4;0;47.6;0;
47.8;0;47.8;0;47.8;0;47.8;0;107.6;0;47.8;0;
48.0;0;48.0;0;48.0;0;48.0;0;107.8;0;48.0;0;
48.2;0;48.2;0;48.2;0;48.2;0;108.0;0;48.2;0;
48.4;0;48.4;0;48.4;0;48.4;0;108.2;0;48.4;0;
48.6;0;48.6;0;48.6;0;48.6;0;108.4;0;48.6;0;
48.8;0;48.8;0;48.8;0;48.8;0;108.6;0;48.8;0;
49.0;0;49.0;0;49.0;0;49.0;0;108.8;0;49.0;0;
49.2;0;49.2;0;49.2;0;49.2;0;109.0;0;49.2;0;
49.4;0;49.4;0;49.4;0;49.4;0;109.2;0;49.4;0;
49.6;0;49.6;0;49.6;0;49.6;0;109.4;0;49.6;0;
49.8;0;49.8;0;49.8;0;49.8;0;109.6;0;49.8;0;
50.0;0;50.0;0;50.0;0;50.0;0;109.8;0;50.0;0;
50.2;0;50.2;0;50.2;0;50.2;0;110.0;0;50.2;0;
50.4;0;50.4;0;50.4;0;50.4;0;110.2;0;50.4;0;
50.6;0;50.6;0;50.6;0;50.6;0;110.4;0;50.6;0;
50.8;0;50.8;0;50.8;0;50.8;0;110.6;0;50.8;0;
51.0;0;51.0;0;51.0;0;51.0;0;110.8;0;51.0;0;
51.2;0;51.2;0;51.2;0;51.2;0;111.0;0;51.2;0;
51.4;0;51.4;0;51.4;0;51.4;0;111.2;0;51.4;0;
51.6;0;51.6;0;51.6;0;51.6;0;111.4;0;51.6;0;
51.8;0;51.8;0;51.8;0;51.8;0;111.6;0;51.8;0;
52.0;0;52.0;0;52.0;0;52.0;0;111.8;0;52.0;0;
52.2;0;52.2;0;52.2;0;52.2;0;112.0;0;52.2;0;
52.4;0;52.4;0;52.4;0;52.4;0;112.2;0;52.4;0;
52.6;0;52.6;0;52.6;0;52.6;0;112.4;0;52.6;0;
52.8;0;52.8;0;52.8;0;52.8;0;112.6;0;52.8;0;
53.0;0;53.0;0;53.0;0;53.0;0;112.8;0;53.0;0;
53.2;0;53.2;0;53.2;0;53.2;0;113.0;0;53.2;0;
53.4;0;53.4;0;53.4;0;53.4;0;113.2;0;53.4;0;
53.6;0;53.6;0;53.6;0;53.6;0;113.4;0;53.6;0;
53.8;0;53.8;0;53.8;0;53.8;0;113.6;0;53.8;0;
54.0;0;54.0;0;54.0;0;54.0;0;113.8;0;54.0;0;
54.2;0;54.2;0;54.2;0;54.2;0;114.0;0;54.2;0;
54.4;0;54.4;0;54.4;0;54.4;0;114.2;0;54.4;0;
54.6;0;54.6;0;54.6;0;54.6;0;114.4;0;54.6;0;
54.8;0;54.8;0;54.8;0;54.8;0;114.6;0;54.8;0;
55.0;0;55.0;0;55.0;0;55.0;0;114.8;0;55.0;0;
55.2;0;55.2;0;55.2;0;55.2;0;115.0;0;55.2;0;
55.4;0;55.4;0;55.4;0;55.4;0;115.2;0;55.4;0;
55.6;0;55.6;0;55.6;0;55.6;0;115.4;0;55.6;0;
55.8;0;55.8;0;55.8;0;55.8;0;115.6;0;55.8;0;
56.0;0;56.0;0;56.0;0;56.0;0;115.8;0;56.0;0;
56.2;0;56.2;0;56.2;0;56.2;0;116.0;0;56.2;0;
56.4;0;56.4;0;56.4;0;56.4;0;116.2;0;56.4;0;
56.6;0;56.6;0;56.6;0;56.6;0;116.4;0;56.6;0;
56.8;0;56.8;0;56.8;0;56.8;0;116.6;0;56.8;0;
57.0;0;57.0;0;57.0;0;57.0;0;116.8;0;57.0;0;
57.2;0;57.2;0;57.2;0;57.2;0;117.0;0;57.2;0;
57.4;0;57.4;0;57.4;0;57.4;0;117.2;0;57.4;0;
57.6;0;57.6;0;57.6;0;57.6;0;117.4;0;57.6;0;
57.8;0;57.8;0;57.8;0;57.8;0;117.6;0;57.8;0;
58.0;0;58.0;0;58.0;0;58.0;0;117.8;0;58.0;0;
58.2;0;58.2;0;58.2;0;58.2;0;118.0;0;58.2;0;
58.4;0;58.4;0;58.4;0;58.4;0;118.2;0;58.4;0;
58.6;0;58.6;0;58.6;0;58.6;0;118.4;0;58.6;0;
58.8;0;58.8;0;58.8;0;58.8;0;118.6;0;58.8;0;
59.0;0;59.0;0;59.0;0;59.0;0;118.8;0;59.0;0;
59.2;0;59.2;0;59.2;0;59.2;0;119.0;0;59.2;0;
59.4;0;59.4;0;59.4;0;59.4;0;119.2;0;59.4;0;
59.6;0;59.6;0;59.6;0;59.6;0;119.4;0;59.6;0;
59.8;0;59.8;0;59.8;0;59.8;0;119.6;0;59.8;0;
60.0;0;60.0;0;60.0;0;60.0;0;119.8;0;60.0;1;
60.2;0;60.2;0;60.2;0;60.2;0;;;60.2;0;
60.4;0;60.4;0;60.4;0;60.4;0;;;60.4;0;
60.6;0;60.6;0;60.6;0;60.6;0;;;60.6;0;
60.8;0;60.8;0;60.8;0;60.8;0;;;60.8;0;
61.0;0;61.0;0;61.0;0;61.0;0;;;61.0;0;
61.2;0;61.2;0;61.2;0;61.2;0;;;61.2;0;
61.4;0;61.4;0;61.4;0;61.4;0;;;61.4;0;
61.6;0;61.6;0;61.6;0;61.6;0;;;61.6;0;
61.8;0;61.8;0;61.8;0;61.8;0;;;61.8;0;
62.0;0;62.0;0;62.0;0;62.0;0;;;62.0;0;
62.2;0;62.2;0;62.2;0;62.2;0;;;62.2;0;
62.4;0;62.4;0;62.4;0;62.4;0;;;62.4;0;
62.6;0;62.6;0;62.6;0;62.6;0;;;62.6;0;
62.8;0;62.8;0;62.8;0;62.8;0;;;62.8;0;
63.0;0;63.0;0;63.0;0;63.0;0;;;63.0;0;
63.2;0;63.2;0;63.2;0;63.2;0;;;63.2;0;
63.4;0;63.4;0;63.4;0;63.4;0;;;63.4;0;
63.6;0;63.6;0;63.6;0;63.6;0;;;63.6;0;
63.8;0;63.8;0;63.8;0;63.8;0;;;63.8;0;
64.0;0;64.0;0;64.0;0;64.0;0;;;64.0;0;
64.2;0;64.2;0;64.2;0;64.2;0;;;64.2;0;
64.4;0;64.4;0;64.4;0;64.4;0;;;64.4;0;
64.6;0;64.6;0;64.6;0;64.6;0;;;64.6;0;
64.8;0;64.8;0;64.8;0;64.8;0;;;64.8;0;
65.0;0;65.0;0;65.0;0;65.0;0;;;65.0;0;
65.2;0;65.2;0;65.2;0;65.2;0;;;65.2;0;
65.4;0;65.4;0;65.4;0;65.4;0;;;65.4;0;
65.6;0;65.6;0;65.6;0;65.6;0;;;65.6;0;
65.8;0;65.8;0;65.8;0;65.8;0;;;65.8;0;
66.0;0;66.0;0;66.0;0;66.0;0;;;66.0;0;
66.2;0;66.2;0;66.2;0;66.2;0;;;66.2;0;
66.4;0;66.4;0;66.4;0;66.4;0;;;66.4;0;
66.6;0;66.6;0;66.6;0;66.6;0;;;66.6;0;
66.8;0;66.8;0;66.8;0;66.8;0;;;66.8;0;
67.0;0;67.0;0;67.0;0;67.0;0;;;67.0;0;
67.2;0;67.2;0;67.2;0;67.2;0;;;67.2;0;
67.4;0;67.4;0;67.4;0;67.4;0;;;67.4;0;
67.6;0;67.6;0;67.6;0;67.6;0;;;67.6;0;
67.8;0;67.8;0;67.8;0;67.8;0;;;67.8;0;
68.0;0;68.0;0;68.0;0;68.0;0;;;68.0;0;
68.2;0;68.2;0;68.2;0;68.2;0;;;68.2;0;
68.4;0;68.4;0;68.4;0;68.4;0;;;68.4;0;
68.6;0;68.6;0;68.6;0;68.6;0;;;68.6;0;
68.8;0;68.8;0;68.8;0;68.8;0;;;68.8;0;
69.0;0;69.0;0;69.0;0;69.0;0;;;69.0;0;
69.2;0;69.2;0;69.2;0;69.2;0;;;69.2;0;
69.4;0;69.4;0;69.4;0;69.4;0;;;69.4;0;
69.6;0;69.6;0;69.6;0;69.6;0;;;69.6;0;
69.8;0;69.8;0;69.8;0;69.8;0;;;69.8;0;
70.0;0;70.0;0;70.0;0;70.0;0;;;70.0;0;
70.2;0;70.2;0;70.2;0;70.2;0;;;70.2;0;
70.4;0;70.4;0;70.4;0;70.4;0;;;70.4;0;
70.6;0;70.6;0;70.6;0;70.6;0;;;70.6;0;
70.8;0;70.8;0;70.8;0;70.8;0;;;70.8;0;
71.0;0;71.0;0;71.0;0;71.0;0;;;71.0;0;
71.2;0;71.2;0;71.2;0;71.2;0;;;71.2;0;
71.4;0;71.4;0;71.4;0;71.4;0;;;71.4;0;
71.6;0;71.6;0;71.6;0;71.6;0;;;71.6;0;
71.8;0;71.8;0;71.8;0;71.8;0;;;71.8;0;
72.0;0;72.0;0;72.0;0;72.0;0;;;72.0;0;
72.2;0;72.2;0;72.2;0;72.2;0;;;72.2;0;
72.4;0;72.4;0;72.4;0;72.4;0;;;72.4;0;
72.6;0;72.6;0;72.6;0;72.6;0;;;72.6;0;
72.8;0;72.8;0;72.8;0;72.8;0;;;72.8;0;
73.0;0;73.0;0;73.0;0;73.0;0;;;73.0;0;
73.2;0;73.2;0;73.2;0;73.2;0;;;73.2;0;
73.4;0;73.4;0;73.4;0;73.4;0;;;73.4;0;
73.6;0;73.6;0;73.6;0;73.6;0;;;73.6;0;
73.8;0;73.8;0;73.8;0;73.8;0;;;73.8;0;
74.0;0;74.0;0;74.0;0;74.0;0;;;74.0;0;
74.2;0;74.2;0;74.2;0;74.2;0;;;74.2;0;
74.4;0;74.4;0;74.4;0;74.4;0;;;74.4;0;
74.6;0;74.6;0;74.6;0;74.6;0;;;74.6;0;
74.8;0;74.8;0;74.8;0;74.8;0;;;74.8;0;
75.0;0;75.0;0;75.0;0;75.0;0;;;75.0;0;
75.2;0;75.2;0;75.2;0;75.2;0;;;75.2;0;
75.4;0;75.4;0;75.4;0;75.4;0;;;75.4;0;
75.6;0;75.6;0;75.6;0;75.6;0;;;75.6;0;
75.8;0;75.8;0;75.8;0;75.8;0;;;75.8;0;
76.0;0;76.0;0;76.0;0;76.0;0;;;76.0;0;
76.2;0;76.2;0;76.2;0;76.2;0;;;76.2;0;
76.4;0;76.4;0;76.4;0;76.4;0;;;76.4;0;
76.6;0;76.6;0;76.6;0;76.6;0;;;76.6;0;
76.8;0;76.8;0;76.8;0;76.8;0;;;76.8;0;
77.0;0;77.0;0;77.0;0;77.0;0;;;77.0;0;
77.2;0;77.2;0;77.2;0;77.2;0;;;77.2;0;
77.4;0;77.4;0;77.4;0;77.4;0;;;77.4;0;
77.6;0;77.6;0;77.6;0;77.6;0;;;77.6;0;
77.8;0;77.8;0;77.8;0;77.8;0;;;77.8;0;
78.0;0;78.0;0;78.0;0;78.0;0;;;78.0;0;
78.2;0;78.2;0;78.2;0;78.2;0;;;78.2;0;
78.4;0;78.4;0;78.4;0;78.4;0;;;78.4;0;
78.6;0;78.6;0;78.6;0;78.6;0;;;78.6;0;
78.8;0;78.8;0;78.8;0;78.8;0;;;78.8;0;
79.0;0;79.0;0;79.0;0;79.0;0;;;79.0;0;
79.2;0;79.2;0;79.2;0;79.2;0;;;79.2;0;
79.4;0;79.4;0;79.4;0;79.4;0;;;79.4;0;
79.6;0;79.6;0;79.6;0;79.6;0;;;79.6;0;
79.8;0;79.8;0;79.8;0;79.8;0;;;79.8;0;
80.0;0;80.0;0;80.0;0;80.0;0;;;80.0;0;
80.2;0;80.2;0;80.2;0;80.2;0;;;80.2;0;
80.4;0;80.4;0;80.4;0;80.4;0;;;80.4;0;
80.6;0;80.6;0;80.6;0;80.6;0;;;80.6;0;
80.8;0;80.8;0;80.8;0;80.8;0;;;80.8;0;
81.0;0;81.0;0;81.0;0;81.0;0;;;81.0;0;
81.2;0;81.2;0;81.2;0;81.2;0;;;81.2;0;
81.4;0;81.4;0;81.4;0;81.4;0;;;81.4;0;
81.6;0;81.6;0;81.6;0;81.6;0;;;81.6;0;
81.8;0;81.8;0;81.8;0;81.8;0;;;81.8;0;
82.0;0;82.0;0;82.0;0;82.0;0;;;82.0;0;
82.2;0;82.2;0;82.2;0;82.2;0;;;82.2;0;
82.4;0;82.4;0;82.4;0;82.4;0;;;82.4;0;
82.6;0;82.6;0;82.6;0;82.6;0;;;82.6;0;
82.8;0;82.8;0;82.8;0;82.8;0;;;82.8;0;
83.0;0;83.0;0;83.0;0;83.0;0;;;83.0;0;
83.2;0;83.2;0;83.2;0;83.2;0;;;83.2;0;
83.4;0;83.4;0;83.4;0;83.4;0;;;83.4;0;
83.6;0;83.6;0;83.6;0;83.6;0;;;83.6;0;
83.8;0;83.8;0;83.8;0;83.8;0;;;83.8;0;
84.0;0;84.0;0;84.0;0;84.0;0;;;84.0;0;
84.2;0;84.2;0;84.2;0;84.2;0;;;84.2;0;
84.4;0;84.4;0;84.4;0;84.4;0;;;84.4;0;
84.6;0;84.6;0;84.6;0;84.6;0;;;84.6;0;
84.8;0;84.8;0;84.8;0;84.8;0;;;84.8;0;
85.0;0;85.0;0;85.0;0;85.0;0;;;85.0;0;
85.2;0;85.2;0;85.2;0;85.2;0;;;85.2;0;
85.4;0;85.4;0;85.4;0;85.4;0;;;85.4;0;
85.6;0;85.6;0;85.6;0;85.6;0;;;85.6;0;
85.8;0;85.8;0;85.8;0;85.8;0;;;85.8;0;
86.0;0;86.0;0;86.0;0;86.0;0;;;86.0;0;
86.2;0;86.2;0;86.2;0;86.2;0;;;86.2;0;
86.4;0;86.4;0;86.4;0;86.4;0;;;86.4;0;
86.6;0;86.6;0;86.6;0;86.6;0;;;86.6;0;
86.8;0;86.8;0;86.8;0;86.8;0;;;86.8;0;
87.0;0;87.0;0;87.0;0;87.0;0;;;87.0;0;
87.2;0;87.2;0;87.2;0;87.2;0;;;87.2;0;
87.4;0;87.4;0;87.4;0;87.4;0;;;87.4;0;
87.6;0;87.6;0;87.6;0;87.6;0;;;87.6;0;
87.8;0;87.8;0;87.8;0;87.8;0;;;87.8;0;
88.0;0;88.0;0;88.0;0;88.0;0;;;88.0;0;
88.2;0;88.2;0;88.2;0;88.2;0;;;88.2;0;
88.4;0;88.4;0;88.4;0;88.4;0;;;88.4;0;
88.6;0;88.6;0;88.6;0;88.6;0;;;88.6;0;
88.8;0;88.8;0;88.8;0;88.8;0;;;88.8;0;
89.0;0;89.0;0;89.0;0;89.0;0;;;89.0;0;
89.2;0;89.2;0;89.2;0;89.2;0;;;89.2;0;
89.4;0;89.4;0;89.4;0;89.4;0;;;89.4;0;
89.6;0;89.6;0;89.6;0;89.6;0;;;89.6;0;
89.8;0;89.8;0;89.8;0;89.8;0;;;89.8;0;
90.0;0;90.0;0;90.0;0;90.0;0;;;90.0;0;
90.2;0;90.2;0;90.2;0;90.2;0;;;90.2;0;
90.4;0;90.4;0;90.4;0;90.4;0;;;90.4;0;
90.6;0;90.6;0;90.6;0;90.6;0;;;90.6;0;
90.8;0;90.8;0;90.8;0;90.8;0;;;90.8;0;
91.0;0;91.0;0;91.0;0;91.0;0;;;91.0;0;
91.2;0;91.2;0;91.2;0;91.2;0;;;91.2;0;
91.4;0;91.4;0;91.4;0;91.4;0;;;91.4;0;
91.6;0;91.6;0;91.6;0;91.6;0;;;91.6;0;
91.8;0;91.8;0;91.8;0;91.8;0;;;91.8;0;
92.0;0;92.0;0;92.0;0;92.0;0;;;92.0;0;
92.2;0;92.2;0;92.2;0;92.2;0;;;92.2;0;
92.4;0;92.4;0;92.4;0;92.4;0;;;92.4;0;
92.6;0;92.6;0;92.6;0;92.6;0;;;92.6;0;
92.8;0;92.8;0;92.8;0;92.8;0;;;92.8;0;
93.0;0;93.0;0;93.0;0;93.0;0;;;93.0;0;
93.2;0;93.2;0;93.2;0;93.2;0;;;93.2;0;
93.4;0;93.4;0;93.4;0;93.4;0;;;93.4;0;
93.6;0;93.6;0;93.6;0;93.6;0;;;93.6;0;
93.8;0;93.8;0;93.8;0;93.8;0;;;93.8;0;
94.0;0;94.0;0;94.0;0;94.0;0;;;94.0;0;
94.2;0;94.2;0;94.2;0;94.2;0;;;94.2;0;
94.4;0;94.4;0;94.4;0;94.4;0;;;94.4;0;
94.6;0;94.6;0;94.6;0;94.6;0;;;94.6;0;
94.8;0;94.8;0;94.8;0;94.8;0;;;94.8;0;
95.0;0;95.0;0;95.0;0;95.0;0;;;95.0;0;
95.2;0;95.2;0;95.2;0;95.2;0;;;95.2;0;
95.4;0;95.4;0;95.4;0;95.4;0;;;95.4;0;
95.6;0;95.6;0;95.6;0;95.6;0;;;95.6;0;
95.8;0;95.8;0;95.8;0;95.8;0;;;95.8;0;
96.0;0;96.0;0;96.0;0;96.0;0;;;96.0;0;
96.2;0;96.2;0;96.2;0;96.2;0;;;96.2;0;
96.4;0;96.4;0;96.4;0;96.4;0;;;96.4;0;
96.6;0;96.6;0;96.6;0;96.6;0;;;96.6;0;
96.8;0;96.8;0;96.8;0;96.8;0;;;96.8;0;
97.0;0;97.0;0;97.0;0;97.0;0;;;97.0;0;
97.2;0;97.2;0;97.2;0;97.2;0;;;97.2;0;
97.4;0;97.4;0;97.4;0;97.4;0;;;97.4;0;
97.6;0;97.6;0;97.6;0;97.6;0;;;97.6;0;
97.8;0;97.8;0;97.8;0;97.8;0;;;97.8;0;
98.0;0;98.0;0;98.0;0;98.0;0;;;98.0;0;
98.2;0;98.2;0;98.2;0;98.2;0;;;98.2;0;
98.4;0;98.4;0;98.4;0;98.4;0;;;98.4;0;
98.6;0;98.6;0;98.6;0;98.6;0;;;98.6;0;
98.8;0;98.8;0;98.8;0;98.8;0;;;98.8;0;
99.0;0;99.0;0;99.0;0;99.0;0;;;99.0;0;
99.2;0;99.2;0;99.2;0;99.2;0;;;99.2;0;
99.4;0;99.4;0;99.4;0;99.4;0;;;99.4;0;
99.6;0;99.6;0;99.6;0;99.6;0;;;99.6;0;
99.8;0;99.8;0;99.8;0;99.8;0;;;99.8;0;
100.0;0;100.0;0;100.0;0;100.0;0;;;100.0;0;
100.2;0;100.2;0;100.2;0;100.2;0;;;100.2;0;
100.4;0;100.4;0;100.4;0;100.4;0;;;100.4;0;
100.6;0;100.6;0;100.6;0;100.6;0;;;100.6;0;
100.8;0;100.8;0;100.8;0;100.8;0;;;100.8;0;
101.0;0;101.0;0;101.0;0;101.0;0;;;101.0;0;
101.2;0;101.2;0;101.2;0;101.2;0;;;101.2;0;
101.4;0;101.4;0;101.4;0;101.4;0;;;101.4;0;
101.6;0;101.6;0;101.6;0;101.6;0;;;101.6;0;
101.8;0;101.8;0;101.8;0;101.8;0;;;101.8;0;
102.0;0;102.0;0;102.0;0;102.0;0;;;102.0;0;
102.2;0;102.2;0;102.2;0;102.2;0;;;102.2;0;
102.4;0;102.4;0;102.4;0;102.4;0;;;102.4;0;
102.6;0;102.6;0;102.6;0;102.6;0;;;102.6;0;
102.8;0;102.8;0;102.8;0;102.8;0;;;102.8;0;
103.0;0;103.0;0;103.0;0;103.0;0;;;103.0;0;
103.2;0;103.2;0;103.2;0;103.2;0;;;103.2;0;
103.4;0;103.4;0;103.4;0;103.4;0;;;103.4;0;
103.6;0;103.6;0;103.6;0;103.6;0;;;103.6;0;
103.8;0;103.8;0;103.8;0;103.8;0;;;103.8;0;
104.0;0;104.0;0;104.0;0;104.0;0;;;104.0;0;
104.2;0;104.2;0;104.2;0;104.2;0;;;104.2;0;
104.4;0;104.4;0;104.4;0;104.4;0;;;104.4;0;
104.6;0;104.6;0;104.6;0;104.6;0;;;104.6;0;
104.8;0;104.8;0;104.8;0;104.8;0;;;104.8;0;
105.0;0;105.0;0;105.0;0;105.0;0;;;105.0;0;
105.2;0;105.2;0;105.2;0;105.2;0;;;105.2;0;
105.4;0;105.4;0;105.4;0;105.4;0;;;105.4;0;
105.6;0;105.6;0;105.6;0;105.6;0;;;105.6;0;
105.8;0;105.8;0;105.8;0;105.8;0;;;105.8;0;
106.0;0;106.0;0;106.0;0;106.0;0;;;106.0;0;
106.2;0;106.2;0;106.2;0;106.2;0;;;106.2;0;
106.4;0;106.4;0;106.4;0;106.4;0;;;106.4;0;
106.6;0;106.6;0;106.6;0;106.6;0;;;106.6;0;
106.8;0;106.8;0;106.8;0;106.8;0;;;106.8;0;
107.0;0;107.0;0;107.0;0;107.0;0;;;107.0;0;
107.2;0;107.2;0;107.2;0;107.2;0;;;107.2;0;
107.4;0;107.4;0;107.4;0;107.4;0;;;107.4;0;
107.6;0;107.6;0;107.6;0;107.6;0;;;107.6;0;
107.8;0;107.8;0;107.8;0;107.8;0;;;107.8;0;
108.0;0;108.0;0;108.0;0;108.0;0;;;108.0;0;
108.2;0;108.2;0;108.2;0;108.2;0;;;108.2;0;
108.4;0;108.4;0;108.4;0;108.4;0;;;108.4;0;
108.6;0;108.6;0;108.6;0;108.6;0;;;108.6;0;
108.8;0;108.8;0;108.8;0;108.8;0;;;108.8;0;
109.0;0;109.0;0;109.0;0;109.0;0;;;109.0;0;
109.2;0;109.2;0;109.2;0;109.2;0;;;109.2;0;
109.4;0;109.4;0;109.4;0;109.4;0;;;109.4;0;
109.6;0;109.6;0;109.6;0;109.6;0;;;109.6;0;
109.8;0;109.8;0;109.8;0;109.8;0;;;109.8;0;
110.0;0;110.0;0;110.0;0;110.0;0;;;110.0;0;
110.2;0;110.2;0;110.2;0;110.2;0;;;110.2;0;
110.4;0;110.4;0;110.4;0;110.4;0;;;110.4;0;
110.6;0;110.6;0;110.6;0;110.6;0;;;110.6;0;
110.8;0;110.8;0;110.8;0;110.8;0;;;110.8;0;
111.0;0;111.0;0;111.0;0;111.0;0;;;111.0;0;
111.2;0;111.2;0;111.2;0;111.2;0;;;111.2;0;
111.4;0;111.4;0;111.4;0;111.4;0;;;111.4;0;
111.6;0;111.6;0;111.6;0;111.6;0;;;111.6;0;
111.8;0;111.8;0;111.8;0;111.8;0;;;111.8;0;
112.0;0;112.0;0;112.0;0;112.0;0;;;112.0;0;
112.2;0;112.2;0;112.2;0;112.2;0;;;112.2;0;
112.4;0;112.4;0;112.4;0;112.4;0;;;112.4;0;
112.6;0;112.6;0;112.6;0;112.6;0;;;112.6;0;
112.8;0;112.8;0;112.8;0;112.8;0;;;112.8;0;
113.0;0;113.0;0;113.0;0;113.0;0;;;113.0;0;
113.2;0;113.2;0;113.2;0;113.2;0;;;113.2;0;
113.4;0;113.4;0;113.4;0;113.4;0;;;113.4;0;
113.6;0;113.6;0;113.6;0;113.6;0;;;113.6;0;
113.8;0;113.8;0;113.8;0;113.8;0;;;113.8;0;
114.0;0;114.0;0;114.0;0;114.0;0;;;114.0;0;
114.2;0;114.2;0;114.2;0;114.2;0;;;114.2;0;
114.4;0;114.4;0;114.4;0;114.4;0;;;114.4;0;
114.6;0;114.6;0;114.6;0;114.6;0;;;114.6;0;
114.8;0;114.8;0;114.8;0;114.8;0;;;114.8;0;
115.0;0;115.0;0;115.0;0;115.0;0;;;115.0;0;
115.2;0;115.2;0;115.2;0;115.2;0;;;115.2;0;
115.4;0;115.4;0;115.4;0;115.4;0;;;115.4;0;
115.6;0;115.6;0;115.6;0;115.6;0;;;115.6;0;
115.8;0;115.8;0;115.8;0;115.8;0;;;115.8;0;
116.0;0;116.0;0;116.0;0;116.0;0;;;116.0;0;
116.2;0;116.2;0;116.2;0;116.2;0;;;116.2;0;
116.4;0;116.4;0;116.4;0;116.4;0;;;116.4;0;
116.6;0;116.6;0;116.6;0;116.6;0;;;116.6;0;
116.8;0;116.8;0;116.8;0;116.8;0;;;116.8;0;
117.0;0;117.0;0;117.0;0;117.0;0;;;117.0;0;
117.2;0;117.2;0;117.2;0;117.2;0;;;117.2;0;
117.4;0;117.4;0;117.4;0;117.4;0;;;117.4;0;
117.6;0;117.6;0;117.6;0;117.6;0;;;117.6;0;
117.8;0;117.8;0;117.8;0;117.8;0;;;117.8;0;
118.0;0;118.0;0;118.0;0;118.0;0;;;118.0;0;
118.2;0;118.2;0;118.2;0;118.2;0;;;118.2;0;
118.4;0;118.4;0;118.4;0;118.4;0;;;118.4;0;
118.6;0;118.6;0;118.6;0;118.6;0;;;118.6;0;
118.8;0;118.8;0;118.8;0;118.8;0;;;118.8;0;
119.0;0;119.0;0;119.0;0;119.0;0;;;119.0;0;
119.2;0;119.2;0;119.2;0;119.2;0;;;119.2;0;
119.4;0;119.4;0;119.4;0;119.4;0;;;119.4;0;
119.6;0;119.6;0;119.6;0;119.6;0;;;119.6;0;
119.8;0;119.8;0;119.8;0;119.8;0;;;119.8;0;
;;;;;;;;;;120.0;0;
