Sending Rate;Sending Rate;Throughtput;Throughtput;
0.2;1.0;0.2;1.0;
0.4;0.990543699156;0.4;0.981330221704;
0.6;0.984345082794;0.6;0.987665517867;
0.8;0.985564180797;0.8;0.979104477612;
1.0;0.990737878986;1.0;0.951060820368;
1.2;0.984466704866;1.2;0.978085144602;
1.4;0.980269263703;1.4;0.988023952096;
1.6;0.988571696127;1.6;0.987307343608;
1.8;0.956496024603;1.8;0.997070133675;
2.0;0.99505957944;2.0;0.992345544013;
2.2;0.987446922908;2.2;0.984095427435;
2.4;0.985256037862;2.4;0.996148148148;
2.6;0.984682270558;2.6;0.987307343608;
2.8;0.994584259342;2.8;0.990510424155;
3.0;0.984771915205;3.0;0.99541080681;
3.2;0.992244747297;3.2;0.980291711135;
3.4;0.990709657165;3.4;0.996340347667;
3.6;0.999074977653;3.6;0.990644567219;
3.8;0.98940114571;3.8;0.994801444043;
4.0;0.992715116842;4.0;0.993431855501;
4.2;0.99726161595;4.2;0.997070133675;
4.4;0.996247503326;4.4;0.991622655254;
4.6;0.990518019634;4.6;0.99762611276;
4.8;0.988803575302;4.8;0.991622655254;
5.0;0.996403653817;5.0;0.991195672449;
5.2;0.99378817879;5.2;0.99853291766;
5.4;0.993057673733;5.4;0.991983967936;
5.6;0.989554853137;5.6;0.99415738543;
5.8;0.99473369908;5.8;0.986591773872;
6.0;0.984950855717;6.0;0.997435427734;
6.2;0.993333652751;6.2;0.983490653341;
6.4;0.99226215656;6.4;0.99415738543;
6.6;0.987797711146;6.6;0.98161168199;
6.8;0.998701680623;6.8;0.998166819432;
7.0;0.991615180122;7.0;0.99126160568;
7.2;0.996555956132;7.2;0.995611629183;
7.4;0.990881102349;7.4;0.998166819432;
7.6;0.9960172471;7.6;0.994520547945;
7.8;0.988285004845;7.8;0.996705107084;
8.0;0.993753219002;8.0;0.989460294385;
8.2;0.99009907568;8.2;0.991622655254;
8.4;0.999846142236;8.4;0.985679836765;
8.6;0.99483560502;8.6;0.998899284535;
8.8;0.992299544852;8.8;0.988460124954;
9.0;0.996615442495;9.0;0.993794488045;
9.2;0.994511165786;9.2;0.99524766953;
9.4;0.99613319565;9.4;0.999632825408;
9.6;0.99532477487;9.6;0.984451274634;
9.8;0.994156720808;9.8;0.997435427734;
10.0;0.993730317322;10.0;0.995975855131;
10.2;0.997761919847;10.2;0.99524766953;
10.4;0.993922507851;10.4;0.998166819432;
10.6;0.982510202293;10.6;0.98092879257;
10.8;0.967785426049;10.8;0.968;
11.0;0.996554532094;11.0;0.994520547945;
11.2;0.995997941584;11.2;0.99541080681;
11.4;0.996983791032;11.4;0.99524766953;
11.6;0.997159816051;11.6;0.99524766953;
11.8;0.997528006486;11.8;0.980889861415;
12.0;0.995959270311;12.0;0.993794488045;
12.2;0.993650976991;12.2;0.9756133829;
12.4;0.994479404985;12.4;0.99524766953;
12.6;0.995900314174;12.6;0.995975855131;
12.8;0.990996592871;12.8;0.99415738543;
13.0;0.989458649506;13.0;0.993069487507;
13.2;0.998701680623;13.2;0.989350214113;
13.4;0.984190228467;13.4;0.997435427734;
13.6;0.995104566893;13.6;0.992345544013;
13.8;0.995965511131;13.8;0.990180032733;
14.0;0.996767695519;14.0;0.997435427734;
14.2;0.983157436689;14.2;0.995975855131;
14.4;0.991704693575;14.4;0.989460294385;
14.6;0.999449611188;14.6;0.991622655254;
14.8;0.99416358996;14.8;0.996340347667;
15.0;0.985668301818;15.0;0.997070133675;
15.2;0.996873060324;15.2;0.982738944365;
15.4;0.996224129134;15.4;0.997800989555;
15.6;0.996578856387;15.6;0.993794488045;
15.8;0.984910333311;15.8;0.994520547945;
16.0;0.98690683918;16.0;0.991622655254;
16.2;0.994635083412;16.2;0.988382646578;
16.4;0.995275107534;16.4;0.996355353075;
16.6;0.994522539193;16.6;0.992106233862;
16.8;0.977189669545;16.8;0.990540294706;
17.0;0.995523659624;17.0;0.982674607472;
17.2;0.994201746273;17.2;0.992345544013;
17.4;0.996251442941;17.4;0.99524766953;
17.6;0.993244252263;17.6;0.99504254532;
17.8;0.993289621844;17.8;0.98623437783;
18.0;0.996724029584;18.0;0.995221843003;
18.2;0.993559440024;18.2;0.99504254532;
18.4;0.996553890288;18.4;0.996705107084;
18.6;0.984270289111;18.6;0.988460124954;
18.8;0.994798197494;18.8;0.997070133675;
19.0;0.996765732735;19.0;0.995160707837;
19.2;0.992329434165;19.2;0.995975855131;
19.4;0.983987152707;19.4;0.99504254532;
19.6;0.994927349144;19.6;0.993794488045;
19.8;0.997898983066;19.8;0.991374861777;
20.0;0.995165221741;20.0;0.997435427734;
20.2;0.99416358996;20.2;0.995975855131;
20.4;0.994621667824;20.4;0.990180032733;
20.6;0.99406842119;20.6;0.989798850575;
20.8;0.996300717087;20.8;0.993794488045;
21.0;0.2;21.0;0.993696275072;
21.2;0.989212718865;21.2;0.99737704918;
21.4;0.991930283391;21.4;0.992571319165;
21.6;0.994285653586;21.6;0.994306839187;
21.8;0.998931767775;21.8;0.997321751719;
22.0;0.987605290495;22.0;0.99126160568;
22.2;0.995178822272;22.2;0.987307343608;
22.4;0.990933997041;22.4;0.99541080681;
22.6;0.983533055008;22.6;0.978436657682;
22.8;0.991835871762;22.8;0.994883975882;
23.0;0.983336411693;23.0;0.988023952096;
23.2;0.992645544842;23.2;0.989088298636;
23.4;0.996873741471;23.4;0.997256210604;
23.6;0.992099105748;23.6;0.993048028406;
23.8;0.992565879059;23.8;0.993419330716;
24.0;0.995871537403;24.0;0.997435427734;
24.2;0.989927601568;24.2;0.992293842276;
24.4;0.998023904942;24.4;0.992707383774;
24.6;0.991961016558;24.6;0.995611629183;
24.8;0.994409287804;24.8;0.99524766953;
25.0;0.992715116842;25.0;0.988023952096;
25.2;0.997477639065;25.2;0.993794488045;
25.4;0.989077729086;25.4;0.99853291766;
25.6;0.995352055505;25.6;0.986949429038;
25.8;0.995326825319;25.8;0.997070133675;
26.0;0.992002496048;26.0;0.997070133675;
26.2;0.996984347915;26.2;0.996705107084;
26.4;0.991037789633;26.4;0.994520547945;
26.6;0.995311029547;26.6;0.990180032733;
26.8;0.991957458409;26.8;0.99524766953;
27.0;0.998641995821;27.0;0.993431855501;
27.2;0.991615180122;27.2;0.997682838523;
27.4;0.991704693575;27.4;0.991622655254;
27.6;0.998370931143;27.6;0.993069487507;
27.8;0.994561294676;27.8;0.99524766953;
28.0;0.991513941994;28.0;0.998899284535;
28.2;0.998273535294;28.2;0.985520361991;
28.4;0.993785741351;28.4;0.997435427734;
28.6;0.992782347669;28.6;0.998166819432;
28.8;0.996794063574;28.8;0.991622655254;
29.0;0.991219635182;29.0;0.993069487507;
29.2;0.994635083412;29.2;0.996705107084;
29.4;0.998019758898;29.4;0.99524766953;
29.6;0.997726228457;29.6;0.99533437014;
29.8;0.982247503605;29.8;0.99524766953;
30.0;0.994749857387;30.0;0.987734116783;
30.2;0.997766518691;30.2;0.994520547945;
30.4;0.997872679976;30.4;0.996960926194;
30.6;0.994081617404;30.6;0.996705107084;
30.8;0.998587194252;30.8;0.991622655254;
31.0;0.995395884049;31.0;0.997070133675;
31.2;0.992800320839;31.2;0.99524766953;
31.4;0.6489564179;31.4;0.965351894818;
31.6;0.99999689412;31.6;1.0;
31.8;0.986231763981;31.8;0.990139808683;
32.0;0.996447962;32.0;0.993069487507;
32.2;0.996100842122;32.2;0.99524766953;
32.4;0.994119290918;32.4;0.99415738543;
32.6;0.994696455127;32.6;0.981257884303;
32.8;0.992670401837;32.8;0.998405797101;
33.0;0.990949019885;33.0;0.989350214113;
33.2;0.995682257744;33.2;0.988823529412;
33.4;0.987008677941;33.4;0.993009009009;
33.6;0.991369370146;33.6;0.991195672449;
33.8;0.999075977969;33.8;0.997070133675;
34.0;0.998467009049;34.0;0.99415738543;
34.2;0.991944434341;34.2;0.998166819432;
34.4;0.995529046088;34.4;0.990180032733;
34.6;0.99750246627;34.6;0.99415738543;
34.8;0.995546143162;34.8;0.996705107084;
35.0;0.997158811074;35.0;0.99524766953;
35.2;0.997998174409;35.2;0.992472324723;
35.4;0.996475806054;35.4;0.995975855131;
35.6;0.99845498771;35.6;0.997070133675;
35.8;0.994501819466;35.8;0.994520547945;
36.0;0.996681416014;36.0;0.998646870889;
36.2;0.996053206794;36.2;0.993069487507;
36.4;0.995459863774;36.4;0.99524766953;
36.6;0.994801444043;36.6;0.991622655254;
36.8;0.994518936117;36.8;0.995880014456;
37.0;0.994159716499;37.0;0.990900818926;
37.2;0.993061061625;37.2;0.99853291766;
37.4;0.993785741351;37.4;0.998737467508;
37.6;0.99573874651;37.6;0.998166819432;
37.8;0.998023904942;37.8;0.997435427734;
38.0;0.999153133326;38.0;0.99504254532;
38.2;0.994105493651;38.2;0.999265920352;
38.4;0.998116451322;38.4;0.994520547945;
38.6;0.994093702186;38.6;0.996705107084;
38.8;0.998757912654;38.8;0.997435427734;
39.0;0.999398807222;39.0;0.998166819432;
39.2;0.99760984313;39.2;0.997435427734;
39.4;0.99243359579;39.4;0.997070133675;
39.6;0.996724029584;39.6;0.987307343608;
39.8;0.997998174409;39.8;0.997435427734;
40.0;0.997929849084;40.0;0.998166819432;
40.2;0.997545655141;40.2;0.998166819432;
40.4;0.997766518691;40.4;0.99415738543;
40.6;0.99861520811;40.6;0.999265920352;
40.8;0.997896153217;40.8;0.997070133675;
41.0;0.995224980666;41.0;0.998166819432;
41.2;0.995791480249;41.2;0.993048028406;
41.4;0.998800313215;41.4;0.990180032733;
41.6;0.998646615467;41.6;0.999851301115;
41.8;0.922593465701;41.8;0.998166819432;
42.0;0.968361953155;42.0;0.887519747235;
42.2;0.985265982312;42.2;0.985061315496;
42.4;0.995709436533;42.4;0.999632825408;
42.6;0.992045341563;42.6;0.993205317578;
42.8;0.988152341583;42.8;0.997435427734;
43.0;0.979415420865;43.0;0.97388660347;
43.2;0.99791758973;43.2;0.993794488045;
43.4;0.988907666953;43.4;0.988382646578;
43.6;0.993932224254;43.6;0.979492714517;
43.8;0.97876491245;43.8;0.988741601598;
44.0;0.996724029584;44.0;0.986949429038;
44.2;0.984448471595;44.2;0.994674556213;
44.4;0.991244476716;44.4;0.991622655254;
44.6;0.986916872202;44.6;0.982320043298;
44.8;0.997229586899;44.8;0.99027982327;
45.0;0.985756829397;45.0;0.998366740906;
45.2;0.989812397103;45.2;0.984095427435;
45.4;0.983598894453;45.4;0.986949429038;
45.6;0.991844567009;45.6;0.984095427435;
45.8;0.991294163519;45.8;0.99415738543;
46.0;0.997869850131;46.0;0.994520547945;
46.2;0.997169804848;46.2;0.993790910791;
46.4;0.98538675159;46.4;0.99524766953;
46.6;0.994448339484;46.6;0.993794488045;
46.8;0.994517364178;46.8;0.993431855501;
47.0;0.989953866093;47.0;0.993069487507;
47.2;0.98647007288;47.2;0.993069487507;
47.4;0.999609701675;47.4;0.984584028164;
47.6;0.98734549704;47.6;0.999108469539;
47.8;0.996128405749;47.8;0.992345544013;
48.0;0.99090520277;48.0;0.989350214113;
48.2;0.991509679619;48.2;0.985163741632;
48.4;0.998717173111;48.4;0.998899284535;
48.6;0.989830796163;48.6;0.99157970493;
48.8;0.998459216292;48.8;0.993794488045;
49.0;0.99155007507;49.0;0.988023952096;
49.2;0.998264767018;49.2;0.997435427734;
49.4;0.994660913133;49.4;0.995975855131;
49.6;0.993815239376;49.6;0.997435427734;
49.8;0.991340632342;49.8;0.993794488045;
50.0;0.997306754616;50.0;0.993205317578;
50.2;0.988866305359;50.2;0.999632825408;
50.4;0.995210949834;50.4;0.990826030207;
50.6;0.997138864081;50.6;0.995975855131;
50.8;0.99760984313;50.8;0.993431855501;
51.0;0.996260969337;51.0;0.998899284535;
51.2;0.999654177871;51.2;0.990180032733;
51.4;0.993939349379;51.4;0.996705107084;
51.6;0.988131052195;51.6;0.992345544013;
51.8;0.999028233772;51.8;0.997070133675;
52.0;0.996819113742;52.0;0.99853291766;
52.2;0.968672778704;52.2;0.996705107084;
52.4;0.999987598461;52.4;0.965351894818;
52.6;0.988034188034;52.6;0.975634517766;
52.8;0.997397178477;52.8;0.99415738543;
53.0;0.996346206299;53.0;0.991622655254;
53.2;0.998353169206;53.2;0.997435427734;
53.4;0.982780627414;53.4;0.989820032721;
53.6;0.990470477415;53.6;0.990180032733;
53.8;0.992866406028;53.8;0.995611629183;
54.0;0.99585195348;54.0;0.989798850575;
54.2;0.983010547026;54.2;0.998166819432;
54.4;0.995481055495;54.4;0.989460294385;
54.6;0.996034006451;54.6;0.99524766953;
54.8;0.996573198886;54.8;0.997070133675;
55.0;0.98940114571;55.0;0.995975855131;
55.2;0.996910112289;55.2;0.988741601598;
55.4;0.994912799297;55.4;0.993939393939;
55.6;0.993572309815;55.6;0.993069487507;
55.8;0.992625502103;55.8;0.99504254532;
56.0;0.994135381981;56.0;0.993419330716;
56.2;0.988804432769;56.2;0.99415738543;
56.4;0.985923753666;56.4;0.982674607472;
56.6;0.992487073908;56.6;0.984480234261;
56.8;0.987852822116;56.8;0.993794488045;
57.0;0.991602261894;57.0;0.997070133675;
57.2;0.99813923627;57.2;0.989820032721;
57.4;0.999016001417;57.4;0.993069487507;
57.6;0.985969448221;57.6;0.996960926194;
57.8;0.993104139945;57.8;0.985562477098;
58.0;0.991536761691;58.0;0.995975855131;
58.2;0.99532477487;58.2;0.994520547945;
58.4;0.996403653817;58.4;0.997070133675;
58.6;0.994457666851;58.6;0.98587724063;
58.8;0.996805911553;58.8;0.99853291766;
59.0;0.989638508278;59.0;0.995611629183;
59.2;0.995900314174;59.2;0.993794488045;
59.4;0.992852014556;59.4;0.996886582654;
59.6;0.99645959503;59.6;0.995880014456;
59.8;0.995634857922;59.8;0.995975855131;
60.0;0.999460659772;60.0;0.997070133675;
60.2;0.992180622839;60.2;0.999851301115;
60.4;0.997698778604;60.4;0.992707383774;
60.6;0.993057673733;60.6;0.994520547945;
60.8;0.99829121434;60.8;0.997070133675;
61.0;0.993559440024;61.0;0.996705107084;
61.2;0.997510578866;61.2;0.993794488045;
61.4;0.998116451322;61.4;0.995975855131;
61.6;0.99493202376;61.6;0.996886582654;
61.8;0.995257140335;61.8;0.995280014984;
62.0;0.997919660481;62.0;0.992838685862;
62.2;0.998606769057;62.2;0.997435427734;
62.4;0.994910665452;62.4;0.994520547945;
62.6;0.984281339656;62.6;0.99524766953;
62.8;0.337931034483;62.8;0.941616233535;
63.0;0.991011235955;63.0;0.991011235955;
63.2;0.996210914184;63.2;0.99792107796;
63.4;0.992426492203;63.4;0.994844579227;
63.6;0.982692793785;63.6;0.992345544013;
63.8;0.991697817031;63.8;0.99504254532;
64.0;0.995232483075;64.0;0.996773588445;
64.2;0.992835269212;64.2;0.988096987509;
64.4;0.993518252441;64.4;0.998899284535;
64.6;0.992420942576;64.6;0.982674607472;
64.8;0.994719603768;64.8;0.995611629183;
65.0;0.997596786328;65.0;0.997070133675;
65.2;0.992268349724;65.2;0.995611629183;
65.4;0.996590634195;65.4;0.990180032733;
65.6;0.994080048943;65.6;0.997491448119;
65.8;0.998361854883;65.8;0.994306839187;
66.0;0.995764223926;66.0;0.997435427734;
66.2;0.990111071835;66.2;0.994520547945;
66.4;0.996516048431;66.4;0.993048028406;
66.6;0.993785741351;66.6;0.99524766953;
66.8;0.995435466042;66.8;0.993069487507;
67.0;0.984843076174;67.0;0.996148148148;
67.2;0.99693523987;67.2;0.98587724063;
67.4;0.992715116842;67.4;0.995975855131;
67.6;0.995616296197;67.6;0.996705107084;
67.8;0.991415485663;67.8;0.996773588445;
68.0;0.994823515623;68.0;0.988382646578;
68.2;0.995990931514;68.2;0.99504254532;
68.4;0.994459907269;68.4;0.989460294385;
68.6;0.998900345092;68.6;0.999129804206;
68.8;0.989199958507;68.8;0.989187201177;
69.0;0.998264767018;69.0;0.996026241799;
69.2;0.995210949834;69.2;0.995779340985;
69.4;0.996017028427;69.4;0.995611629183;
69.6;0.993007377745;69.6;0.995611629183;
69.8;0.996798823249;69.8;0.988741601598;
70.0;0.993690598821;70.0;0.998899284535;
70.2;0.996554532094;70.2;0.99524766953;
70.4;0.994135381981;70.4;0.996517228603;
70.6;0.994536782296;70.6;0.990900818926;
70.8;0.996750593867;70.8;0.994520547945;
71.0;0.995512696178;71.0;0.995611629183;
71.2;0.991054279001;71.2;0.995975855131;
71.4;0.990549668789;71.4;0.992962542565;
71.6;0.996382467171;71.6;0.990900818926;
71.8;0.996017028427;71.8;0.997435427734;
72.0;0.996970861043;72.0;0.996705107084;
72.2;0.991088547324;72.2;0.993069487507;
72.4;0.994426739206;72.4;0.993794488045;
72.6;0.994569863823;72.6;0.996773588445;
72.8;0.997466193257;72.8;0.995611629183;
73.0;0.98751303517;73.0;0.992707383774;
73.2;0.76;73.2;0.98735042735;
73.4;0.982334812128;73.4;0.981818181818;
73.6;0.970032671353;73.6;0.968417892525;
73.8;0.992569977185;73.8;0.992962542565;
74.0;0.992518812141;74.0;0.992106233862;
74.2;0.984227860594;74.2;0.989088298636;
74.4;0.979615514428;74.4;0.989460294385;
74.6;0.998696893362;74.6;0.99415738543;
74.8;0.981713512868;74.8;0.984949026877;
75.0;0.989008824744;75.0;0.991622655254;
75.2;0.994092910175;75.2;0.988382646578;
75.4;0.993735727162;75.4;0.990180032733;
75.6;0.992473539949;75.6;0.992345544013;
75.8;0.98202135674;75.8;0.994520547945;
76.0;0.992303301781;76.0;0.98276308489;
76.2;0.997677118228;76.2;0.987307343608;
76.4;0.977990010602;76.4;0.998166819432;
76.6;0.992451232517;76.6;0.982674607472;
76.8;0.993464150443;76.8;0.986609380594;
77.0;0.988500832713;77.0;0.989460294385;
77.2;0.988658863582;77.2;0.991983967936;
77.4;0.992405536383;77.4;0.984451274634;
77.6;0.989297146618;77.6;0.993069487507;
77.8;0.992679753246;77.8;0.992345544013;
78.0;0.996984347915;78.0;0.994883975882;
78.2;0.991459802165;78.2;0.994306839187;
78.4;0.988381584938;78.4;0.991223021583;
78.6;0.995250633962;78.6;0.98991534781;
78.8;0.998887000016;78.8;0.99524766953;
79.0;0.980199147121;79.0;0.995975855131;
79.2;0.99406842119;79.2;0.994520547945;
79.4;0.992473539949;79.4;0.990154509522;
79.6;0.997331598581;79.6;0.990900818926;
79.8;0.990282221926;79.8;0.997070133675;
80.0;0.992731702479;80.0;0.988023952096;
80.2;0.993121875926;80.2;0.992345544013;
80.4;0.994511165786;80.4;0.991622655254;
80.6;0.9980514673;80.6;0.99524766953;
80.8;0.988091644306;80.8;0.989460294385;
81.0;0.990602818156;81.0;0.99415738543;
81.2;0.994272295753;81.2;0.9900875722;
81.4;0.994827311263;81.4;0.992838685862;
81.6;0.993341443097;81.6;0.99504254532;
81.8;0.989416202544;81.8;0.993939393939;
82.0;0.995054412337;82.0;0.99524766953;
82.2;0.997449883088;82.2;0.990900818926;
82.4;0.981571170093;82.4;0.998899284535;
82.6;0.993785741351;82.6;0.993794488045;
82.8;0.993192976253;82.8;0.985163741632;
83.0;0.995523659624;83.0;0.992707383774;
83.2;0.997735791182;83.2;0.99415738543;
83.4;0.993099300318;83.4;0.989460294385;
83.6;0.946798029557;83.6;0.996705107084;
83.8;0.914105048476;83.8;0.962666666667;
84.0;0.986949833453;84.0;0.988214599824;
84.2;0.994612047644;84.2;0.994674556213;
84.4;0.990954673734;84.4;0.992345544013;
84.6;0.992691435437;84.6;0.990644567219;
84.8;0.987626380605;84.8;0.979246624023;
85.0;0.99585195348;85.0;0.993790910791;
85.2;0.989463886313;85.2;0.99524766953;
85.4;0.998332205949;85.4;0.98587724063;
85.6;0.995438654292;85.6;0.992345544013;
85.8;0.992715116842;85.8;0.99524766953;
86.0;0.996210914184;86.0;0.993794488045;
86.2;0.996794063574;86.2;0.99415738543;
86.4;0.990466884153;86.4;0.997435427734;
86.6;0.995523659624;86.6;0.991622655254;
86.8;0.996145250484;86.8;0.994306839187;
87.0;0.994138201332;87.0;0.99504254532;
87.2;0.992969344725;87.2;0.99524766953;
87.4;0.995540011356;87.4;0.992838685862;
87.6;0.995409494996;87.6;0.991622655254;
87.8;0.985150132613;87.8;0.999265920352;
88.0;0.987544276063;88.0;0.992345544013;
88.2;0.996525514952;88.2;0.992707383774;
88.4;0.997412291387;88.4;0.995975855131;
88.6;0.994706102568;88.6;0.998366740906;
88.8;0.995040725992;88.8;0.987316374059;
89.0;0.99610688207;89.0;0.993205317578;
89.2;0.995856198064;89.2;0.995977229602;
89.4;0.998362871983;89.4;0.991622655254;
89.6;0.997663738042;89.6;0.998899284535;
89.8;0.995042001934;89.8;0.99853291766;
