0;0;
1.3e-05;0.0;
8.8e-05;0.0;
0.038929;0.0;
0.07857;0.0;
0.120194;0.0;
0.162965;0.0;
0.207458;24224.0;
0.249984;80242.0;
0.29009;103222.0;
0.33237;103222.0;
0.372798;104829.0;
0.413924;103405.0;
0.454939;104556.0;
0.497183;103036.0;
0.539685;104760.0;
0.581169;104676.0;
0.623534;86298.0;
0.663564;54504.0;
0.704623;23064.0;
0.746352;3028.0;
0.789554;0.0;
0.832242;0.0;
0.872507;9084.0;
0.913996;10808.0;
0.955213;1514.0;
0.995456;4542.0;
1.035422;3028.0;
1.075795;3028.0;
1.11668;3028.0;
1.156198;0.0;
1.197605;4542.0;
1.239449;16738.0;
1.280368;3028.0;
1.321977;7570.0;
1.365014;4542.0;
1.405724;4542.0;
1.44766;4542.0;
1.489624;1514.0;
1.530988;6056.0;
1.572009;13626.0;
1.614425;6056.0;
1.657405;3028.0;
1.699228;1514.0;
1.742418;3028.0;
1.784294;1514.0;
1.825432;1514.0;
1.867142;7570.0;
1.909077;10598.0;
1.95004;3028.0;
1.990998;4542.0;
2.031791;0.0;
2.072595;1514.0;
2.113427;1514.0;
2.155037;0.0;
2.197179;7570.0;
2.239413;13626.0;
2.281174;4542.0;
2.322724;6056.0;
2.364131;6056.0;
2.406234;6056.0;
2.448272;4542.0;
2.489475;6056.0;
2.531231;7570.0;
2.573065;12112.0;
2.615346;6056.0;
2.657711;3028.0;
2.696405;1514.0;
2.737323;4542.0;
2.779689;1514.0;
2.822284;1514.0;
2.863751;7570.0;
2.904578;12112.0;
2.945781;1514.0;
2.989274;0.0;
3.029743;1514.0;
3.071113;3028.0;
3.112871;0.0;
3.156114;3028.0;
3.200207;4542.0;
3.242581;12112.0;
3.285554;3028.0;
3.328437;1514.0;
3.372475;1514.0;
3.414732;1514.0;
3.457896;0.0;
3.500048;1514.0;
3.542469;7570.0;
3.582;13626.0;
3.623209;1514.0;
3.667034;0.0;
3.709335;3028.0;
3.751669;0.0;
3.795095;1514.0;
3.835692;3028.0;
3.877634;7570.0;
3.920422;12112.0;
3.963479;3028.0;
4.003777;3028.0;
4.045051;4542.0;
4.086547;3028.0;
4.127443;4542.0;
4.168317;4542.0;
4.211018;10598.0;
4.252929;12112.0;
4.291566;6056.0;
4.331417;6126.0;
4.371704;6056.0;
4.412756;4542.0;
4.45446;6056.0;
4.496482;7570.0;
4.538388;10598.0;
4.579218;12112.0;
4.619712;3028.0;
4.661837;1514.0;
4.704009;4542.0;
4.745907;1514.0;
4.787227;6056.0;
4.827427;7570.0;
4.868569;12112.0;
4.910234;15140.0;
4.952067;7570.0;
4.99314;7570.0;
5.035007;12112.0;
5.075632;10598.0;
5.115989;13626.0;
5.156079;12112.0;
5.197041;19682.0;
5.238843;19682.0;
5.280144;15140.0;
5.321482;16654.0;
5.363299;15140.0;
5.405061;13626.0;
5.446687;15140.0;
5.487809;13626.0;
5.528939;19682.0;
5.569808;21196.0;
5.611779;12112.0;
5.653643;13626.0;
5.695239;12112.0;
5.73749;10598.0;
5.779989;10598.0;
5.822294;10598.0;
5.865024;18168.0;
5.907345;13626.0;
5.948956;9084.0;
5.990692;9084.0;
6.030348;10598.0;
6.072628;9084.0;
6.11317;10598.0;
6.155042;9084.0;
6.193884;19682.0;
6.236206;15140.0;
6.278592;9084.0;
6.320514;12112.0;
6.362675;9084.0;
6.404388;12112.0;
6.445856;12112.0;
6.488283;13626.0;
6.530504;24224.0;
6.572474;16654.0;
6.614179;15140.0;
6.655895;15140.0;
6.698658;15140.0;
6.740444;16654.0;
6.781188;13626.0;
6.822744;12112.0;
6.864596;27252.0;
6.906217;13626.0;
6.94761;13626.0;
6.989148;13626.0;
7.030959;12112.0;
7.07226;13626.0;
7.113058;13626.0;
7.155602;10598.0;
7.197826;22710.0;
7.238867;9084.0;
7.280573;9084.0;
7.321739;10598.0;
7.363556;7570.0;
7.405596;12112.0;
7.445817;9084.0;
7.487098;9084.0;
7.530244;22710.0;
7.573026;6056.0;
7.615061;9084.0;
7.655747;7570.0;
7.696175;7570.0;
7.737911;7570.0;
7.779741;7570.0;
7.821532;7570.0;
7.863722;18168.0;
7.905676;6056.0;
7.946647;3028.0;
7.98994;4542.0;
8.032057;3028.0;
8.072832;4542.0;
8.113659;3028.0;
8.156422;7570.0;
8.19889;13626.0;
8.240867;1514.0;
8.283488;1514.0;
8.325187;1514.0;
8.367433;1514.0;
8.409404;1514.0;
8.452199;1514.0;
8.493425;9084.0;
8.535981;7570.0;
8.577647;3028.0;
8.618729;4542.0;
8.660662;1514.0;
8.702832;1514.0;
8.741767;1514.0;
8.783549;1514.0;
8.826665;9084.0;
8.868617;6056.0;
8.909561;1514.0;
8.951727;1514.0;
8.994434;1514.0;
9.035733;0.0;
9.077425;3028.0;
9.118766;0.0;
9.160358;12112.0;
9.202423;4542.0;
9.243868;1514.0;
9.285857;1514.0;
9.327425;0.0;
9.369535;1514.0;
9.408636;4542.0;
9.449676;1514.0;
9.490046;12112.0;
9.53156;3028.0;
9.573328;1514.0;
9.615057;3028.0;
9.657373;0.0;
9.698784;0.0;
9.741295;3028.0;
9.783154;1514.0;
9.825693;13626.0;
9.867731;1514.0;
9.910276;1514.0;
9.952428;1514.0;
9.994693;1514.0;
10.036782;3028.0;
10.077915;3028.0;
10.118978;3028.0;
10.158514;15140.0;
10.198684;0.0;
10.240699;0.0;
10.281957;0.0;
10.323817;0.0;
10.366081;0.0;
10.408081;0.0;
10.450062;0.0;
10.492092;3028.0;
10.534453;0.0;
10.576361;1514.0;
10.618257;3028.0;
10.660102;1514.0;
10.701769;1514.0;
10.743416;12112.0;
10.78451;6056.0;
10.826088;4542.0;
10.867961;1514.0;
10.910071;0.0;
10.95065;3028.0;
10.991746;3028.0;
11.033701;3028.0;
11.075505;10598.0;
11.115807;6056.0;
11.158516;3028.0;
11.200781;0.0;
11.24333;3028.0;
11.286565;3028.0;
11.328126;1514.0;
11.371112;1514.0;
11.411256;9084.0;
11.450406;9084.0;
11.491966;1514.0;
11.534185;3028.0;
11.576707;1514.0;
11.617513;3028.0;
11.658885;0.0;
11.701061;1514.0;
11.742917;7570.0;
11.783649;10598.0;
11.824744;4542.0;
11.866752;1514.0;
11.908419;3028.0;
11.950568;4542.0;
11.992539;1514.0;
12.033994;3028.0;
12.07328;6056.0;
12.113071;13626.0;
12.155127;3028.0;
12.195006;3028.0;
12.23677;3028.0;
12.277053;1514.0;
12.318264;1514.0;
12.360211;1514.0;
12.402029;6056.0;
12.444477;12112.0;
12.485322;3028.0;
12.526474;1514.0;
12.568751;1514.0;
12.61063;0.0;
12.652551;1514.0;
12.692611;1514.0;
12.733593;4542.0;
12.775348;12112.0;
12.818064;3028.0;
12.859949;1514.0;
12.901807;1514.0;
12.943079;0.0;
12.985937;1514.0;
13.027359;3028.0;
13.069717;6056.0;
13.110246;9084.0;
13.152204;4542.0;
13.193856;3028.0;
13.236327;3028.0;
13.279011;0.0;
13.320551;0.0;
13.362328;0.0;
13.404372;10598.0;
13.447275;6056.0;
13.486104;4542.0;
13.527272;1514.0;
13.569463;4542.0;
13.610597;3028.0;
13.652628;4542.0;
13.693989;3028.0;
13.735274;13626.0;
13.776927;3028.0;
13.817986;1514.0;
13.859248;1514.0;
13.900556;3028.0;
13.942421;1514.0;
13.98494;1514.0;
14.027375;3028.0;
14.070204;12112.0;
14.1117;3028.0;
14.152753;3028.0;
14.195301;1514.0;
14.238268;3028.0;
14.279519;1514.0;
14.321367;1514.0;
14.363925;4542.0;
14.405266;12112.0;
14.448276;4542.0;
14.490533;1514.0;
14.532984;1514.0;
14.575324;1514.0;
14.616654;1514.0;
14.659229;1514.0;
14.701101;6056.0;
14.74357;9084.0;
14.785897;4542.0;
14.827559;1514.0;
14.870249;1514.0;
14.910137;1514.0;
14.951031;0.0;
14.991699;1514.0;
15.033065;6056.0;
15.075564;9084.0;
15.11674;3028.0;
15.1582;1514.0;
15.19952;3028.0;
15.240078;4542.0;
15.281663;4542.0;
15.323809;4542.0;
15.365579;12112.0;
15.4078;9084.0;
15.449103;7570.0;
15.490831;6056.0;
15.532529;6056.0;
15.574563;6056.0;
15.61658;7570.0;
15.658677;6056.0;
15.700685;15140.0;
15.742715;7570.0;
15.784924;4542.0;
15.826332;6056.0;
15.868528;6056.0;
15.909808;4542.0;
15.951706;6056.0;
15.993051;4542.0;
16.033559;13626.0;
16.075924;4542.0;
16.117288;3028.0;
16.159385;3028.0;
16.201795;1514.0;
16.244628;1514.0;
16.285723;3028.0;
16.328675;1514.0;
16.371277;12112.0;
16.413456;3028.0;
16.455876;1514.0;
16.497193;3028.0;
16.536477;1514.0;
16.577869;1514.0;
16.619041;3028.0;
16.660514;0.0;
16.702311;12112.0;
16.743996;4542.0;
16.78535;1514.0;
16.826526;3028.0;
16.867315;1514.0;
16.908602;0.0;
16.950036;1514.0;
16.991683;3028.0;
17.033097;12112.0;
17.075608;1514.0;
17.116235;1514.0;
17.157247;3028.0;
17.199538;1514.0;
17.241005;0.0;
17.283682;3028.0;
17.32561;3028.0;
17.367429;10598.0;
17.40907;4542.0;
17.450422;1514.0;
17.491925;3028.0;
17.534058;1514.0;
17.576417;0.0;
17.618084;1514.0;
17.659047;6056.0;
17.700569;10598.0;
17.742931;3028.0;
17.784245;1514.0;
17.827078;3028.0;
17.869727;0.0;
17.912375;1514.0;
17.954909;1514.0;
17.996384;0.0;
18.038645;0.0;
18.080834;0.0;
18.120767;0.0;
18.162093;0.0;
18.204012;3028.0;
18.245835;0.0;
18.287259;1514.0;
18.329944;0.0;
18.371045;1514.0;
18.413518;6056.0;
18.456052;25738.0;
18.498081;1514.0;
18.540466;3028.0;
18.582596;3028.0;
18.623248;0.0;
18.666049;3028.0;
18.707548;1514.0;
18.749732;13626.0;
18.788329;34000.0;
18.828264;9084.0;
18.869968;9084.0;
18.911332;9084.0;
18.95373;7570.0;
18.994739;7570.0;
19.036124;9084.0;
19.076761;9084.0;
19.118662;33308.0;
19.16053;6056.0;
19.200384;6056.0;
19.240798;6056.0;
19.282289;3028.0;
19.323954;3028.0;
19.365618;3028.0;
19.40672;3028.0;
19.447965;27252.0;
19.489385;3028.0;
19.532104;0.0;
19.572481;3028.0;
19.611523;1514.0;
19.652281;1514.0;
19.69461;3028.0;
19.736375;9084.0;
19.777661;19682.0;
19.818405;1514.0;
19.859869;1514.0;
19.901946;1514.0;
19.943816;3028.0;
19.98619;0.0;
20.027944;0.0;
20.069423;13626.0;
20.11126;25738.0;
20.152923;4542.0;
20.195308;3028.0;
20.235707;4542.0;
20.276704;4542.0;
20.318977;1514.0;
20.360073;1514.0;
20.402707;15140.0;
20.441407;18168.0;
20.48247;1514.0;
20.524476;0.0;
20.566369;0.0;
20.608942;0.0;
20.65107;0.0;
20.693412;0.0;
20.734842;0.0;
20.778753;1514.0;
20.821005;18168.0;
20.864147;7570.0;
20.906315;3028.0;
20.948497;3028.0;
20.990714;3028.0;
21.032405;3028.0;
21.073917;3028.0;
21.117867;3028.0;
21.158121;28766.0;
21.198087;1514.0;
21.239334;4542.0;
21.282188;1514.0;
21.32382;1514.0;
21.362893;0.0;
21.404124;3028.0;
21.446505;7570.0;
21.488201;24224.0;
21.53074;1514.0;
21.572129;3028.0;
21.613604;3028.0;
21.653653;1514.0;
21.693727;0.0;
21.735304;0.0;
21.77655;7570.0;
21.818705;18168.0;
21.860291;0.0;
21.902464;1514.0;
21.943513;1514.0;
21.985697;3028.0;
22.026243;1514.0;
22.070483;0.0;
22.112552;15140.0;
22.151762;16654.0;
22.193145;1514.0;
22.235359;3028.0;
22.277217;3028.0;
22.318458;3028.0;
22.360955;0.0;
22.403065;1514.0;
22.445846;15140.0;
22.487527;15140.0;
22.531156;4542.0;
22.572607;1514.0;
22.615184;0.0;
22.655769;3028.0;
22.697395;1514.0;
22.738281;0.0;
22.779556;18168.0;
22.819651;10598.0;
22.861362;3028.0;
22.903614;0.0;
22.944132;1514.0;
22.985325;1514.0;
23.026821;1514.0;
23.069706;0.0;
23.110007;19682.0;
23.151848;10598.0;
23.193097;1514.0;
23.234884;1514.0;
23.276972;0.0;
23.319313;3028.0;
23.362199;3028.0;
23.405203;1514.0;
23.447486;24224.0;
23.489776;1514.0;
23.531628;1514.0;
23.572509;1514.0;
23.614163;0.0;
23.655399;1514.0;
23.696921;1514.0;
23.738562;1514.0;
23.780158;25738.0;
23.821657;1514.0;
23.862515;1514.0;
23.904272;3028.0;
23.945538;0.0;
23.987872;0.0;
24.027967;1514.0;
24.069544;4542.0;
24.110706;25738.0;
24.152323;0.0;
24.193906;7570.0;
24.236452;4542.0;
24.277898;1514.0;
24.318733;1514.0;
24.360399;1514.0;
24.402062;6056.0;
24.443747;24224.0;
24.485622;3028.0;
24.529017;1514.0;
24.570034;1514.0;
24.609544;3028.0;
24.650636;1514.0;
24.693667;1514.0;
24.736171;9084.0;
24.776989;19682.0;
24.819398;0.0;
24.86101;1514.0;
24.902839;3028.0;
24.944798;1514.0;
24.986815;1514.0;
25.028266;1514.0;
25.07184;15140.0;
25.110612;18168.0;
25.151898;3028.0;
25.192702;0.0;
25.233735;3028.0;
25.275427;3028.0;
25.316764;0.0;
25.35789;0.0;
25.399932;13626.0;
25.440745;16654.0;
25.482017;1514.0;
25.523191;0.0;
25.564117;3028.0;
25.604961;3028.0;
25.646471;0.0;
25.688213;1514.0;
25.729734;15140.0;
25.770928;13626.0;
25.812513;1514.0;
25.854614;1514.0;
25.895282;1514.0;
25.937256;0.0;
25.977882;1514.0;
26.019714;0.0;
26.061959;16654.0;
26.103074;15140.0;
26.141721;1514.0;
26.182302;0.0;
26.224719;1514.0;
26.266097;3028.0;
26.308903;1514.0;
26.350512;1514.0;
26.391874;15140.0;
26.434251;18168.0;
26.473933;1514.0;
26.515852;3028.0;
26.556842;3028.0;
26.599674;3028.0;
26.641078;1514.0;
26.682991;3028.0;
26.724707;16654.0;
26.766783;12112.0;
26.80794;4542.0;
26.849443;1514.0;
26.890571;1514.0;
26.93075;3028.0;
26.972198;1514.0;
27.014132;1514.0;
27.055719;18168.0;
27.096803;9084.0;
27.138463;4542.0;
27.180473;0.0;
27.222143;0.0;
27.263076;3028.0;
27.304262;0.0;
27.345816;0.0;
27.387051;18168.0;
27.428311;22710.0;
27.469276;7570.0;
27.510481;4542.0;
27.551448;4542.0;
27.59334;4542.0;
27.635366;4542.0;
27.676963;3028.0;
27.718464;16654.0;
27.760073;13626.0;
27.802241;6056.0;
27.84229;1514.0;
27.883959;0.0;
27.925802;3028.0;
27.967001;3028.0;
28.008522;1514.0;
28.050988;18168.0;
28.091882;9084.0;
28.132992;4542.0;
28.175795;3028.0;
28.218293;1514.0;
28.259415;0.0;
28.299579;1514.0;
28.343957;1514.0;
28.386534;27252.0;
28.428901;1514.0;
28.469854;3028.0;
28.51253;3028.0;
28.554209;0.0;
28.59797;1514.0;
28.639909;0.0;
28.684224;10598.0;
28.726642;18168.0;
28.768838;1514.0;
28.810893;1514.0;
28.850161;6056.0;
28.891815;4542.0;
28.934438;3028.0;
28.976847;0.0;
29.020148;15140.0;
29.060886;15140.0;
29.103536;1514.0;
29.146146;0.0;
29.188943;0.0;
29.230737;3028.0;
29.272418;3028.0;
29.314749;1514.0;
29.356746;19682.0;
29.399573;7570.0;
29.43967;3028.0;
29.479761;0.0;
29.521482;1514.0;
29.563196;3028.0;
29.604919;3028.0;
29.644784;1514.0;
29.686001;24224.0;
29.726496;7570.0;
29.768146;4542.0;
29.809751;1514.0;
29.851684;0.0;
29.894013;3028.0;
29.935065;1514.0;
29.976582;0.0;
30.016582;22710.0;
30.055188;6056.0;
30.093519;1514.0;
30.135452;0.0;
30.17812;0.0;
30.220436;1514.0;
30.263245;3028.0;
30.305567;1514.0;
30.347553;24224.0;
30.387723;6056.0;
30.429639;4542.0;
30.47083;0.0;
30.512612;0.0;
30.554568;1514.0;
30.596304;1514.0;
30.638178;3028.0;
30.679995;25738.0;
30.722524;1514.0;
30.763961;0.0;
30.805267;0.0;
30.846693;0.0;
30.888854;0.0;
30.931159;0.0;
30.972371;0.0;
31.013958;6056.0;
31.055402;30280.0;
31.095551;6056.0;
31.136499;4542.0;
31.177905;4542.0;
31.217065;4542.0;
31.257801;3028.0;
31.299557;1514.0;
31.341548;1514.0;
31.384262;27252.0;
31.42316;15140.0;
31.463358;6056.0;
31.506213;4542.0;
31.54654;4542.0;
31.585653;3028.0;
31.627507;3028.0;
31.669546;0.0;
31.710713;19682.0;
31.75299;15140.0;
31.795883;4542.0;
31.83442;0.0;
31.875456;3028.0;
31.919052;1514.0;
31.960411;3028.0;
32.00096;1514.0;
32.040335;15140.0;
32.078722;19682.0;
32.120392;1514.0;
32.163145;3028.0;
32.205929;1514.0;
32.249339;3028.0;
32.291695;1514.0;
32.334998;1514.0;
32.377692;16654.0;
32.420448;15140.0;
32.46226;3028.0;
32.501539;0.0;
32.540642;0.0;
32.581948;1514.0;
32.623293;3028.0;
32.665552;0.0;
32.707265;12112.0;
32.747862;19682.0;
32.789674;3028.0;
32.831409;1514.0;
32.873968;0.0;
32.915257;1514.0;
32.957413;3028.0;
33.002051;1514.0;
33.041417;12112.0;
33.08237;28766.0;
33.124539;6056.0;
33.166055;6056.0;
33.208292;3028.0;
33.250457;3028.0;
33.292893;3028.0;
33.334435;3028.0;
33.376243;9084.0;
33.418471;30280.0;
33.461007;6056.0;
33.503289;7570.0;
33.544554;4542.0;
33.585096;3028.0;
33.62626;1514.0;
33.667032;3028.0;
33.707667;4542.0;
33.746826;25738.0;
33.786717;6056.0;
33.828125;4542.0;
33.86812;1514.0;
33.909314;0.0;
33.949998;3028.0;
33.992495;1514.0;
34.032387;0.0;
34.071623;19682.0;
34.111524;13626.0;
34.154332;4542.0;
34.19587;1514.0;
34.237075;1514.0;
34.279098;3028.0;
34.320963;1514.0;
34.362292;3028.0;
34.404524;18168.0;
34.44501;13626.0;
34.485458;4542.0;
34.526086;1514.0;
34.567074;1514.0;
34.608061;3028.0;
34.649739;1514.0;
34.691371;0.0;
34.73258;15140.0;
34.774178;16654.0;
34.815778;4542.0;
34.857535;1514.0;
34.899391;0.0;
34.941491;1514.0;
34.983248;3028.0;
35.024067;0.0;
35.0665;12112.0;
35.10766;18168.0;
35.150081;4542.0;
35.188296;4542.0;
35.22909;0.0;
35.270779;1514.0;
35.311925;3028.0;
35.354698;3028.0;
35.396519;12112.0;
35.438782;36336.0;
35.479529;10598.0;
35.519699;7570.0;
35.561471;7570.0;
35.600912;4542.0;
35.640464;7570.0;
35.682163;7570.0;
35.723581;3028.0;
35.765211;28766.0;
35.807435;9084.0;
35.848829;6056.0;
35.891129;4542.0;
35.932249;3028.0;
35.973758;4542.0;
36.014586;16654.0;
36.05413;65102.0;
36.09335;133232.0;
36.134165;163512.0;
36.176359;165026.0;
36.218124;165026.0;
36.260756;163512.0;
36.301028;161998.0;
36.341847;161998.0;
36.382987;163512.0;
36.424483;161998.0;
36.466321;163512.0;
36.50654;161998.0;
36.547766;165026.0;
36.589053;163512.0;
36.630219;161998.0;
36.67156;163512.0;
36.713555;161998.0;
36.754384;163512.0;
36.795644;163512.0;
36.837661;163512.0;
36.879503;165026.0;
36.918462;161998.0;
36.958687;163512.0;
37.000711;165026.0;
37.041808;163512.0;
37.082761;165026.0;
37.122278;163512.0;
37.163333;161998.0;
37.205277;163512.0;
37.246021;161998.0;
37.287975;161998.0;
37.329624;165026.0;
37.371088;163512.0;
37.411844;165026.0;
37.453142;161998.0;
37.49477;161998.0;
37.536261;163512.0;
37.578365;163512.0;
37.6198;163512.0;
37.661579;143830.0;
37.703852;90840.0;
37.745207;78728.0;
37.787041;72672.0;
37.827696;81756.0;
37.868511;77214.0;
37.909838;80242.0;
37.951709;60560.0;
37.993695;59046.0;
38.036062;60560.0;
38.076542;62074.0;
38.11592;49962.0;
38.157776;48448.0;
38.199513;48448.0;
38.241058;45420.0;
38.283031;46934.0;
38.324849;43906.0;
38.366772;43906.0;
38.408372;59046.0;
38.450559;40878.0;
38.493002;43906.0;
38.534033;43906.0;
38.575094;40878.0;
38.617334;43906.0;
38.658087;42392.0;
38.699734;42392.0;
38.741022;56018.0;
38.783009;40878.0;
38.825015;40878.0;
38.866979;43906.0;
38.906396;40878.0;
38.946545;43906.0;
38.988208;40878.0;
39.029858;40878.0;
39.071339;54504.0;
39.112772;40878.0;
39.154229;42392.0;
39.195606;40878.0;
39.237549;39364.0;
39.279363;42392.0;
39.320867;40878.0;
39.362557;39364.0;
39.404705;52990.0;
39.447085;40878.0;
39.488497;37850.0;
39.529829;36336.0;
39.571674;36336.0;
39.61307;40878.0;
39.654891;37850.0;
39.696274;39364.0;
39.738172;46934.0;
39.780533;34000.0;
39.82324;37850.0;
39.863477;34000.0;
39.904454;34000.0;
39.947586;34000.0;
39.990019;33308.0;
40.031957;37850.0;
40.075196;39364.0;
40.115076;31794.0;
40.156388;33308.0;
40.198753;30280.0;
40.239436;31794.0;
40.281117;31794.0;
40.323187;30280.0;
40.365127;36336.0;
40.404431;36336.0;
40.445563;27252.0;
40.487412;28766.0;
40.529309;28766.0;
40.571026;28766.0;
40.612475;30280.0;
40.653797;27252.0;
40.695702;36336.0;
40.73698;34000.0;
40.77878;28766.0;
40.82041;28766.0;
40.86025;25738.0;
40.901193;27252.0;
40.942476;28766.0;
40.984989;24224.0;
41.026938;31794.0;
41.068966;19682.0;
41.110314;0.0;
41.151672;0.0;
41.193605;0.0;
41.23545;0.0;
41.277222;0.0;
41.319262;0.0;
41.360663;1514.0;
41.402426;0.0;
41.442524;1514.0;
41.483703;3028.0;
41.52615;1514.0;
41.566884;1514.0;
41.608983;12112.0;
41.650891;3028.0;
41.692234;0.0;
41.733213;1514.0;
41.774236;1514.0;
41.815777;3028.0;
41.857301;1514.0;
41.899128;1514.0;
41.940859;10598.0;
41.983577;1514.0;
42.02493;3028.0;
42.067073;1514.0;
42.107702;1514.0;
42.149522;1514.0;
42.191253;0.0;
42.233373;0.0;
42.275107;15140.0;
42.316721;1514.0;
42.357647;3028.0;
42.399145;3028.0;
42.440811;1514.0;
42.482453;1514.0;
42.523975;0.0;
42.565824;3028.0;
42.607245;13626.0;
42.648508;3028.0;
42.68988;3028.0;
42.729626;1514.0;
42.770366;1514.0;
42.812367;3028.0;
42.854492;0.0;
42.896816;3028.0;
42.938276;12112.0;
42.979762;1514.0;
43.021275;3028.0;
43.06152;1514.0;
43.102149;0.0;
43.144558;1514.0;
43.185957;0.0;
43.228106;6056.0;
43.270055;7570.0;
43.312499;1514.0;
43.35424;3028.0;
43.394338;0.0;
43.435327;0.0;
43.477477;0.0;
43.519196;1514.0;
43.561114;9084.0;
43.6023;6056.0;
43.643687;1514.0;
43.684909;3028.0;
43.724486;0.0;
43.765465;1514.0;
43.806722;1514.0;
43.848429;0.0;
43.889379;9084.0;
43.930399;6056.0;
43.972223;0.0;
44.014461;1514.0;
44.056401;1514.0;
44.098152;1514.0;
44.140237;1514.0;
44.181976;0.0;
44.223869;13626.0;
44.265056;3028.0;
44.307332;1514.0;
44.349856;4542.0;
44.392375;1514.0;
44.436725;1514.0;
44.478564;1514.0;
44.519966;3028.0;
44.563521;13626.0;
44.604941;0.0;
44.646286;0.0;
44.687424;4542.0;
44.727118;1514.0;
44.7684;3028.0;
44.810234;3028.0;
44.851689;3028.0;
44.892995;10598.0;
44.934775;0.0;
44.976281;0.0;
45.018318;1514.0;
45.058351;1514.0;
45.099816;3028.0;
45.141252;1514.0;
45.182979;4542.0;
45.224617;10598.0;
45.267351;1514.0;
45.309227;3028.0;
45.349239;0.0;
45.390083;0.0;
45.431873;1514.0;
45.474616;1514.0;
45.516436;4542.0;
45.559429;10598.0;
45.602664;0.0;
45.644655;3028.0;
45.68506;1514.0;
45.726916;1514.0;
45.770965;1514.0;
45.811953;1514.0;
45.854501;7570.0;
45.896469;6056.0;
45.938751;0.0;
45.982785;1514.0;
46.025447;1514.0;
46.066208;0.0;
46.107477;1514.0;
46.149106;0.0;
46.191344;9084.0;
46.23319;6056.0;
46.276027;0.0;
46.318552;3028.0;
46.357806;1514.0;
46.398366;0.0;
46.440794;3028.0;
46.482186;1514.0;
46.522236;10598.0;
46.563296;4542.0;
46.604803;0.0;
46.646777;1514.0;
46.688502;0.0;
46.730382;1514.0;
46.771932;3028.0;
46.813732;1514.0;
46.854039;13626.0;
46.895375;3028.0;
46.936605;3028.0;
46.978233;3028.0;
47.019436;1514.0;
47.060689;1514.0;
47.101905;3028.0;
47.143902;1514.0;
47.185366;15140.0;
47.22781;1514.0;
47.270217;1514.0;
47.311522;1514.0;
47.353803;0.0;
47.396916;1514.0;
47.439179;0.0;
47.480679;6056.0;
47.522574;9084.0;
47.565072;3028.0;
47.606423;0.0;
47.649494;1514.0;
47.691017;0.0;
47.733871;3028.0;
47.776767;0.0;
47.819357;7570.0;
47.861701;4542.0;
47.90338;3028.0;
47.945056;3028.0;
47.98826;4542.0;
48.031018;0.0;
48.074028;3028.0;
48.114365;3028.0;
48.156057;12112.0;
48.198179;1514.0;
48.240871;1514.0;
48.282958;3028.0;
48.325115;3028.0;
48.366391;0.0;
48.407661;3028.0;
48.44809;3028.0;
48.489102;10598.0;
48.530622;4542.0;
48.572556;1514.0;
48.614784;3028.0;
48.6559;1514.0;
48.698315;0.0;
48.74094;3028.0;
48.782826;6056.0;
48.824336;7570.0;
48.866254;1514.0;
48.909073;0.0;
48.951182;3028.0;
48.992727;1514.0;
49.03388;1514.0;
49.074155;1514.0;
49.115281;10598.0;
49.156577;6056.0;
49.198001;1514.0;
49.239524;0.0;
49.280409;1514.0;
49.321794;1514.0;
49.363105;3028.0;
49.404695;3028.0;
49.446467;9084.0;
49.48845;4542.0;
49.529927;3028.0;
49.571936;1514.0;
49.613645;3028.0;
49.654916;1514.0;
49.695982;3028.0;
49.738022;1514.0;
49.779436;12112.0;
49.821599;3028.0;
49.864319;0.0;
49.905388;1514.0;
49.946127;1514.0;
49.987519;0.0;
50.029395;1514.0;
50.070035;1514.0;
50.11085;13626.0;
50.153348;4542.0;
50.195149;1514.0;
50.237318;3028.0;
50.279353;1514.0;
50.321145;0.0;
50.362213;1514.0;
50.404612;1514.0;
50.447111;10598.0;
50.490229;3028.0;
50.532614;3028.0;
50.575207;1514.0;
50.617296;0.0;
50.65921;0.0;
50.702653;1514.0;
50.745765;6056.0;
50.788597;9084.0;
50.830182;1514.0;
50.872552;1514.0;
50.914384;3028.0;
50.95792;0.0;
50.999941;3028.0;
51.042168;1514.0;
51.083437;12112.0;
51.126029;6056.0;
51.169664;4542.0;
51.211035;4542.0;
51.254518;3028.0;
51.294379;1514.0;
51.335141;4542.0;
51.377848;0.0;
51.420636;0.0;
51.462377;1514.0;
51.506292;0.0;
51.547494;0.0;
51.590018;3028.0;
51.63217;0.0;
51.674526;4542.0;
51.715906;13626.0;
51.757298;9084.0;
51.79929;6056.0;
51.840286;4542.0;
51.881594;6056.0;
51.922893;4542.0;
51.964324;3028.0;
52.007816;4542.0;
52.054925;7570.0;
52.093771;9084.0;
52.136145;6056.0;
52.177866;3028.0;
52.219699;7570.0;
52.261866;4542.0;
52.303081;7570.0;
52.344789;7570.0;
52.386383;12112.0;
52.427607;16654.0;
52.469656;4542.0;
52.510817;4542.0;
52.55211;6056.0;
52.594678;3028.0;
52.636292;4542.0;
52.677647;4542.0;
52.71978;4542.0;
52.762007;16654.0;
52.802658;4542.0;
52.846047;4542.0;
52.887469;9084.0;
52.930075;9084.0;
52.971301;10598.0;
53.012701;9084.0;
53.054465;10598.0;
53.096079;24224.0;
53.138211;15140.0;
53.180979;15140.0;
53.22239;13626.0;
53.264832;13626.0;
53.307077;13626.0;
53.347851;13626.0;
53.389662;12112.0;
53.431952;18168.0;
53.47391;19682.0;
53.515549;10598.0;
53.557297;9084.0;
53.599299;10598.0;
53.641181;10598.0;
53.682749;9084.0;
53.724084;10598.0;
53.76621;9084.0;
53.808106;19682.0;
53.849532;7570.0;
53.891552;6056.0;
53.931974;6056.0;
53.972809;9084.0;
54.012783;9084.0;
54.054905;9084.0;
54.096625;9084.0;
54.138741;18168.0;
54.179966;16654.0;
54.222373;7570.0;
54.266462;7570.0;
54.308647;10598.0;
54.351651;6056.0;
54.392931;10598.0;
54.434725;7570.0;
54.476402;13626.0;
54.518591;16654.0;
54.560265;9084.0;
54.603001;9084.0;
54.644777;7570.0;
54.685935;6056.0;
54.724866;7570.0;
54.765203;7570.0;
54.807041;6056.0;
54.848086;19682.0;
54.889629;9084.0;
54.931372;6056.0;
54.97389;7570.0;
55.014889;6056.0;
55.056385;7570.0;
55.097632;6056.0;
55.138906;6056.0;
55.18094;15140.0;
55.220561;13626.0;
55.260751;6056.0;
55.300115;6056.0;
55.340561;6056.0;
55.383046;6056.0;
55.423904;4542.0;
55.465907;3028.0;
55.507511;4542.0;
55.548323;15140.0;
55.589891;10598.0;
55.630887;6056.0;
55.671903;3028.0;
55.713653;4542.0;
55.755166;4542.0;
55.796301;1514.0;
55.837257;4542.0;
55.877021;6056.0;
55.91856;13626.0;
55.959522;4542.0;
56.001286;3028.0;
56.040356;7570.0;
56.079546;4542.0;
56.118648;0.0;
56.160764;1514.0;
56.201892;1514.0;
56.24401;0.0;
56.286346;1514.0;
56.328722;1514.0;
56.369905;0.0;
56.412223;1514.0;
56.454263;0.0;
56.496618;0.0;
56.539017;0.0;
56.581111;1514.0;
56.624179;0.0;
56.666445;0.0;
56.708647;0.0;
56.750521;0.0;
56.792438;0.0;
56.835571;0.0;
56.876547;0.0;
56.919146;0.0;
56.960644;1514.0;
57.003838;3028.0;
57.04527;0.0;
57.086004;1514.0;
57.127916;1514.0;
57.170137;3028.0;
57.211449;0.0;
57.2536;1514.0;
57.296302;0.0;
57.338757;0.0;
57.380495;0.0;
57.423587;0.0;
57.465875;0.0;
57.508552;0.0;
57.550282;0.0;
57.594746;0.0;
57.634845;0.0;
57.676135;1514.0;
57.719005;0.0;
57.761029;1514.0;
57.802184;0.0;
57.844128;1514.0;
57.885411;3028.0;
57.927409;1514.0;
57.969547;0.0;
58.012486;1514.0;
58.054954;0.0;
58.095178;0.0;
58.136606;0.0;
58.17915;0.0;
58.220345;0.0;
58.262319;0.0;
58.304314;0.0;
58.34623;0.0;
58.388169;0.0;
58.430148;0.0;
58.471029;0.0;
58.513792;1514.0;
58.554885;0.0;
58.596895;0.0;
58.638385;1514.0;
58.680246;0.0;
58.722924;0.0;
58.766036;0.0;
58.80775;1514.0;
58.850698;0.0;
58.893056;0.0;
58.934638;0.0;
58.976617;0.0;
59.019654;0.0;
59.061775;0.0;
59.104437;0.0;
59.147152;0.0;
59.188763;0.0;
59.230132;0.0;
59.272503;0.0;
59.31478;0.0;
59.357565;0.0;
59.399919;0.0;
59.44164;0.0;
59.483369;0.0;
59.524791;0.0;
59.567431;0.0;
59.608956;1514.0;
59.651129;0.0;
59.692948;0.0;
59.734628;0.0;
59.776065;0.0;
59.817803;0.0;
59.859816;0.0;
59.901592;0.0;
59.943253;0.0;
59.98571;0.0;
60.027956;1514.0;
60.069276;0.0;
60.110112;0.0;
60.152309;0.0;
60.194104;0.0;
60.236272;0.0;
60.278851;0.0;
60.322232;0.0;
60.363745;0.0;
60.404859;0.0;
60.446827;0.0;
60.488233;0.0;
60.530334;0.0;
60.57212;1514.0;
60.615218;0.0;
60.658347;0.0;
60.699966;0.0;
60.742548;1514.0;
60.784296;0.0;
60.826607;0.0;
60.867784;0.0;
60.909117;0.0;
60.951012;0.0;
60.993081;0.0;
61.034063;0.0;
61.074359;1514.0;
61.114508;0.0;
61.156307;0.0;
61.197902;0.0;
61.239694;0.0;
61.281735;0.0;
61.323513;0.0;
61.365392;0.0;
61.406994;0.0;
61.449975;0.0;
61.489468;0.0;
61.530738;0.0;
61.572493;0.0;
61.614092;0.0;
61.655798;0.0;
61.697537;0.0;
61.739146;0.0;
61.780419;0.0;
61.822354;0.0;
61.864037;0.0;
61.905879;0.0;
61.948223;0.0;
61.990762;1514.0;
62.032409;0.0;
62.072516;0.0;
62.114028;0.0;
62.155088;0.0;
62.196631;1514.0;
62.238648;0.0;
62.279687;1514.0;
62.321128;0.0;
62.362834;0.0;
62.405257;0.0;
62.447125;0.0;
62.488545;1514.0;
62.531019;0.0;
62.573185;0.0;
62.615718;0.0;
62.658152;0.0;
62.700841;0.0;
62.743126;1514.0;
62.785005;0.0;
62.827293;0.0;
62.869232;0.0;
62.91072;0.0;
62.952559;0.0;
62.993921;1514.0;
63.035876;0.0;
63.077475;0.0;
63.120632;0.0;
63.162147;1514.0;
63.204541;0.0;
63.246772;1514.0;
63.289337;1514.0;
63.330606;6056.0;
63.373084;6056.0;
63.414924;15140.0;
63.456451;24224.0;
63.498526;33308.0;
63.540414;28766.0;
63.583391;12112.0;
63.625756;1514.0;
63.668124;1514.0;
63.709991;0.0;
63.750695;1514.0;
63.794127;1514.0;
63.835514;1514.0;
63.876455;3028.0;
63.918771;1514.0;
63.960994;0.0;
64.003594;3028.0;
64.045654;1514.0;
64.08541;1514.0;
64.126141;3028.0;
64.167649;1514.0;
64.210233;1514.0;
64.251465;0.0;
64.292608;1514.0;
64.335561;1514.0;
64.378878;9084.0;
64.421002;24224.0;
64.463435;36336.0;
64.50453;34000.0;
64.546967;21196.0;
64.588541;7570.0;
64.631348;3028.0;
64.673914;1514.0;
64.715504;0.0;
64.756404;1514.0;
64.798528;0.0;
64.839882;0.0;
64.881677;1514.0;
64.923692;1514.0;
64.966019;3028.0;
65.00643;0.0;
65.048058;0.0;
65.089;1514.0;
65.131188;0.0;
65.172659;0.0;
65.215157;3028.0;
65.256607;1514.0;
65.29856;1514.0;
65.340726;3028.0;
65.382558;13668.0;
65.425311;28766.0;
65.463971;39364.0;
65.505454;31794.0;
65.547494;13626.0;
65.590517;3028.0;
65.631978;3028.0;
65.674122;1514.0;
65.717918;1514.0;
65.759859;1514.0;
65.802538;0.0;
65.845008;3028.0;
65.888025;0.0;
65.929954;1514.0;
65.971776;3028.0;
66.014014;0.0;
66.055122;3028.0;
66.096305;3028.0;
66.138043;1514.0;
66.18102;1514.0;
66.222898;0.0;
66.264167;1514.0;
66.305322;1514.0;
66.34727;7570.0;
66.389172;19682.0;
66.430098;31794.0;
66.471646;34000.0;
66.51395;22710.0;
66.55606;7570.0;
66.597307;1514.0;
66.639208;3028.0;
66.681989;1514.0;
66.722983;0.0;
66.764782;0.0;
66.80505;0.0;
66.846096;3028.0;
66.888499;0.0;
66.930286;1514.0;
66.972485;3028.0;
67.014863;1514.0;
67.057092;1514.0;
67.097185;1514.0;
67.139623;1514.0;
67.181215;1514.0;
67.222529;1514.0;
67.26432;3028.0;
67.306022;1514.0;
67.347178;12112.0;
67.388459;25738.0;
67.429564;36336.0;
67.471399;31794.0;
67.512651;19682.0;
67.554675;4542.0;
67.596812;1514.0;
67.638999;1514.0;
67.680662;4542.0;
67.722255;6056.0;
67.764078;3028.0;
67.805671;4542.0;
67.847664;4542.0;
67.889659;1514.0;
67.930584;3028.0;
67.97243;0.0;
68.015603;1514.0;
68.058346;0.0;
68.098495;1514.0;
68.14057;1514.0;
68.182857;0.0;
68.224122;0.0;
68.266102;3028.0;
68.307303;4542.0;
68.348978;18168.0;
68.390511;28766.0;
68.430423;39364.0;
68.471418;28766.0;
68.513391;13626.0;
68.554889;1514.0;
68.596126;3028.0;
68.638153;1514.0;
68.679503;3028.0;
68.721563;3028.0;
68.762505;1514.0;
68.804173;3028.0;
68.844573;1514.0;
68.885942;0.0;
68.927184;1514.0;
68.968695;0.0;
69.010578;0.0;
69.052135;0.0;
69.091878;1514.0;
69.13288;1514.0;
69.174858;1514.0;
69.216798;1514.0;
69.258519;1514.0;
69.300371;6056.0;
69.342596;21196.0;
69.385023;30280.0;
69.428229;39364.0;
69.470098;25738.0;
69.512044;10598.0;
69.554094;0.0;
69.595595;1514.0;
69.638007;1514.0;
69.680367;3028.0;
69.723072;0.0;
69.765128;0.0;
69.809134;3028.0;
69.851829;1514.0;
69.894173;1514.0;
69.9361;0.0;
69.979155;0.0;
70.021078;1514.0;
70.062938;0.0;
70.104398;0.0;
70.146387;3028.0;
70.188455;1514.0;
70.23146;0.0;
70.273204;1514.0;
70.314547;13626.0;
70.357358;28766.0;
70.399007;37850.0;
70.441562;28766.0;
70.485634;15140.0;
70.52794;1514.0;
70.570874;3028.0;
70.61157;0.0;
70.653876;3028.0;
70.695909;3028.0;
70.737977;0.0;
70.779746;1514.0;
70.82159;0.0;
70.864006;1514.0;
70.906537;1514.0;
70.949357;0.0;
70.991508;3028.0;
71.034119;1514.0;
71.077185;0.0;
71.117411;1514.0;
71.159643;1514.0;
71.201782;1514.0;
71.243396;1514.0;
71.285819;7570.0;
71.327604;24224.0;
71.370064;33308.0;
71.41197;33308.0;
71.453377;21196.0;
71.495315;4542.0;
71.538132;3028.0;
71.580859;1514.0;
71.623363;1514.0;
71.665259;3028.0;
71.706498;1514.0;
71.748725;0.0;
71.789607;1514.0;
71.831879;0.0;
71.873651;1514.0;
71.915756;1514.0;
71.958315;0.0;
71.999792;0.0;
72.043269;0.0;
72.084689;0.0;
72.125761;0.0;
72.168436;0.0;
72.210261;0.0;
72.252116;0.0;
72.294128;3028.0;
72.335776;4542.0;
72.377421;1514.0;
72.418531;4542.0;
72.460768;16654.0;
72.502891;30280.0;
72.544713;42392.0;
72.587149;27252.0;
72.628813;12112.0;
72.670319;3028.0;
72.711554;1514.0;
72.75285;1514.0;
72.794522;3028.0;
72.836117;1514.0;
72.878483;1514.0;
72.919681;0.0;
72.96199;0.0;
73.003323;1514.0;
73.045366;0.0;
73.084547;3028.0;
73.125899;0.0;
73.166481;0.0;
73.208259;1514.0;
73.249893;0.0;
73.291742;0.0;
73.333743;3028.0;
73.375076;0.0;
73.416576;9084.0;
73.458488;19682.0;
73.500283;34000.0;
73.541585;37850.0;
73.582659;21196.0;
73.624122;9084.0;
73.666073;3028.0;
73.707771;1514.0;
73.74964;1514.0;
73.791511;1514.0;
73.833014;0.0;
73.874559;1514.0;
73.917081;1514.0;
73.958922;1514.0;
74.001074;1514.0;
74.04283;0.0;
74.084033;3028.0;
74.125418;0.0;
74.167055;1514.0;
74.209354;1514.0;
74.251464;0.0;
74.294107;3028.0;
74.333796;1514.0;
74.375057;1514.0;
74.415094;15140.0;
74.4558;24224.0;
74.49748;37850.0;
74.5395;33308.0;
74.582137;21196.0;
74.623789;9084.0;
74.666122;4542.0;
74.707653;6056.0;
74.750549;4542.0;
74.791781;3028.0;
74.8333;3028.0;
74.875292;3028.0;
74.91757;1514.0;
74.959776;3028.0;
75.001462;3028.0;
75.044255;0.0;
75.084868;0.0;
75.125907;1514.0;
75.167532;1514.0;
75.209817;1514.0;
75.251226;0.0;
75.295224;1514.0;
75.337918;1514.0;
75.37946;9084.0;
75.422424;22710.0;
75.464901;34000.0;
75.507688;34000.0;
75.55012;19682.0;
75.592545;6056.0;
75.634696;6056.0;
75.676108;1514.0;
75.718429;4542.0;
75.759889;3028.0;
75.802009;1514.0;
75.84359;1514.0;
75.885366;0.0;
75.926988;0.0;
75.968935;1514.0;
76.010118;0.0;
76.053789;1514.0;
76.092641;1514.0;
76.134392;0.0;
76.175276;1514.0;
76.217749;10598.0;
76.259128;15140.0;
76.301268;7570.0;
76.343381;6056.0;
76.384252;7570.0;
76.425815;6056.0;
76.467806;4542.0;
76.509155;9084.0;
76.550058;4542.0;
76.591686;18168.0;
76.63345;10598.0;
76.673706;7570.0;
76.715344;7570.0;
76.756572;7570.0;
76.797946;6056.0;
76.839691;7570.0;
76.881221;6056.0;
76.922694;9084.0;
76.964156;16654.0;
77.005742;10598.0;
77.047072;12112.0;
77.08631;9084.0;
77.127324;9084.0;
77.169253;10598.0;
77.210517;9084.0;
77.251778;10598.0;
77.292746;18168.0;
77.333081;9084.0;
77.37427;10598.0;
77.415489;7570.0;
77.457664;9084.0;
77.50015;9084.0;
77.542031;6056.0;
77.58356;7570.0;
77.62533;13626.0;
77.667426;15140.0;
77.709514;7570.0;
77.750488;6056.0;
77.792096;7570.0;
77.833495;6056.0;
77.874392;6056.0;
77.916774;6056.0;
77.959156;6056.0;
78.001237;18168.0;
78.041039;10598.0;
78.081693;6056.0;
78.122473;6056.0;
78.165358;7570.0;
78.206408;4542.0;
78.248897;6056.0;
78.291253;3028.0;
78.33072;7570.0;
78.371802;21196.0;
78.414653;10598.0;
78.456229;9084.0;
78.499291;9084.0;
78.5409;7570.0;
78.585273;9084.0;
78.626898;7570.0;
78.669118;7570.0;
78.710783;16654.0;
78.753459;9084.0;
78.794297;10598.0;
78.83653;7570.0;
78.877832;9084.0;
78.91955;9084.0;
78.962043;9084.0;
79.003507;10598.0;
79.046847;18168.0;
79.088208;15140.0;
79.130033;9084.0;
79.172831;9084.0;
79.213785;7570.0;
79.255754;9084.0;
79.297624;7570.0;
79.339498;7570.0;
79.382327;7570.0;
79.42368;21196.0;
79.466778;9084.0;
79.508484;7570.0;
79.550357;7570.0;
79.593055;4542.0;
79.63569;6056.0;
79.679327;4542.0;
79.721272;4542.0;
79.763668;13626.0;
79.805885;13626.0;
79.84701;7570.0;
79.889109;9084.0;
79.929709;7570.0;
79.972332;12112.0;
80.012637;10598.0;
80.05293;10598.0;
80.094653;13626.0;
80.136579;24224.0;
80.178652;10598.0;
80.221719;9084.0;
80.264537;9084.0;
80.307533;7570.0;
80.350073;9084.0;
80.393593;7570.0;
80.436445;7570.0;
80.478846;13626.0;
80.521883;15140.0;
80.562456;7570.0;
80.603611;6056.0;
80.645185;6056.0;
80.686311;6056.0;
80.728434;4542.0;
80.770617;4542.0;
80.812043;6056.0;
80.855528;19682.0;
80.897462;9084.0;
80.93992;6056.0;
80.983267;9084.0;
81.025061;6056.0;
81.067593;9084.0;
81.108406;6056.0;
81.150171;4542.0;
81.193528;12112.0;
81.235696;12112.0;
81.276616;9084.0;
81.317295;7570.0;
81.359786;7570.0;
81.400196;10598.0;
81.441117;7570.0;
81.483416;6056.0;
81.525319;12112.0;
81.56722;18168.0;
81.609425;10598.0;
81.650752;9084.0;
81.69142;9084.0;
81.733026;9084.0;
81.774975;7570.0;
81.816435;7570.0;
81.860458;7570.0;
81.901614;18168.0;
81.943868;10598.0;
81.987035;7570.0;
82.029461;4542.0;
82.07213;7570.0;
82.11199;3028.0;
82.154362;4542.0;
82.197073;4542.0;
82.240172;10598.0;
82.283045;19682.0;
82.322195;7570.0;
82.360183;4542.0;
82.401865;6056.0;
82.443447;4542.0;
82.485674;4542.0;
82.524513;7570.0;
82.56549;3028.0;
82.607477;12112.0;
82.649366;13626.0;
82.690659;10598.0;
82.731891;12112.0;
82.773424;9084.0;
82.815647;9084.0;
82.856826;10598.0;
82.898665;10598.0;
82.940723;13626.0;
82.982207;18168.0;
83.024249;12112.0;
83.069458;10598.0;
83.110405;9084.0;
83.151707;10598.0;
83.193688;7570.0;
83.235756;10598.0;
83.278475;10598.0;
83.319715;19682.0;
83.361045;12112.0;
83.402892;12112.0;
83.444513;9084.0;
83.48645;10598.0;
83.528591;7570.0;
83.570703;6056.0;
83.612724;9084.0;
83.654747;10598.0;
83.695822;18168.0;
83.737618;6056.0;
83.779245;6056.0;
83.822045;6056.0;
83.863668;7570.0;
83.906134;7570.0;
83.947652;6056.0;
83.989106;4542.0;
84.031171;16654.0;
84.073609;12112.0;
84.114707;7570.0;
84.156132;9084.0;
84.199999;7570.0;
84.242081;7570.0;
84.283727;7570.0;
84.327181;7570.0;
84.369283;18168.0;
84.41033;13626.0;
84.453078;9084.0;
84.495691;10598.0;
84.537642;9084.0;
84.580419;7570.0;
84.621675;6056.0;
84.664583;7570.0;
84.70738;12112.0;
84.749567;16654.0;
84.790289;12112.0;
84.83171;10598.0;
84.873389;9084.0;
84.915563;10598.0;
84.957172;7570.0;
84.998489;9084.0;
85.040156;12112.0;
85.080011;18168.0;
85.122027;6056.0;
85.164039;6056.0;
85.205368;6056.0;
85.247506;6056.0;
85.290287;4542.0;
85.33251;4542.0;
85.375465;4542.0;
85.416742;12112.0;
85.458685;15140.0;
85.501406;6056.0;
85.544456;7570.0;
85.587433;6056.0;
85.628757;4542.0;
85.672357;6056.0;
85.715229;4542.0;
85.757614;6056.0;
85.799161;18168.0;
85.840746;7570.0;
85.882159;9084.0;
85.924558;9084.0;
85.967407;7570.0;
86.008426;9084.0;
86.050886;6056.0;
86.09089;9084.0;
86.132702;18168.0;
86.175019;7570.0;
86.217606;10598.0;
86.25966;0.0;
86.300504;0.0;
86.342597;0.0;
86.384213;0.0;
86.426116;0.0;
86.468042;0.0;
86.510337;0.0;
86.552536;0.0;
86.593751;1514.0;
86.635527;0.0;
86.677552;0.0;
86.718661;13626.0;
86.760694;1514.0;
86.802727;4542.0;
86.845678;1514.0;
86.886146;1514.0;
86.927592;3028.0;
86.96963;1514.0;
87.011196;4542.0;
87.052415;12112.0;
87.091846;3028.0;
87.133297;4542.0;
87.173199;0.0;
87.215062;3028.0;
87.256032;1514.0;
87.298062;3028.0;
87.339824;6056.0;
87.38162;10598.0;
87.421587;3028.0;
87.462468;4542.0;
87.504578;1514.0;
87.545574;1514.0;
87.586417;3028.0;
87.627287;3028.0;
87.669797;6056.0;
87.711483;9084.0;
87.753905;1514.0;
87.794844;3028.0;
87.836589;1514.0;
87.878915;4542.0;
87.920748;3028.0;
87.962574;1514.0;
88.005778;9084.0;
88.048425;6056.0;
88.0888;4542.0;
88.127682;4542.0;
88.169897;3028.0;
88.213134;1514.0;
88.255965;3028.0;
88.29861;0.0;
88.341711;13626.0;
88.383542;1514.0;
88.425851;6056.0;
88.468196;4542.0;
88.509234;3028.0;
88.550564;4542.0;
88.592904;1514.0;
88.633848;4542.0;
88.676529;13626.0;
88.719161;3028.0;
88.760901;4542.0;
88.80264;3028.0;
88.84417;1514.0;
88.885886;3028.0;
88.927599;0.0;
88.968597;7570.0;
89.01088;10598.0;
89.052914;4542.0;
89.094753;4542.0;
89.136383;3028.0;
89.176928;3028.0;
89.218097;1514.0;
89.260415;3028.0;
89.302602;12112.0;
89.344526;4542.0;
89.386502;1514.0;
89.428035;3028.0;
89.470676;0.0;
89.51294;1514.0;
89.555172;1514.0;
89.596987;0.0;
89.639312;15140.0;
89.680476;1514.0;
89.7227;0.0;
89.763653;3028.0;
89.805011;1514.0;
89.847075;1514.0;
89.888082;1514.0;
89.930349;3028.0;
89.97183;15140.0;
90.013412;1514.0;
90.055281;1514.0;
90.097138;6056.0;
90.139213;4542.0;
90.180352;6056.0;
90.221935;4542.0;
90.264127;4542.0;
90.306542;10598.0;
90.347691;0.0;
90.390065;0.0;
90.430442;1514.0;
90.471463;1514.0;
90.513536;1514.0;
90.555359;1514.0;
90.597074;6056.0;
90.638406;10598.0;
90.67979;0.0;
90.721718;0.0;
90.763584;0.0;
90.805845;1514.0;
90.847111;3028.0;
90.888531;1514.0;
90.930424;4542.0;
90.972481;10598.0;
91.01368;0.0;
91.054899;1514.0;
91.096191;1514.0;
91.138387;0.0;
91.179799;1514.0;
91.222515;1514.0;
91.264069;7570.0;
91.307395;9084.0;
91.348818;1514.0;
91.39133;1514.0;
91.433893;0.0;
91.476106;0.0;
91.517296;1514.0;
91.559975;1514.0;
91.602188;9084.0;
91.645242;10598.0;
91.687448;4542.0;
91.729589;4542.0;
91.772245;1514.0;
91.814278;3028.0;
91.85549;4542.0;
91.898053;1514.0;
91.939721;13626.0;
91.981482;4542.0;
92.021827;6056.0;
92.063075;4542.0;
92.104531;6056.0;
92.145816;3028.0;
92.188341;6056.0;
92.230138;3028.0;
92.272659;15140.0;
92.315467;3028.0;
92.358232;1514.0;
92.39946;1514.0;
92.440905;0.0;
92.483011;1514.0;
92.525015;3028.0;
92.567136;4542.0;
92.609187;13626.0;
92.650731;0.0;
92.692495;1514.0;
92.734048;3028.0;
92.775749;1514.0;
92.817778;1514.0;
92.859245;0.0;
92.901999;6056.0;
92.944776;10598.0;
92.986457;0.0;
93.028374;3028.0;
93.070488;1514.0;
93.111606;1514.0;
93.153119;3028.0;
93.194857;1514.0;
93.236872;6056.0;
93.2781;9084.0;
93.320434;1514.0;
93.361477;1514.0;
93.402688;1514.0;
93.444333;0.0;
93.485902;1514.0;
93.527602;0.0;
93.569451;9084.0;
93.611905;7570.0;
93.65375;0.0;
93.695674;3028.0;
93.737081;1514.0;
93.778964;1514.0;
93.820894;1514.0;
93.862929;1514.0;
93.905798;12112.0;
93.944524;6056.0;
93.985422;3028.0;
94.026611;1514.0;
94.069369;1514.0;
94.111009;0.0;
94.152592;1514.0;
94.193576;1514.0;
94.234823;12112.0;
94.276273;4542.0;
94.317779;0.0;
94.360067;3028.0;
94.401737;1514.0;
94.443419;1514.0;
94.484988;3028.0;
94.526636;1514.0;
94.568173;13626.0;
94.610655;1514.0;
94.65229;1514.0;
94.694213;1514.0;
94.736311;0.0;
94.778534;3028.0;
94.820754;3028.0;
94.862781;0.0;
94.904557;13626.0;
94.946603;1514.0;
94.988729;0.0;
95.030654;1514.0;
95.072039;0.0;
95.111736;1514.0;
95.154374;1514.0;
95.196946;3028.0;
95.238859;12112.0;
95.281298;0.0;
95.323714;1514.0;
95.364836;3028.0;
95.406962;0.0;
95.448697;1514.0;
95.491079;1514.0;
95.532358;4542.0;
95.5741;9084.0;
95.614745;0.0;
95.656267;1514.0;
95.698005;1514.0;
95.739794;0.0;
95.781417;3028.0;
95.822497;0.0;
95.863917;6056.0;
95.904658;10598.0;
95.946542;1514.0;
95.987793;3028.0;
96.029024;0.0;
96.071076;0.0;
96.112139;1514.0;
96.152737;0.0;
96.195188;4542.0;
96.236619;9084.0;
96.279443;0.0;
96.321153;1514.0;
96.362126;1514.0;
96.403571;0.0;
96.445422;1514.0;
96.486631;0.0;
96.527901;0.0;
96.569607;0.0;
96.610865;0.0;
96.652465;0.0;
96.694082;0.0;
96.735741;0.0;
96.777427;3028.0;
96.818763;6056.0;
96.860381;18168.0;
96.903008;4542.0;
96.945375;1514.0;
96.988187;3028.0;
97.029582;1514.0;
97.070397;3028.0;
97.111522;1514.0;
97.152483;0.0;
97.194927;13626.0;
97.236372;10598.0;
97.276403;6056.0;
97.317203;7570.0;
97.357862;3028.0;
97.398779;4542.0;
97.44149;7570.0;
97.484335;3028.0;
97.524777;9084.0;
97.565924;13626.0;
97.608209;6056.0;
97.650096;6056.0;
97.692433;4542.0;
97.735187;6056.0;
97.777178;4542.0;
97.819161;3028.0;
97.860883;9084.0;
97.902203;13626.0;
97.944143;7570.0;
97.98624;7570.0;
98.027914;4542.0;
98.070087;6056.0;
98.110707;4542.0;
98.152105;4542.0;
98.195801;6056.0;
98.238776;13626.0;
98.281834;7570.0;
98.324231;9084.0;
98.366608;6056.0;
98.408492;6056.0;
98.451117;3028.0;
98.493102;6056.0;
98.535164;9084.0;
98.578015;13626.0;
98.619505;6056.0;
98.661176;4542.0;
98.703893;1514.0;
98.74715;4542.0;
98.789488;1514.0;
98.831491;4542.0;
98.87476;3028.0;
98.917079;12112.0;
98.959429;7570.0;
99.002076;1514.0;
99.043263;3028.0;
99.08304;4542.0;
99.12433;3028.0;
99.166429;3028.0;
99.207647;1514.0;
99.24819;6056.0;
99.289668;16654.0;
99.331981;7570.0;
99.374293;7570.0;
99.416463;6056.0;
99.457777;4542.0;
99.500821;6056.0;
99.543744;3028.0;
99.586004;6056.0;
99.628519;15140.0;
99.669947;6056.0;
99.711452;7570.0;
99.753235;4542.0;
99.795214;3028.0;
99.837076;4542.0;
99.878702;4542.0;
99.92076;6056.0;
99.962258;16654.0;
100.00353;6056.0;
100.045138;7570.0;
100.084692;4542.0;
100.125379;6056.0;
100.166233;7570.0;
100.208081;7570.0;
100.249562;9084.0;
100.291215;16654.0;
100.332836;9084.0;
100.374754;7570.0;
100.415983;6056.0;
100.458538;9084.0;
100.500785;7570.0;
100.543002;4542.0;
100.584241;6056.0;
100.626063;9084.0;
100.667464;12112.0;
100.709722;3028.0;
100.751686;1514.0;
100.792774;3028.0;
100.834579;1514.0;
100.876546;3028.0;
100.918612;3028.0;
100.960753;0.0;
101.003799;15140.0;
101.045621;7570.0;
101.08637;3028.0;
101.127151;3028.0;
101.167814;1514.0;
101.211371;1514.0;
101.253626;1514.0;
101.294228;1514.0;
101.336467;7570.0;
101.377654;12112.0;
101.419823;4542.0;
101.460747;7570.0;
101.501643;4542.0;
101.543418;6056.0;
101.584826;7570.0;
101.624817;4542.0;
101.665141;7570.0;
101.70735;16654.0;
101.74984;6056.0;
101.792226;6056.0;
101.833987;3028.0;
101.875058;3028.0;
101.916906;7570.0;
101.958442;3028.0;
101.999879;4542.0;
102.043117;15140.0;
102.084513;4542.0;
102.125233;7570.0;
102.166988;6056.0;
102.211314;6056.0;
102.25404;7570.0;
102.296195;4542.0;
102.338475;7570.0;
102.378326;16654.0;
102.419422;4542.0;
102.462239;4542.0;
102.505253;3028.0;
102.546961;4542.0;
102.58933;1514.0;
102.631093;0.0;
102.673647;1514.0;
102.714467;7570.0;
102.756651;13626.0;
102.797998;7570.0;
102.839554;6056.0;
102.881548;6056.0;
102.922354;6056.0;
102.964273;4542.0;
103.00698;4542.0;
103.047749;3028.0;
103.088771;16654.0;
103.130082;4542.0;
103.169693;1514.0;
103.210083;4542.0;
103.251833;3028.0;
103.293427;1514.0;
103.335221;3028.0;
103.376493;1514.0;
103.41882;10598.0;
103.459711;12112.0;
103.501952;7570.0;
103.543053;6056.0;
103.585257;6056.0;
103.627276;6056.0;
103.669453;6056.0;
103.712145;6056.0;
103.753882;9084.0;
103.796102;15140.0;
103.838367;4542.0;
103.881426;7570.0;
103.922614;6056.0;
103.964206;6056.0;
104.005433;4542.0;
104.046826;4542.0;
104.085909;6056.0;
104.12546;15140.0;
104.166829;7570.0;
104.208763;7570.0;
104.250483;4542.0;
104.291222;6056.0;
104.333152;4542.0;
104.374034;4542.0;
104.415712;6056.0;
104.45877;13626.0;
104.501238;7570.0;
104.544021;6056.0;
104.586418;3028.0;
104.6284;3028.0;
104.670168;1514.0;
104.71349;1514.0;
104.75647;1514.0;
104.798004;7570.0;
104.840615;13626.0;
104.883336;3028.0;
104.925035;3028.0;
104.966092;6056.0;
105.009534;1514.0;
105.05244;3028.0;
105.09332;3028.0;
105.135867;3028.0;
105.179235;16654.0;
105.222184;7570.0;
105.265077;7570.0;
105.307532;4542.0;
105.350053;4542.0;
105.393029;4542.0;
105.435168;4542.0;
105.478292;4542.0;
105.520331;16654.0;
105.563155;4542.0;
105.605618;7570.0;
105.64737;6056.0;
105.688819;6056.0;
105.731129;6056.0;
105.772185;4542.0;
105.813932;4542.0;
105.855601;15140.0;
105.897285;4542.0;
105.93998;7570.0;
105.982625;4542.0;
106.022742;6056.0;
106.063283;7570.0;
106.104028;0.0;
106.14782;0.0;
106.190694;0.0;
106.232249;0.0;
106.275602;0.0;
106.318188;0.0;
106.36118;0.0;
106.400925;0.0;
106.441485;0.0;
106.483971;0.0;
106.526971;0.0;
106.569386;0.0;
106.611682;0.0;
106.654654;0.0;
106.695176;0.0;
