0;0;1;1;2;2;3;3;4;4;
0;0;2.2;16240;4.2;7240;6.4;86880;60.2;28960;
0.2;35276;2.4;52140;4.4;12705;6.6;7240;60.4;8301;
0.4;129384;2.6;69783;4.6;42543;6.8;12597;60.6;32218;
0.6;144928;2.8;78001;4.8;97557;7.0;35366;60.8;76367;
0.8;75370;3.0;83092;5.0;167814;7.2;50731;61.0;140619;
1.0;52093;3.2;50868;5.2;225300;7.4;76571;61.2;194113;
1.2;51686;3.4;60758;5.4;344094;7.6;70494;61.4;271031;
1.4;55394;3.6;63346;5.6;366253;7.8;93550;61.6;343719;
1.6;52732;3.8;57615;5.8;312921;8.0;109187;61.8;254131;
1.8;55571;4.0;56893;6.0;470480;8.2;146752;62.0;331809;
2.0;57420;4.2;59161;6.2;517815;8.4;210368;62.2;306755;
2.2;65051;4.4;59925;6.4;306058;8.6;269024;62.4;256410;
2.4;102554;4.6;63080;6.6;196524;8.8;301184;62.6;202746;
2.6;106458;4.8;62564;6.8;183014;9.0;229824;62.8;156278;
2.8;104905;5.0;63593;7.0;220080;9.2;268203;63.0;154626;
3.0;103578;5.2;66990;7.2;311127;9.4;439196;63.2;162944;
3.2;103290;5.4;92064;7.4;328628;9.6;590432;63.4;163342;
3.4;104202;5.6;131540;7.6;306288;9.8;781018;63.6;162755;
3.6;101522;5.8;67745;7.8;382640;10.0;951494;63.8;143781;
3.8;71581;6.0;75063;8.0;455103;10.2;810601;64.0;142383;
4.0;71722;6.2;74433;8.2;434907;10.4;962920;64.2;141439;
4.2;71627;6.4;79438;8.4;492031;10.6;882476;64.4;143778;
4.4;71659;6.6;65549;8.6;438623;10.8;700070;64.6;151835;
4.6;71407;6.8;53576;8.8;428514;11.0;776913;64.8;143107;
4.8;68805;7.0;58421;9.0;406200;11.2;760418;65.0;155910;
5.0;65816;7.2;83109;9.2;409801;11.4;697090;65.2;157112;
5.2;64380;7.4;70662;9.4;385065;11.6;532057;65.4;165828;
5.4;77655;7.6;40664;9.6;429729;11.8;649805;65.6;147959;
5.6;79538;7.8;56616;9.8;487747;12.0;802723;65.8;152137;
5.8;60789;8.0;52204;10.0;461473;12.2;914007;66.0;156840;
6.0;68937;8.2;54981;10.2;388237;12.4;604720;66.2;161810;
6.2;63795;8.4;56069;10.4;361477;12.6;553930;66.4;170569;
6.4;71296;8.6;72329;10.6;366814;12.8;519369;66.6;155884;
6.6;56006;8.8;74523;10.8;309339;13.0;565695;66.8;133057;
6.8;46336;9.0;54990;11.0;347672;13.2;606477;67.0;135294;
7.0;47716;9.2;46887;11.2;400122;13.4;575821;67.2;175888;
7.2;68392;9.4;43064;11.4;488009;13.6;634032;67.4;182984;
7.4;68780;9.6;60772;11.6;460823;13.8;464182;67.6;209863;
7.6;57276;9.8;78192;11.8;389522;14.0;356624;67.8;308668;
7.8;49994;10.0;60333;12.0;304283;14.2;393741;68.0;383180;
8.0;33361;10.2;29804;12.2;330868;14.4;363720;68.2;352346;
8.2;42695;10.4;30046;12.4;369948;14.6;311773;68.4;364016;
8.4;37258;10.6;28779;12.6;289488;14.8;245313;68.6;408373;
8.6;44077;10.8;23995;12.8;233326;15.0;96127;68.8;487675;
8.8;43874;11.0;18290;13.0;262840;15.2;91611;69.0;533255;
9.0;46553;11.2;32580;13.2;328075;15.4;108480;69.2;465956;
9.2;31097;11.4;44132;13.4;238168;15.6;128861;69.4;388876;
9.4;37091;11.6;41839;13.6;276202;15.8;144739;69.6;330398;
9.6;46879;11.8;46761;13.8;274126;16.0;160850;69.8;347771;
9.8;49392;12.0;55620;14.0;291653;16.2;221357;70.0;335119;
10.0;56230;12.2;43440;14.2;340762;16.4;313640;70.2;452898;
10.2;44888;12.4;17014;14.4;387181;16.6;419813;70.4;249019;
10.4;44888;12.6;10756;14.6;211408;16.8;405203;70.6;222476;
10.6;44888;12.8;23892;14.8;116926;17.0;379462;70.8;9412;
10.8;56678;13.0;32367;15.0;55445;17.2;372785;71.0;39911;
11.0;81756;13.2;43184;15.2;55123;17.4;300550;71.2;66671;
11.2;82641;13.4;51066;15.4;66199;17.6;305683;71.4;68204;
11.4;73973;13.6;59282;15.6;78142;17.8;308056;71.6;60407;
11.6;79640;13.8;67459;15.8;87379;18.0;310474;71.8;60304;
11.8;91948;14.0;75658;16.0;97952;18.2;308077;72.0;60830;
12.0;91174;14.2;46698;16.2;124238;18.4;314041;72.2;59931;
12.2;106645;14.4;16796;16.4;167689;18.6;332984;72.4;60478;
12.4;111438;14.6;22781;16.6;170796;18.8;417630;72.6;59368;
12.6;123024;14.8;28960;16.8;172861;19.0;296416;72.8;54354;
12.8;133042;15.0;8622;17.0;180662;19.2;305928;73.0;48232;
13.0;144452;15.2;9795;17.2;168468;19.4;305566;73.2;42682;
13.2;123358;15.4;12435;17.4;177091;19.6;394006;73.4;42778;
13.4;115390;15.6;13321;17.6;230403;19.8;331965;73.6;42652;
13.6;62824;15.8;15076;17.8;246812;20.0;300402;73.8;42751;
13.8;84165;16.0;17461;18.0;234420;20.2;308485;74.0;42816;
14.0;94712;16.2;25581;18.2;201258;20.4;302290;74.2;40848;
14.2;74054;16.4;34131;18.4;220302;20.6;307688;74.4;37648;
14.4;80318;16.6;35344;18.6;181457;20.8;302834;74.6;34936;
14.6;61002;16.8;29223;18.8;241460;21.0;301207;74.8;31856;
14.8;35677;17.0;35258;19.0;251402;21.2;300703;75.0;31820;
15.0;14348;17.2;25098;19.2;213351;21.4;302957;75.2;30408;
15.2;14542;17.4;32382;19.4;179904;21.6;306204;75.4;31182;
15.4;20634;17.6;29985;19.6;175270;21.8;306953;75.6;31856;
15.6;19416;17.8;18231;19.8;208994;22.0;295500;75.8;30446;
15.8;23349;18.0;24768;20.0;241165;22.2;308542;76.0;28995;
16.0;26788;18.2;30488;20.2;259636;22.4;298911;76.2;28960;
16.2;34951;18.4;38613;20.4;172553;22.6;309438;76.4;25851;
16.4;52383;18.6;43440;20.6;179108;22.8;309795;76.6;21720;
16.6;51659;18.8;23338;20.8;197234;23.0;304708;76.8;22768;
16.8;51147;19.0;30317;21.0;230057;23.2;311777;77.0;21720;
17.0;51628;19.2;37708;21.2;177965;23.4;307723;77.2;21819;
17.2;48280;19.4;40978;21.4;182577;23.6;308167;77.4;23213;
17.4;50130;19.6;46396;21.6;179614;23.8;305395;77.6;23168;
17.6;49811;19.8;34430;21.8;177501;24.0;374789;77.8;21919;
17.8;49802;20.0;32233;22.0;185822;24.2;348968;78.0;21720;
18.0;63377;20.2;30067;22.2;170472;24.4;322584;78.2;21831;
18.2;68845;20.4;32724;22.4;226631;24.6;409738;78.4;20272;
18.4;64810;20.6;43176;22.6;262026;24.8;304702;78.6;19599;
18.6;83283;20.8;32053;22.8;222300;25.0;310792;78.8;19659;
18.8;103361;21.0;29025;23.0;180243;25.2;340280;79.0;20220;
19.0;43681;21.2;30322;23.2;182649;25.4;89083;79.2;18322;
19.2;52218;21.4;41136;23.4;239612;25.6;45504;79.4;20272;
19.4;60997;21.6;42957;23.6;177448;25.8;62922;79.6;18424;
19.6;66711;21.8;20775;23.8;184651;26.0;62915;79.8;18824;
19.8;64177;22.0;35344;24.0;174369;26.2;62884;80.0;17955;
20.0;58010;22.2;35355;24.2;170398;26.4;62969;80.2;15138;
20.2;34503;22.4;23419;24.4;212381;26.6;63141;80.4;15172;
20.4;41665;22.6;34814;24.6;217441;26.8;63261;80.6;13756;
20.6;51352;22.8;29354;24.8;199341;27.0;58445;80.8;14556;
20.8;43845;23.0;35476;25.0;221780;27.2;57711;81.0;8688;
21.0;54868;23.2;25311;25.2;140592;27.4;57642;81.2;3359;
21.2;42270;23.4;24993;25.4;36235;27.6;57920;81.4;9866;
21.4;37759;23.6;37018;25.6;18844;27.8;56393;81.6;14769;
21.6;44275;23.8;48829;25.8;38291;28.0;54645;81.8;20919;
21.8;54722;24.0;49294;26.0;38467;28.2;52434;82.0;24548;
22.0;59702;24.2;33545;26.2;37416;28.4;50819;82.2;23168;
22.2;41302;24.4;35948;26.4;37184;28.6;49402;82.4;27512;
22.4;51515;24.6;37648;26.6;37015;28.8;51087;82.6;25471;
22.6;52983;24.8;39284;26.8;36477;29.0;50168;82.8;26257;
22.8;57630;25.0;36406;27.0;37234;29.2;48180;83.0;27943;
23.0;37536;25.2;31276;27.2;36775;29.4;48381;83.2;27693;
23.2;35698;25.4;10136;27.4;36982;29.6;48098;83.4;29580;
23.4;39875;25.6;5490;27.6;37013;29.8;45487;83.6;30578;
23.6;37995;25.8;10596;27.8;36771;30.0;46245;83.8;31695;
23.8;43589;26.0;11222;28.0;37002;30.2;45537;84.0;31500;
24.0;30156;26.2;11584;28.2;36576;30.4;46287;84.2;34752;
24.2;40544;26.4;10963;28.4;36767;30.6;45294;84.4;32019;
24.4;33304;26.6;11905;28.6;36200;30.8;46036;84.6;34225;
24.6;38992;26.8;12150;28.8;37459;31.0;42749;84.8;33532;
24.8;31204;27.0;14376;29.0;36120;31.2;42664;85.0;33227;
25.0;41065;27.2;15269;29.2;37184;31.4;43090;85.2;35133;
25.2;47887;27.4;16737;29.4;35838;31.6;42206;85.4;33873;
25.4;3909;27.6;17617;29.6;36865;31.8;42899;85.6;37600;
25.6;5007;27.8;18119;29.8;36178;32.0;42633;85.8;35267;
25.8;10773;28.0;18709;30.0;36865;32.2;40617;86.0;37263;
26.0;11584;28.2;19918;30.2;36953;32.4;39578;86.2;35041;
26.2;11526;28.4;20996;30.4;36648;32.6;39318;86.4;36996;
26.4;11639;28.6;21814;30.6;37310;32.8;39961;86.6;35924;
26.6;11584;28.8;21046;30.8;36465;33.0;39020;86.8;38628;
26.8;11584;29.0;24871;31.0;37370;33.2;39378;87.0;39227;
27.0;11526;29.2;23954;31.2;36159;33.4;39641;87.2;39096;
27.2;11584;29.4;25646;31.4;37532;33.6;39286;87.4;40083;
27.4;11639;29.6;27010;31.6;36427;33.8;39762;87.6;38635;
27.6;11584;29.8;28331;31.8;37334;34.0;39263;87.8;40139;
27.8;11526;30.0;26555;32.0;37072;34.2;39566;88.0;38937;
28.0;11584;30.2;28106;32.2;37144;34.4;39591;88.2;40203;
28.2;11639;30.4;27933;32.4;36779;34.6;39657;88.4;39139;
28.4;11584;30.6;28196;32.6;37474;34.8;37705;88.6;40214;
28.6;11526;30.8;28546;32.8;37527;35.0;36676;88.8;38901;
28.8;11639;31.0;27711;33.0;35730;35.2;37266;89.0;40284;
29.0;11584;31.2;28960;33.2;37266;35.4;36342;89.2;38806;
29.2;11584;31.4;28158;33.4;36501;35.6;20663;89.4;40182;
29.4;12871;31.6;31832;33.6;37648;35.8;8216;89.6;39160;
29.6;12871;31.8;29671;33.8;36260;36.0;20876;89.8;40001;
29.8;14324;32.0;31689;34.0;37562;36.2;25756;90.0;39323;
30.0;13431;32.2;30574;34.2;36066;36.4;36775;90.2;39318;
30.2;15611;32.4;30162;34.4;37165;36.6;38714;90.4;41425;
30.4;15533;32.6;31357;34.6;36803;36.8;40028;90.6;41408;
30.6;16507;32.8;30882;34.8;36342;37.0;40302;90.8;41380;
30.8;15006;33.0;31856;35.0;36866;37.2;40217;91.0;41652;
31.0;15533;33.2;30431;35.2;36160;37.4;39362;91.2;40805;
31.2;14769;33.4;31675;35.4;36924;37.6;40011;91.4;7240;
31.4;16201;33.6;31059;35.6;18909;37.8;39780;91.6;8872;
31.6;17002;33.8;31856;35.8;9612;38.0;36465;91.8;17189;
31.8;17582;34.0;30921;36.0;19685;38.2;36775;92.0;21306;
32.0;17163;34.2;31225;36.2;27404;38.4;36285;92.2;27627;
32.2;17588;34.4;31072;36.4;34863;38.6;36861;92.4;31973;
32.4;15928;34.6;30597;36.6;39998;38.8;36954;92.6;38685;
32.6;17169;34.8;31482;36.8;39702;39.0;36986;92.8;39789;
32.8;16055;35.0;30455;37.0;39982;39.2;36924;93.0;39917;
33.0;17631;35.2;31700;37.2;39585;39.4;36510;93.2;39728;
33.2;16018;35.4;30170;37.4;39730;39.6;36593;93.4;39982;
33.4;17169;35.6;13172;37.6;38797;39.8;37234;93.6;39592;
33.6;17588;35.8;7757;37.8;37668;40.0;36587;93.8;37648;
33.8;17728;36.0;16893;38.0;36412;40.2;37296;94.0;36823;
34.0;17376;36.2;21319;38.2;37429;40.4;36489;94.2;37021;
34.2;17003;36.4;28711;38.4;36281;40.6;37172;94.4;36860;
34.4;17617;36.6;34254;38.6;37527;40.8;36476;94.6;35071;
34.6;17979;36.8;34172;38.8;37158;41.0;37234;94.8;34285;
34.8;17617;37.0;34752;39.0;37461;41.2;36388;95.0;33688;
35.0;16849;37.2;33607;39.2;36427;41.4;37450;95.2;34518;
35.2;17617;37.4;34367;39.4;37276;41.6;36137;95.4;33422;
35.4;17963;37.6;33549;39.6;36613;41.8;37441;95.6;34728;
35.6;4344;37.8;34551;39.8;37138;42.0;36841;95.8;31675;
35.8;4208;38.0;32182;40.0;36632;42.2;34774;96.0;31506;
36.0;8353;38.2;34374;40.2;37044;42.4;33459;96.2;31054;
36.2;13683;38.4;34168;40.4;37450;42.6;34586;96.4;30982;
36.4;17147;38.6;33865;40.6;36984;42.8;32486;96.6;31597;
36.6;19765;38.8;34168;40.8;36792;43.0;34449;96.8;30457;
36.8;21647;39.0;33620;41.0;36829;43.2;33058;97.0;31856;
37.0;21720;39.2;34422;41.2;36703;43.4;34435;97.2;30488;
37.2;21338;39.4;33028;41.4;36718;43.6;33708;97.4;31856;
37.4;20494;39.6;34596;41.6;34752;43.8;34191;97.6;31209;
37.6;21614;39.8;33412;41.8;34128;44.0;33869;97.8;30776;
37.8;21300;40.0;34662;42.0;33849;44.2;34016;98.0;30589;
38.0;21099;40.2;33992;42.2;34283;44.4;33714;98.2;30408;
38.2;20789;40.4;34752;42.4;33756;44.6;34095;98.4;31581;
38.4;21720;40.6;33034;42.6;33467;44.8;34061;98.6;30976;
38.6;21888;40.8;34579;42.8;33655;45.0;33892;98.8;30964;
38.8;21967;41.0;33537;43.0;33677;45.2;34195;99.0;31610;
39.0;21720;41.2;34435;43.2;33541;45.4;33824;99.2;31299;
39.2;20996;41.4;33467;43.4;33794;45.6;34328;99.4;31856;
39.4;22411;41.6;33630;43.6;33417;45.8;31678;99.6;30821;
39.6;21861;41.8;33326;43.8;34729;46.0;3545;99.8;31118;
39.8;22090;42.0;33841;44.0;33281;46.2;12008;100.0;30432;
40.0;21513;42.2;33801;44.2;34689;46.4;18910;100.2;30539;
40.2;24175;42.4;32790;44.4;34098;46.6;24822;100.4;31856;
40.4;24583;42.6;34239;44.6;34190;46.8;34122;100.6;30610;
40.6;25355;42.8;32421;44.8;33467;47.0;37115;100.8;31250;
40.8;24369;43.0;34506;45.0;34514;47.2;36720;101.0;31316;
41.0;25056;43.2;33501;45.2;33593;47.4;37187;101.2;30630;
41.2;24143;43.4;34596;45.4;34449;47.6;35928;101.4;30932;
41.4;27256;43.6;33417;45.6;32518;47.8;34534;101.6;27128;
41.6;26002;43.8;34729;45.8;32281;48.0;33501;101.8;2945;
41.8;26955;44.0;32476;46.0;3290;48.2;34585;102.0;11480;
42.0;26614;44.2;34706;46.2;13113;48.4;32851;102.2;14368;
42.2;27426;44.4;32791;46.4;20027;48.6;34541;102.4;20541;
42.4;26871;44.6;34541;46.6;24736;48.8;33258;102.6;22366;
42.6;27256;44.8;33462;46.8;35777;49.0;33549;102.8;29102;
42.8;25041;45.0;33771;47.0;37349;49.2;33256;103.0;31551;
43.0;27066;45.2;33190;47.2;37648;49.4;34319;103.2;30488;
43.2;27512;45.4;34190;47.4;36433;49.6;33794;103.4;31453;
43.4;27512;45.6;34554;47.6;37358;49.8;34163;103.6;31212;
43.6;27540;45.8;32127;47.8;37333;50.0;33927;103.8;30729;
43.8;28140;46.0;3077;48.0;37516;50.2;33849;104.0;31856;
44.0;27921;46.2;13611;48.2;36324;50.4;34091;104.2;30240;
44.2;28031;46.4;18363;48.4;34752;50.6;33960;104.4;28598;
44.4;28316;46.6;23769;48.6;33579;50.8;34118;104.6;28542;
44.6;27351;46.8;31013;48.8;34357;51.0;33370;104.8;27512;
44.8;28907;47.0;34098;49.0;33727;51.2;34118;105.0;28907;
45.0;27949;47.2;34051;49.2;34276;51.4;33103;105.2;27888;
45.2;28152;47.4;34395;49.4;33467;51.6;34291;105.4;28103;
45.4;28546;47.6;33503;49.6;34254;51.8;33231;105.6;28850;
45.6;27512;47.8;33588;49.8;33510;52.0;34662;105.8;28152;
45.8;23598;48.0;30433;50.0;34752;52.2;33023;106.0;28448;
46.0;2896;48.2;31119;50.2;34028;52.4;34158;106.2;28322;
46.2;11858;48.4;31586;50.4;34384;52.6;33394;106.4;28591;
46.4;15775;48.6;31856;50.6;34098;52.8;33682;106.6;28960;
46.6;21106;48.8;31202;50.8;33892;53.0;33256;106.8;27714;
46.8;27435;49.0;30832;51.0;33860;53.2;34190;107.0;28280;
47.0;31461;49.2;31552;51.2;33756;53.4;33660;107.2;28583;
47.2;30539;49.4;30532;51.4;34395;53.6;34299;107.4;27222;
47.4;31856;49.6;31856;51.6;33552;53.8;33794;107.6;28577;
47.6;30744;49.8;30865;51.8;34488;54.0;34134;107.8;28236;
47.8;31250;50.0;31856;52.0;33575;54.2;33962;108.0;28103;
48.0;30874;50.2;31474;52.2;34622;54.4;34062;108.2;28522;
48.2;30462;50.4;31856;52.4;33417;54.6;34093;108.4;27659;
48.4;29684;50.6;31021;52.6;34666;54.8;33924;108.6;28096;
48.6;30408;50.8;30907;52.8;33304;55.0;34261;108.8;28605;
48.8;29958;51.0;30579;53.0;34691;55.2;33756;109.0;27512;
49.0;30640;51.2;30408;53.2;33280;55.4;34261;109.2;28714;
49.2;29958;51.4;31785;53.4;34752;55.6;33620;109.4;27164;
49.4;30882;51.6;30563;53.6;33117;55.8;33393;109.6;27783;
49.6;30308;51.8;31097;53.8;34579;56.0;33485;109.8;28263;
49.8;31231;52.0;30976;54.0;33526;56.2;17330;110.0;27826;
50.0;30283;52.2;31096;54.2;34706;56.4;6516;110.2;28196;
50.2;30103;52.4;30914;54.4;34028;56.6;16950;110.4;28757;
50.4;30789;52.6;30712;54.6;34752;56.8;22202;110.6;27925;
50.6;30457;52.8;31762;54.8;34525;57.0;31074;110.8;28960;
50.8;31463;53.0;30408;55.0;34488;57.2;36200;111.0;28236;
51.0;30604;53.2;30898;55.2;33733;57.4;36761;111.2;28512;
51.2;31856;53.4;30732;55.4;34095;57.6;37015;111.4;28598;
51.4;29798;53.6;31381;55.6;33964;57.8;36697;111.6;27714;
51.6;31666;53.8;31061;55.8;33849;58.0;36987;111.8;28904;
51.8;31381;54.0;31013;56.0;34091;58.2;36891;112.0;13032;
52.0;31856;54.2;31482;56.2;17376;58.4;36324;112.2;5088;
52.2;29684;54.4;30607;56.4;6794;58.6;34752;112.4;13675;
52.4;30825;54.6;31856;56.6;16036;58.8;34128;112.6;17403;
52.6;30787;54.8;30123;56.8;20611;59.0;33892;112.8;20835;
52.8;30381;55.0;31561;57.0;26327;59.2;33628;113.0;26978;
53.0;30770;55.2;30360;57.2;31499;59.4;33504;113.2;28375;
53.2;30636;55.4;31157;57.4;34269;59.6;33501;113.4;27659;
53.4;31276;55.6;30187;57.6;34476;59.8;33717;113.6;28960;
53.6;30408;55.8;30697;57.8;34476;60.0;33325;113.8;27820;
53.8;31291;56.0;31830;58.0;33510;60.2;33620;114.0;28103;
54.0;31168;56.2;17330;58.2;34131;60.4;33187;114.2;28931;
54.2;30459;56.4;6126;58.4;33328;60.6;34102;114.4;27512;
54.4;30582;56.6;15571;58.6;34618;60.8;34571;114.6;28468;
54.6;31132;56.8;19208;58.8;30914;61.0;34142;114.8;28380;
54.8;30977;57.0;25233;59.0;31856;61.2;34552;115.0;27602;
55.0;31438;57.2;29600;59.2;30947;61.4;51548;115.2;28960;
55.2;30932;57.4;31566;59.4;31167;61.6;34969;115.4;27912;
55.4;31428;57.6;30976;59.6;31235;61.8;41292;115.6;28068;
55.6;30304;57.8;31057;59.8;30914;62.0;52325;115.8;28850;
55.8;31784;58.0;31412;60.0;31304;62.2;39220;116.0;27482;
56.0;30408;58.2;31731;60.2;30255;62.4;50765;116.2;28598;
56.2;7964;58.4;31831;60.4;31566;62.6;41638;116.4;28033;
56.4;7529;58.6;30408;60.6;30578;62.8;28960;116.6;27602;
56.6;15110;58.8;31340;60.8;31856;63.0;28960;116.8;28221;
56.8;18679;59.0;30859;61.0;31856;63.2;28960;117.0;28380;
57.0;23821;59.2;31013;61.2;30757;63.4;23957;117.2;28960;
57.2;29756;59.4;31235;61.4;30951;63.6;21061;117.4;28931;
57.4;31242;59.6;31783;61.6;31633;63.8;23168;117.6;27512;
57.6;30770;59.8;31566;61.8;46302;64.0;21880;117.8;28900;
57.8;31713;60.0;30408;62.0;50821;64.2;23168;118.0;28278;
58.0;30408;60.2;31580;62.2;47060;64.4;19145;118.2;27542;
58.2;31594;60.4;30278;62.4;46521;64.6;21782;118.4;28878;
58.4;30744;60.6;31633;62.6;36234;64.8;22538;118.6;28073;
58.6;31281;60.8;31230;62.8;31856;65.0;18671;118.8;27482;
58.8;31202;61.0;30408;63.0;26882;65.2;13997;119.0;28960;
59.0;31708;61.2;31132;63.2;24688;65.4;15276;119.2;27542;
59.2;31571;61.4;41143;63.4;24978;65.6;14238;119.4;28386;
59.4;30597;61.6;49079;63.6;25742;65.8;15307;119.6;28605;
59.6;31421;61.8;36360;63.8;20334;66.0;14327;119.8;28403;
59.8;30408;62.0;49014;64.0;20146;66.2;14480;;;
60.0;30987;62.2;32311;64.2;20008;66.4;15475;;;
60.2;30800;62.4;39768;64.4;20272;66.6;4344;;;
60.4;31281;62.6;41871;64.6;19005;66.8;2896;;;
60.6;31287;62.8;27901;64.8;20272;67.0;17208;;;
60.8;30408;63.0;27656;65.0;19306;67.2;21720;;;
61.0;31770;63.2;27574;65.2;19982;67.4;25948;;;
61.2;32445;63.4;18824;65.4;15445;67.6;31688;;;
61.4;48465;63.6;17014;65.6;14238;67.8;44273;;;
61.6;36571;63.8;19745;65.8;14480;68.0;57035;;;
61.8;35234;64.0;19284;66.0;13997;68.2;52813;;;
62.0;46046;64.2;18027;66.2;11004;68.4;54185;;;
62.2;38981;64.4;20272;66.4;11222;68.6;57174;;;
62.4;49531;64.6;17738;66.6;3102;68.8;53277;;;
62.6;29999;64.8;20272;66.8;7964;69.0;47017;;;
62.8;23223;65.0;18626;67.0;16746;69.2;57477;;;
63.0;23168;65.2;16652;67.2;21193;69.4;56395;;;
63.2;22987;65.4;14552;67.4;25056;69.6;49521;;;
63.4;23168;65.6;13628;67.6;28236;69.8;55165;;;
63.6;22444;65.8;11669;67.8;33419;70.0;58246;;;
63.8;14962;66.0;11584;68.0;45351;70.2;52309;;;
64.0;14480;66.2;11997;68.2;62843;70.4;74146;;;
64.2;14893;66.4;10136;68.4;53382;70.6;95568;;;
64.4;14480;66.6;2896;68.6;45198;70.8;20892;;;
64.6;14480;66.8;10425;68.8;47738;71.0;11970;;;
64.8;14861;67.0;20122;69.0;50090;71.2;16945;;;
65.0;11584;67.2;18203;69.2;44629;71.4;21792;;;
65.2;11765;67.4;24435;69.4;43547;71.6;24750;;;
65.4;12928;67.6;26064;69.6;41723;71.8;24156;;;
65.6;11765;67.8;34855;69.8;54271;72.0;25029;;;
65.8;12066;68.0;49802;70.0;68336;72.2;29514;;;
66.0;11584;68.2;72400;70.2;65884;72.4;29270;;;
66.2;11584;68.4;42716;70.4;37845;72.6;30572;;;
66.4;11057;68.6;66897;70.6;36200;72.8;33575;;;
66.6;3102;68.8;87055;70.8;18276;73.0;30925;;;
66.8;8535;69.0;57547;71.0;7550;73.2;28928;;;
67.0;13828;69.2;46818;71.2;12411;73.4;31160;;;
67.2;15851;69.4;58780;71.4;15445;73.6;29373;;;
67.4;19789;69.6;45028;71.6;16796;73.8;31675;;;
67.6;17858;69.8;52449;71.8;16652;74.0;36142;;;
67.8;28078;70.0;32494;72.0;20313;74.2;33205;;;
68.0;42976;70.2;47944;72.2;22748;74.4;36060;;;
68.2;58540;70.4;42109;72.4;23394;74.6;38755;;;
68.4;35253;70.6;49079;72.6;23911;74.8;33488;;;
68.6;37705;70.8;25297;72.8;25711;75.0;36796;;;
68.8;29778;71.0;8108;73.0;25633;75.2;38159;;;
69.0;30078;71.2;15040;73.2;23510;75.4;35939;;;
69.2;36645;71.4;16311;73.4;26699;75.6;39207;;;
69.4;29013;71.6;20272;73.6;26946;75.8;39607;;;
69.6;27243;71.8;21237;73.8;27898;76.0;37818;;;
69.8;36924;72.0;24393;74.0;29525;76.2;39096;;;
70.0;29851;72.2;23244;74.2;31856;76.4;39848;;;
70.2;23168;72.4;26679;74.4;31000;76.6;39015;;;
70.4;29020;72.6;29373;74.6;30511;76.8;41718;;;
70.6;42571;72.8;30144;74.8;33786;77.0;42018;;;
70.8;22853;73.0;29869;75.0;32242;77.2;41509;;;
71.0;8613;73.2;31117;75.2;32194;77.4;43052;;;
71.2;13900;73.4;32995;75.4;34720;77.6;41670;;;
71.4;19610;73.6;30230;75.6;33501;77.8;41906;;;
71.6;21961;73.8;35177;75.8;33407;78.0;43361;;;
71.8;21015;74.0;36617;76.0;34752;78.2;40794;;;
72.0;22499;74.2;37590;76.2;33534;78.4;41908;;;
72.2;29063;74.4;38935;76.4;33371;78.6;42729;;;
72.4;28132;74.6;37866;76.6;34752;78.8;40987;;;
72.6;28132;74.8;41836;76.8;32645;79.0;40333;;;
72.8;29666;75.0;39400;77.0;33461;79.2;42097;;;
73.0;30003;75.2;43367;77.2;34112;79.4;41789;;;
73.2;28187;75.4;49376;77.4;33034;79.6;41465;;;
73.4;29945;75.6;43874;77.6;33366;79.8;42214;;;
73.6;30993;75.8;51370;77.8;34112;80.0;43279;;;
73.8;30813;76.0;51459;78.0;34090;80.2;41940;;;
74.0;32967;76.2;51093;78.2;33304;80.4;42992;;;
74.2;34752;76.4;49677;78.4;34689;80.6;42233;;;
74.4;34983;76.6;53224;78.6;34186;80.8;41834;;;
74.6;35579;76.8;50811;78.8;33304;81.0;34462;;;
74.8;36285;77.0;53679;79.0;33674;81.2;2942;;;
75.0;35331;77.2;55024;79.2;34351;81.4;13851;;;
75.2;36625;77.4;57982;79.4;33304;81.6;21478;;;
75.4;37184;77.6;53135;79.6;34311;81.8;27718;;;
75.6;37213;77.8;60236;79.8;34422;82.0;29162;;;
75.8;37676;78.0;60571;80.0;34594;82.2;28932;;;
76.0;36381;78.2;58583;80.2;34752;82.4;27732;;;
76.2;36019;78.4;60092;80.4;34422;82.6;28178;;;
76.4;37648;78.6;61139;80.6;32765;82.8;28871;;;
76.6;35204;78.8;59428;80.8;34752;83.0;27481;;;
76.8;36833;79.0;58408;81.0;29580;83.2;28641;;;
77.0;37538;79.2;62612;81.2;2947;83.4;28496;;;
77.2;35427;79.4;62361;81.4;9942;83.6;27512;;;
77.4;37145;79.6;61428;81.6;16500;83.8;28438;;;
77.6;37339;79.8;61248;81.8;22066;84.0;27718;;;
77.8;36200;80.0;63751;82.0;24144;84.2;27577;;;
78.0;37396;80.2;60101;82.2;25866;84.4;28988;;;
78.2;37155;80.4;61718;82.4;25998;84.6;28004;;;
78.4;36525;80.6;65178;82.6;25020;84.8;27850;;;
78.6;37648;80.8;57377;82.8;26094;85.0;28236;;;
78.8;36393;81.0;55917;83.0;25236;85.2;27419;;;
79.0;37307;81.2;3577;83.2;24648;85.4;27689;;;
79.2;37648;81.4;19602;83.4;25669;85.6;28805;;;
79.4;36508;81.6;32065;83.6;25780;85.8;27540;;;
79.6;36570;81.8;39213;83.8;24616;86.0;27781;;;
79.8;37648;82.0;39848;84.0;25623;86.2;28757;;;
80.0;36331;82.2;40406;84.2;25833;86.4;27512;;;
80.2;36791;82.4;39728;84.4;25866;86.6;26195;;;
80.4;37557;82.6;39955;84.6;26096;86.8;25663;;;
80.6;35676;82.8;38025;84.8;25932;87.0;24616;;;
80.8;37174;83.0;37373;85.0;24616;87.2;25693;;;
81.0;20272;83.2;36524;85.2;25491;87.4;25833;;;
81.2;2838;83.4;34752;85.4;25833;87.6;24616;;;
81.4;11333;83.6;34518;85.6;24616;87.8;25557;;;
81.6;18617;83.8;33830;85.8;25289;88.0;25940;;;
81.8;23530;84.0;34752;86.0;26064;88.2;24978;;;
82.0;26198;84.2;33485;86.2;24651;88.4;26096;;;
82.2;26064;84.4;34286;86.4;25188;88.6;25636;;;
82.4;25241;84.6;34077;86.6;25702;88.8;24885;;;
82.6;24616;84.8;32047;86.8;24757;89.0;25843;;;
82.8;26097;85.0;31830;87.0;25623;89.2;26096;;;
83.0;25340;85.2;30408;87.2;26064;89.4;24648;;;
83.2;25340;85.4;31549;87.4;25029;89.6;25289;;;
83.4;26064;85.6;31132;87.6;26064;89.8;26064;;;
83.6;25340;85.8;30654;87.8;26064;90.0;24651;;;
83.8;24616;86.0;28960;88.0;24863;90.2;25175;;;
84.0;26001;86.2;27727;88.2;24986;90.4;26096;;;
84.2;25287;86.4;28178;88.4;26064;90.6;24846;;;
84.4;24616;86.6;28871;88.6;24545;90.8;25491;;;
84.6;25717;86.8;27512;88.8;24780;91.0;26064;;;
84.8;25710;87.0;28634;89.0;26094;91.2;24945;;;
85.0;24616;87.2;28467;89.2;25133;91.4;11765;;;
85.2;25623;87.4;28103;89.4;24719;91.6;4840;;;
85.4;25833;87.6;28960;89.6;26064;91.8;10010;;;
85.6;24616;87.8;27975;89.8;25293;92.0;12502;;;
85.8;25592;88.0;28424;90.0;24616;92.2;15928;;;
86.0;25932;88.2;28960;90.2;25916;92.4;16619;;;
86.2;24616;88.4;27727;90.4;25392;92.6;21306;;;
86.4;25289;88.6;28191;90.6;24616;92.8;22118;;;
86.6;25663;88.8;28507;90.8;25906;93.0;23168;;;
86.8;24616;89.0;27542;91.0;25537;93.2;22345;;;
87.0;25289;89.2;28457;91.2;24688;93.4;21720;;;
87.2;26064;89.4;28583;91.4;13281;93.6;22987;;;
87.4;24439;89.6;27512;91.6;5025;93.8;22814;;;
87.6;25188;89.8;28812;91.8;11403;94.0;21720;;;
87.8;26064;90.0;28236;92.0;14039;94.2;21567;;;
88.0;24846;90.2;27748;92.2;16833;94.4;22567;;;
88.2;25087;90.4;28960;92.4;19210;94.6;21986;;;
88.4;26064;90.6;28573;92.6;24523;94.8;21896;;;
88.6;24969;90.8;28799;92.8;26064;95.0;22340;;;
88.8;25767;91.0;28960;93.0;24747;95.2;24305;;;
89.0;24985;91.2;26988;93.2;25188;95.4;24409;;;
89.2;25075;91.4;13032;93.4;25843;95.6;24017;;;
89.4;24867;91.6;5792;93.6;25909;95.8;24945;;;
89.6;26064;91.8;11493;93.8;25340;96.0;24616;;;
89.8;25142;92.0;15204;94.0;26001;96.2;24188;;;
90.0;24683;92.2;18743;94.2;25386;96.4;25497;;;
90.2;26064;92.4;19403;94.4;25434;96.6;24616;;;
90.4;25195;92.6;26319;94.6;25848;96.8;26001;;;
90.6;24651;92.8;28458;94.8;24616;97.0;24739;;;
90.8;26064;93.0;27480;95.0;25434;97.2;25879;;;
91.0;25457;93.2;28789;95.2;25755;97.4;25909;;;
91.2;24616;93.4;28583;95.4;24616;97.6;25201;;;
91.4;9050;93.6;27512;95.6;25528;97.8;24484;;;
91.6;5557;93.8;28612;95.8;25340;98.0;25540;;;
91.8;10922;94.0;28073;96.0;24648;98.2;25142;;;
92.0;14389;94.2;27571;96.2;25601;98.4;24867;;;
92.2;16297;94.4;28960;96.4;25709;98.6;26064;;;
92.4;19422;94.6;27727;96.6;24616;98.8;25075;;;
92.6;24275;94.8;28178;96.8;25716;99.0;24867;;;
92.8;26096;95.0;28458;97.0;25402;99.2;26064;;;
93.0;24648;95.2;27512;97.2;24616;99.4;25075;;;
93.2;25289;95.4;28737;97.4;25841;99.6;24484;;;
93.4;25521;95.6;28193;97.6;25438;99.8;26092;;;
93.6;24616;95.8;27783;97.8;24616;100.0;25043;;;
93.8;25236;96.0;28799;98.0;26843;100.2;24954;;;
94.0;26034;96.2;27714;98.2;26587;100.4;26096;;;
94.2;24217;96.4;28280;98.4;27937;100.6;25016;;;
94.4;25151;96.6;28623;98.6;28960;100.8;24978;;;
94.6;26064;96.8;27512;98.8;28879;101.0;26094;;;
94.8;24747;97.0;28828;99.0;28278;101.2;24924;;;
95.0;25151;97.2;27801;99.2;28583;101.4;25004;;;
95.2;25843;97.4;27917;99.4;27512;101.6;24501;;;
95.4;24269;97.6;28987;99.6;28820;101.8;3095;;;
95.6;25340;97.8;27540;99.8;27540;102.0;8620;;;
95.8;26033;98.0;28386;100.0;27837;102.2;12908;;;
96.0;25827;98.2;28516;100.2;28789;102.4;15551;;;
96.2;26064;98.4;28653;100.4;27693;102.6;20272;;;
96.4;25755;98.6;28932;100.6;28236;102.8;21526;;;
96.6;24616;98.8;27984;100.8;28789;103.0;25308;;;
96.8;25601;99.0;28014;101.0;27019;103.2;25390;;;
97.0;25686;99.2;28932;101.2;28612;103.4;26064;;;
97.2;24616;99.4;27512;101.4;27541;103.6;25438;;;
97.4;25827;99.6;28403;101.6;26559;103.8;24616;;;
97.6;25478;99.8;28236;101.8;3620;104.0;25916;;;
97.8;24616;100.0;27512;102.0;9321;104.2;25438;;;
98.0;26004;100.2;28904;102.2;14565;104.4;24616;;;
98.2;25293;100.4;28789;102.4;17481;104.6;25068;;;
98.4;24867;100.6;28960;102.6;21023;104.8;25195;;;
98.6;26064;100.8;28765;102.8;26379;105.0;24385;;;
98.8;25201;101.0;27541;103.0;28960;105.2;26064;;;
99.0;24780;101.2;28486;103.2;28765;105.4;25430;;;
99.2;26094;101.4;28496;103.4;28823;105.6;26094;;;
99.4;25142;101.6;26932;103.6;28744;105.8;26064;;;
99.6;24784;101.8;4022;103.8;27512;106.0;25142;;;
99.8;24899;102.0;9321;104.0;28723;106.2;24770;;;
100.0;25025;102.2;14647;104.2;28322;106.4;26094;;;
100.2;24784;102.4;17205;104.4;27659;106.6;25043;;;
100.4;26064;102.6;20545;104.6;28960;106.8;25738;;;
100.6;25201;102.8;24504;104.8;28960;107.0;25340;;;
100.8;24784;103.0;28108;105.0;28960;107.2;24846;;;
101.0;26064;103.2;28015;105.2;28604;107.4;25076;;;
101.2;25967;103.4;27901;105.4;28570;107.6;26092;;;
101.4;26034;103.6;28960;105.6;28789;107.8;24747;;;
101.6;24133;103.8;27714;105.8;28062;108.0;25188;;;
101.8;2896;104.0;26649;106.0;28468;108.2;25702;;;
102.0;9698;104.2;26064;106.2;28960;108.4;24747;;;
102.2;13118;104.4;24646;106.4;27539;108.6;24962;;;
102.4;15475;104.6;25289;106.6;28351;108.8;26064;;;
102.6;19809;104.8;25973;106.8;28495;109.0;24648;;;
102.8;24866;105.0;24461;107.0;28398;109.2;25087;;;
103.0;26404;105.2;26095;107.2;28987;109.4;25702;;;
103.2;27858;105.4;25848;107.4;27888;109.6;24616;;;
103.4;28960;105.6;24584;107.6;28152;109.8;25002;;;
103.6;27820;105.8;25702;107.8;28844;110.0;26032;;;
103.8;28103;106.0;25677;108.0;28670;110.2;25262;;;
104.0;28850;106.2;24451;108.2;28960;110.4;26064;;;
104.2;27512;106.4;25324;108.4;28557;110.6;25848;;;
104.4;28304;106.6;25540;108.6;28448;110.8;24580;;;
104.6;28291;106.8;26032;108.8;28960;111.0;25883;;;
104.8;27571;107.0;25919;109.0;27635;111.2;25798;;;
105.0;28960;107.2;25388;109.2;28319;111.4;24616;;;
105.2;26988;107.4;24651;109.4;28604;111.6;25521;;;
105.4;28068;107.6;25590;109.6;27331;111.8;25611;;;
105.6;28931;107.8;25293;109.8;28749;112.0;13192;;;
105.8;27512;108.0;24616;110.0;28062;112.2;4670;;;
106.0;28570;108.2;26095;110.2;27925;112.4;11091;;;
106.2;28363;108.4;25293;110.4;28960;112.6;16199;;;
106.4;27682;108.6;25827;110.6;27542;112.8;19186;;;
106.6;28932;108.8;26064;110.8;28820;113.0;22987;;;
106.8;27896;109.0;25142;111.0;28522;113.2;24422;;;
107.0;28091;109.2;24867;111.2;28457;113.4;24879;;;
107.2;28876;109.4;26064;111.4;28960;113.6;26094;;;
107.4;27512;109.6;24905;111.6;27975;113.8;24905;;;
107.6;28653;109.8;26064;111.8;28068;114.0;26064;;;
107.8;28322;110.0;25870;112.0;14624;114.2;26033;;;
108.0;28749;110.2;25521;112.2;4344;114.4;24616;;;
108.2;28960;110.4;26064;112.4;13807;114.6;23521;;;
108.4;28108;110.6;26033;112.6;17239;114.8;26094;;;
108.6;28619;110.8;24616;112.8;20697;115.0;24616;;;
108.8;28604;111.0;25434;113.0;25581;115.2;25909;;;
109.0;28820;111.2;25940;113.2;28792;115.4;26032;;;
109.2;28932;111.4;24616;113.4;27512;115.6;24649;;;
109.4;28293;111.6;25623;113.6;28682;115.8;25340;;;
109.6;28775;111.8;24905;113.8;27874;116.0;26033;;;
109.8;28207;112.0;14030;114.0;27659;116.2;24616;;;
110.0;27512;112.2;4670;114.2;28960;116.4;25717;;;
110.2;28557;112.4;12920;114.4;27888;116.6;26033;;;
110.4;28409;112.6;16268;114.6;28103;116.8;24616;;;
110.6;28904;112.8;21317;114.8;28850;117.0;25434;;;
110.8;28932;113.0;25340;115.0;27512;117.2;26031;;;
111.0;27896;113.2;27331;115.2;28570;117.4;24616;;;
111.2;28152;113.4;28820;115.4;28409;117.6;25434;;;
111.4;28768;113.6;28236;115.6;27651;117.8;26031;;;
111.6;27512;113.8;28904;115.8;28960;118.0;26004;;;
111.8;28670;114.0;28789;116.0;27912;118.2;26064;;;
112.0;14624;114.2;27727;116.2;28068;118.4;25755;;;
112.2;5536;114.4;28236;116.4;28931;118.6;24616;;;
112.4;12758;114.6;28278;116.6;27512;118.8;25650;;;
112.6;16353;114.8;26618;116.8;28590;119.0;25663;;;
112.8;20634;115.0;28438;117.0;28458;119.2;24616;;;
113.0;24727;115.2;28073;117.2;27512;119.4;24490;;;
113.2;28704;115.4;27512;117.4;28989;119.6;25663;;;
113.4;28960;115.6;28986;117.6;27937;119.8;24683;;;
113.6;28931;115.8;27912;117.8;28932;;;;;
113.8;27512;116.0;28068;118.0;28792;;;;;
114.0;28525;116.2;27714;118.2;27482;;;;;
114.2;28458;116.4;27512;118.4;28507;;;;;
114.4;27669;116.6;28457;118.6;28534;;;;;
114.6;28960;116.8;28522;118.8;27539;;;;;
114.8;27975;117.0;27512;119.0;28989;;;;;
115.0;28068;117.2;28904;119.2;28062;;;;;
115.2;28931;117.4;28062;119.4;27830;;;;;
115.4;27512;117.6;27925;119.6;28987;;;;;
115.6;28486;117.8;28960;119.8;27540;;;;;
115.8;28496;118.0;27544;;;;;;;
116.0;27659;118.2;28319;;;;;;;
116.2;28960;118.4;28604;;;;;;;
116.4;27975;118.6;27512;;;;;;;
116.6;28068;118.8;28304;;;;;;;
116.8;28779;119.0;27807;;;;;;;
117.0;28718;119.2;27830;;;;;;;
117.2;28960;119.4;28988;;;;;;;
117.4;28358;119.6;27703;;;;;;;
117.6;27480;119.8;28368;;;;;;;
117.8;28960;;;;;;;;;
118.0;27912;;;;;;;;;
118.2;28068;;;;;;;;;
118.4;28931;;;;;;;;;
118.6;27482;;;;;;;;;
118.8;28430;;;;;;;;;
119.0;28516;;;;;;;;;
119.2;27512;;;;;;;;;
119.4;28534;;;;;;;;;
119.6;27783;;;;;;;;;
119.8;27985;;;;;;;;;
